\relax 
\@writefile{toc}{\contentsline {section}{\numberline {I}Estimation Process}{1}}
\@writefile{lof}{\contentsline {figure}{\numberline {1}{\ignorespaces Left: Estimated engagement based on $n=5$ head pose observations per trial and Gaussian measurement noise with $\sigma =1$. Middle: Executed action parameter. Right: Real human engagement.\relax }}{1}}
\providecommand*\caption@xref[2]{\@setref\relax\@undefined{#1}}
\newlabel{fig:fig1}{{1}{1}}
\@writefile{lof}{\contentsline {figure}{\numberline {2}{\ignorespaces Action parameter perturbations with duration of 1, 2, 5 and 10 trials respectively.\relax }}{2}}
\newlabel{fig:fig3}{{2}{2}}
\@writefile{lof}{\contentsline {figure}{\numberline {3}{\ignorespaces Performance for increasing perturbation duration. Left: Engagement deviation from its maximum value (10). Right: Action parameter deviation from its optimal value (5). The measurement noise has $\sigma =1$.\relax }}{2}}
\newlabel{fig:fig4}{{3}{2}}
\@writefile{lof}{\contentsline {figure}{\numberline {4}{\ignorespaces Performance for increasing noise $\sigma $. Left: Engagement deviation from its maximum value (10). Right: Action parameter deviation from its optimal value (5). The measurement noise has $\sigma =1$.\relax }}{2}}
\newlabel{fig:fig5}{{4}{2}}
\@writefile{lof}{\contentsline {figure}{\numberline {5}{\ignorespaces Left: Engagement maximum deviation. Right: Number of trials to 90\%\relax }}{3}}
\newlabel{fig:fig6}{{5}{3}}
\@writefile{lot}{\contentsline {table}{\numberline {I}{\ignorespaces Engagement MAD values\relax }}{3}}
\newlabel{tab:eng_mad}{{I}{3}}
\@writefile{lot}{\contentsline {table}{\numberline {II}{\ignorespaces Action parameter MAD values\relax }}{3}}
\newlabel{tab:param_mad}{{II}{3}}
\@writefile{lot}{\contentsline {table}{\numberline {III}{\ignorespaces Engagement max deviation\relax }}{4}}
\newlabel{tab:eng_max_deviation}{{III}{4}}
\@writefile{lot}{\contentsline {table}{\numberline {IV}{\ignorespaces Number of trials to 90\%\relax }}{4}}
\newlabel{tab:trials90}{{IV}{4}}
\@writefile{toc}{\contentsline {section}{\numberline {II}References}{4}}
