\relax 
\@writefile{lot}{\contentsline {table}{\numberline {I}{\ignorespaces Number of trials to 90\%\relax }}{1}}
\providecommand*\caption@xref[2]{\@setref\relax\@undefined{#1}}
\newlabel{tab:trials90}{{I}{1}}
