%!PS-Adobe-3.0 EPSF-3.0
%%Creator: (MATLAB, The Mathworks, Inc. Version 8.5.0.197613 \(R2015a\). Operating System: Linux)
%%Title: /home/theodore/Documents/ECE/diplomatiki/Engagement_Estimation/4paramPerturbation_iterate_through_pert_length/results/boxplots/engagement_max_deviation_trials_to_90.eps
%%CreationDate: 2017-05-14T17:59:49
%%Pages: (atend)
%%BoundingBox: 0 0 839 308
%%LanguageLevel: 2
%%EndComments
%%BeginProlog
%%BeginResource: procset (Apache XML Graphics Std ProcSet) 1.2 0
%%Version: 1.2 0
%%Copyright: (Copyright 2001-2003,2010 The Apache Software Foundation. License terms: http://www.apache.org/licenses/LICENSE-2.0)
/bd{bind def}bind def
/ld{load def}bd
/GR/grestore ld
/M/moveto ld
/LJ/setlinejoin ld
/C/curveto ld
/f/fill ld
/LW/setlinewidth ld
/GC/setgray ld
/t/show ld
/N/newpath ld
/CT/concat ld
/cp/closepath ld
/S/stroke ld
/L/lineto ld
/CC/setcmykcolor ld
/A/ashow ld
/GS/gsave ld
/RC/setrgbcolor ld
/RM/rmoveto ld
/ML/setmiterlimit ld
/re {4 2 roll M
1 index 0 rlineto
0 exch rlineto
neg 0 rlineto
cp } bd
/_ctm matrix def
/_tm matrix def
/BT { _ctm currentmatrix pop matrix _tm copy pop 0 0 moveto } bd
/ET { _ctm setmatrix } bd
/iTm { _ctm setmatrix _tm concat } bd
/Tm { _tm astore pop iTm 0 0 moveto } bd
/ux 0.0 def
/uy 0.0 def
/F {
  /Tp exch def
  /Tf exch def
  Tf findfont Tp scalefont setfont
  /cf Tf def  /cs Tp def
} bd
/ULS {currentpoint /uy exch def /ux exch def} bd
/ULE {
  /Tcx currentpoint pop def
  gsave
  newpath
  cf findfont cs scalefont dup
  /FontMatrix get 0 get /Ts exch def /FontInfo get dup
  /UnderlinePosition get Ts mul /To exch def
  /UnderlineThickness get Ts mul /Tt exch def
  ux uy To add moveto  Tcx uy To add lineto
  Tt setlinewidth stroke
  grestore
} bd
/OLE {
  /Tcx currentpoint pop def
  gsave
  newpath
  cf findfont cs scalefont dup
  /FontMatrix get 0 get /Ts exch def /FontInfo get dup
  /UnderlinePosition get Ts mul /To exch def
  /UnderlineThickness get Ts mul /Tt exch def
  ux uy To add cs add moveto Tcx uy To add cs add lineto
  Tt setlinewidth stroke
  grestore
} bd
/SOE {
  /Tcx currentpoint pop def
  gsave
  newpath
  cf findfont cs scalefont dup
  /FontMatrix get 0 get /Ts exch def /FontInfo get dup
  /UnderlinePosition get Ts mul /To exch def
  /UnderlineThickness get Ts mul /Tt exch def
  ux uy To add cs 10 mul 26 idiv add moveto Tcx uy To add cs 10 mul 26 idiv add lineto
  Tt setlinewidth stroke
  grestore
} bd
/QT {
/Y22 exch store
/X22 exch store
/Y21 exch store
/X21 exch store
currentpoint
/Y21 load 2 mul add 3 div exch
/X21 load 2 mul add 3 div exch
/X21 load 2 mul /X22 load add 3 div
/Y21 load 2 mul /Y22 load add 3 div
/X22 load /Y22 load curveto
} bd
/SSPD {
dup length /d exch dict def
{
/v exch def
/k exch def
currentpagedevice k known {
/cpdv currentpagedevice k get def
v cpdv ne {
/upd false def
/nullv v type /nulltype eq def
/nullcpdv cpdv type /nulltype eq def
nullv nullcpdv or
{
/upd true def
} {
/sametype v type cpdv type eq def
sametype {
v type /arraytype eq {
/vlen v length def
/cpdvlen cpdv length def
vlen cpdvlen eq {
0 1 vlen 1 sub {
/i exch def
/obj v i get def
/cpdobj cpdv i get def
obj cpdobj ne {
/upd true def
exit
} if
} for
} {
/upd true def
} ifelse
} {
v type /dicttype eq {
v {
/dv exch def
/dk exch def
/cpddv cpdv dk get def
dv cpddv ne {
/upd true def
exit
} if
} forall
} {
/upd true def
} ifelse
} ifelse
} if
} ifelse
upd true eq {
d k v put
} if
} if
} if
} forall
d length 0 gt {
d setpagedevice
} if
} bd
%%EndResource
%%BeginResource: procset (Apache XML Graphics EPS ProcSet) 1.0 0
%%Version: 1.0 0
%%Copyright: (Copyright 2002-2003 The Apache Software Foundation. License terms: http://www.apache.org/licenses/LICENSE-2.0)
/BeginEPSF { %def
/b4_Inc_state save def         % Save state for cleanup
/dict_count countdictstack def % Count objects on dict stack
/op_count count 1 sub def      % Count objects on operand stack
userdict begin                 % Push userdict on dict stack
/showpage { } def              % Redefine showpage, { } = null proc
0 setgray 0 setlinecap         % Prepare graphics state
1 setlinewidth 0 setlinejoin
10 setmiterlimit [ ] 0 setdash newpath
/languagelevel where           % If level not equal to 1 then
{pop languagelevel             % set strokeadjust and
1 ne                           % overprint to their defaults.
{false setstrokeadjust false setoverprint
} if
} if
} bd
/EndEPSF { %def
count op_count sub {pop} repeat            % Clean up stacks
countdictstack dict_count sub {end} repeat
b4_Inc_state restore
} bd
%%EndResource
%FOPBeginFontDict
%%IncludeResource: font Courier-Bold
%%IncludeResource: font Helvetica
%%IncludeResource: font Courier-BoldOblique
%%IncludeResource: font Courier-Oblique
%%IncludeResource: font Times-Roman
%%IncludeResource: font Helvetica-BoldOblique
%%IncludeResource: font Helvetica-Bold
%%IncludeResource: font Helvetica-Oblique
%%IncludeResource: font Times-BoldItalic
%%IncludeResource: font Courier
%%IncludeResource: font Times-Italic
%%IncludeResource: font Times-Bold
%%IncludeResource: font Symbol
%%IncludeResource: font ZapfDingbats
%FOPEndFontDict
%%BeginResource: encoding WinAnsiEncoding
/WinAnsiEncoding [
/.notdef /.notdef /.notdef /.notdef /.notdef
/.notdef /.notdef /.notdef /.notdef /.notdef
/.notdef /.notdef /.notdef /.notdef /.notdef
/.notdef /.notdef /.notdef /.notdef /.notdef
/.notdef /.notdef /.notdef /.notdef /.notdef
/.notdef /.notdef /.notdef /.notdef /.notdef
/.notdef /.notdef /space /exclam /quotedbl
/numbersign /dollar /percent /ampersand /quotesingle
/parenleft /parenright /asterisk /plus /comma
/hyphen /period /slash /zero /one
/two /three /four /five /six
/seven /eight /nine /colon /semicolon
/less /equal /greater /question /at
/A /B /C /D /E
/F /G /H /I /J
/K /L /M /N /O
/P /Q /R /S /T
/U /V /W /X /Y
/Z /bracketleft /backslash /bracketright /asciicircum
/underscore /quoteleft /a /b /c
/d /e /f /g /h
/i /j /k /l /m
/n /o /p /q /r
/s /t /u /v /w
/x /y /z /braceleft /bar
/braceright /asciitilde /bullet /Euro /bullet
/quotesinglbase /florin /quotedblbase /ellipsis /dagger
/daggerdbl /circumflex /perthousand /Scaron /guilsinglleft
/OE /bullet /Zcaron /bullet /bullet
/quoteleft /quoteright /quotedblleft /quotedblright /bullet
/endash /emdash /asciitilde /trademark /scaron
/guilsinglright /oe /bullet /zcaron /Ydieresis
/space /exclamdown /cent /sterling /currency
/yen /brokenbar /section /dieresis /copyright
/ordfeminine /guillemotleft /logicalnot /sfthyphen /registered
/macron /degree /plusminus /twosuperior /threesuperior
/acute /mu /paragraph /middot /cedilla
/onesuperior /ordmasculine /guillemotright /onequarter /onehalf
/threequarters /questiondown /Agrave /Aacute /Acircumflex
/Atilde /Adieresis /Aring /AE /Ccedilla
/Egrave /Eacute /Ecircumflex /Edieresis /Igrave
/Iacute /Icircumflex /Idieresis /Eth /Ntilde
/Ograve /Oacute /Ocircumflex /Otilde /Odieresis
/multiply /Oslash /Ugrave /Uacute /Ucircumflex
/Udieresis /Yacute /Thorn /germandbls /agrave
/aacute /acircumflex /atilde /adieresis /aring
/ae /ccedilla /egrave /eacute /ecircumflex
/edieresis /igrave /iacute /icircumflex /idieresis
/eth /ntilde /ograve /oacute /ocircumflex
/otilde /odieresis /divide /oslash /ugrave
/uacute /ucircumflex /udieresis /yacute /thorn
/ydieresis
] def
%%EndResource
%FOPBeginFontReencode
/Courier-Bold findfont
dup length dict begin
  {1 index /FID ne {def} {pop pop} ifelse} forall
  /Encoding WinAnsiEncoding def
  currentdict
end
/Courier-Bold exch definefont pop
/Helvetica findfont
dup length dict begin
  {1 index /FID ne {def} {pop pop} ifelse} forall
  /Encoding WinAnsiEncoding def
  currentdict
end
/Helvetica exch definefont pop
/Courier-BoldOblique findfont
dup length dict begin
  {1 index /FID ne {def} {pop pop} ifelse} forall
  /Encoding WinAnsiEncoding def
  currentdict
end
/Courier-BoldOblique exch definefont pop
/Courier-Oblique findfont
dup length dict begin
  {1 index /FID ne {def} {pop pop} ifelse} forall
  /Encoding WinAnsiEncoding def
  currentdict
end
/Courier-Oblique exch definefont pop
/Times-Roman findfont
dup length dict begin
  {1 index /FID ne {def} {pop pop} ifelse} forall
  /Encoding WinAnsiEncoding def
  currentdict
end
/Times-Roman exch definefont pop
/Helvetica-BoldOblique findfont
dup length dict begin
  {1 index /FID ne {def} {pop pop} ifelse} forall
  /Encoding WinAnsiEncoding def
  currentdict
end
/Helvetica-BoldOblique exch definefont pop
/Helvetica-Bold findfont
dup length dict begin
  {1 index /FID ne {def} {pop pop} ifelse} forall
  /Encoding WinAnsiEncoding def
  currentdict
end
/Helvetica-Bold exch definefont pop
/Helvetica-Oblique findfont
dup length dict begin
  {1 index /FID ne {def} {pop pop} ifelse} forall
  /Encoding WinAnsiEncoding def
  currentdict
end
/Helvetica-Oblique exch definefont pop
/Times-BoldItalic findfont
dup length dict begin
  {1 index /FID ne {def} {pop pop} ifelse} forall
  /Encoding WinAnsiEncoding def
  currentdict
end
/Times-BoldItalic exch definefont pop
/Courier findfont
dup length dict begin
  {1 index /FID ne {def} {pop pop} ifelse} forall
  /Encoding WinAnsiEncoding def
  currentdict
end
/Courier exch definefont pop
/Times-Italic findfont
dup length dict begin
  {1 index /FID ne {def} {pop pop} ifelse} forall
  /Encoding WinAnsiEncoding def
  currentdict
end
/Times-Italic exch definefont pop
/Times-Bold findfont
dup length dict begin
  {1 index /FID ne {def} {pop pop} ifelse} forall
  /Encoding WinAnsiEncoding def
  currentdict
end
/Times-Bold exch definefont pop
%FOPEndFontReencode
%%EndProlog
%%Page: 1 1
%%PageBoundingBox: 0 0 839 308
%%BeginPageSetup
[1 0 0 -1 0 308] CT
%%EndPageSetup
GS
[0.75 0 0 0.75 0 0.5] CT
N
0 0 M
1118 0 L
1118 410 L
0 410 L
0 0 L
cp
clip
1 GC
N
0 0 1118 410 re
f
GR
GS
[0.75 0 0 0.75 0 0.5] CT
1 GC
N
0 0 1118 410 re
f
GR
GS
[0.75 0 0 0.75 0 0.5] CT
1 GC
N
147 365 M
529 365 L
529 31 L
147 31 L
cp
f
GR
GS
[0.75 0 0 0.75 253.50014 291.99999] CT
0.149 GC
/Helvetica 15 F
GS
[1 0 0 1 0 0] CT
-149.5 14 moveto 
1 -1 scale
(perturbation duration \(number of trials\)) t 
GR
GR
GS
[0.75 0 0 0.75 0 0.5] CT
0.149 GC
2 setlinecap
10.0 ML
N
147 365 M
529 365 L
S
GR
GS
[0.75 0 0 0.75 0 0.5] CT
0.149 GC
2 setlinecap
10.0 ML
N
147 31 M
529 31 L
S
GR
GS
[0.75 0 0 0.75 0 0.5] CT
0.149 GC
2 setlinecap
10.0 ML
N
166.1 365 M
166.1 361.18 L
S
GR
GS
[0.75 0 0 0.75 0 0.5] CT
0.149 GC
2 setlinecap
10.0 ML
N
204.3 365 M
204.3 361.18 L
S
GR
GS
[0.75 0 0 0.75 0 0.5] CT
0.149 GC
2 setlinecap
10.0 ML
N
242.5 365 M
242.5 361.18 L
S
GR
GS
[0.75 0 0 0.75 0 0.5] CT
0.149 GC
2 setlinecap
10.0 ML
N
280.7 365 M
280.7 361.18 L
S
GR
GS
[0.75 0 0 0.75 0 0.5] CT
0.149 GC
2 setlinecap
10.0 ML
N
318.9 365 M
318.9 361.18 L
S
GR
GS
[0.75 0 0 0.75 0 0.5] CT
0.149 GC
2 setlinecap
10.0 ML
N
357.1 365 M
357.1 361.18 L
S
GR
GS
[0.75 0 0 0.75 0 0.5] CT
0.149 GC
2 setlinecap
10.0 ML
N
395.3 365 M
395.3 361.18 L
S
GR
GS
[0.75 0 0 0.75 0 0.5] CT
0.149 GC
2 setlinecap
10.0 ML
N
433.5 365 M
433.5 361.18 L
S
GR
GS
[0.75 0 0 0.75 0 0.5] CT
0.149 GC
2 setlinecap
10.0 ML
N
471.7 365 M
471.7 361.18 L
S
GR
GS
[0.75 0 0 0.75 0 0.5] CT
0.149 GC
2 setlinecap
10.0 ML
N
509.9 365 M
509.9 361.18 L
S
GR
GS
[0.75 0 0 0.75 0 0.5] CT
0.149 GC
2 setlinecap
10.0 ML
N
166.1 31 M
166.1 34.82 L
S
GR
GS
[0.75 0 0 0.75 0 0.5] CT
0.149 GC
2 setlinecap
10.0 ML
N
204.3 31 M
204.3 34.82 L
S
GR
GS
[0.75 0 0 0.75 0 0.5] CT
0.149 GC
2 setlinecap
10.0 ML
N
242.5 31 M
242.5 34.82 L
S
GR
GS
[0.75 0 0 0.75 0 0.5] CT
0.149 GC
2 setlinecap
10.0 ML
N
280.7 31 M
280.7 34.82 L
S
GR
GS
[0.75 0 0 0.75 0 0.5] CT
0.149 GC
2 setlinecap
10.0 ML
N
318.9 31 M
318.9 34.82 L
S
GR
GS
[0.75 0 0 0.75 0 0.5] CT
0.149 GC
2 setlinecap
10.0 ML
N
357.1 31 M
357.1 34.82 L
S
GR
GS
[0.75 0 0 0.75 0 0.5] CT
0.149 GC
2 setlinecap
10.0 ML
N
395.3 31 M
395.3 34.82 L
S
GR
GS
[0.75 0 0 0.75 0 0.5] CT
0.149 GC
2 setlinecap
10.0 ML
N
433.5 31 M
433.5 34.82 L
S
GR
GS
[0.75 0 0 0.75 0 0.5] CT
0.149 GC
2 setlinecap
10.0 ML
N
471.7 31 M
471.7 34.82 L
S
GR
GS
[0.75 0 0 0.75 0 0.5] CT
0.149 GC
2 setlinecap
10.0 ML
N
509.9 31 M
509.9 34.82 L
S
GR
GS
[0.75 0 0 0.75 124.575 278.25001] CT
0.149 GC
/Helvetica 13 F
GS
[1 0 0 1 0 0] CT
-4.5 13 moveto 
1 -1 scale
(1) t 
GR
GR
GS
[0.75 0 0 0.75 153.225 278.25001] CT
0.149 GC
/Helvetica 13 F
GS
[1 0 0 1 0 0] CT
-4.5 13 moveto 
1 -1 scale
(2) t 
GR
GR
GS
[0.75 0 0 0.75 181.875 278.25001] CT
0.149 GC
/Helvetica 13 F
GS
[1 0 0 1 0 0] CT
-4.5 13 moveto 
1 -1 scale
(3) t 
GR
GR
GS
[0.75 0 0 0.75 210.52501 278.25001] CT
0.149 GC
/Helvetica 13 F
GS
[1 0 0 1 0 0] CT
-4.5 13 moveto 
1 -1 scale
(4) t 
GR
GR
GS
[0.75 0 0 0.75 239.175 278.25001] CT
0.149 GC
/Helvetica 13 F
GS
[1 0 0 1 0 0] CT
-4.5 13 moveto 
1 -1 scale
(5) t 
GR
GR
GS
[0.75 0 0 0.75 267.825 278.25001] CT
0.149 GC
/Helvetica 13 F
GS
[1 0 0 1 0 0] CT
-4.5 13 moveto 
1 -1 scale
(6) t 
GR
GR
GS
[0.75 0 0 0.75 296.47499 278.25001] CT
0.149 GC
/Helvetica 13 F
GS
[1 0 0 1 0 0] CT
-4.5 13 moveto 
1 -1 scale
(7) t 
GR
GR
GS
[0.75 0 0 0.75 325.125 278.25001] CT
0.149 GC
/Helvetica 13 F
GS
[1 0 0 1 0 0] CT
-4.5 13 moveto 
1 -1 scale
(8) t 
GR
GR
GS
[0.75 0 0 0.75 353.77501 278.25001] CT
0.149 GC
/Helvetica 13 F
GS
[1 0 0 1 0 0] CT
-4.5 13 moveto 
1 -1 scale
(9) t 
GR
GR
GS
[0.75 0 0 0.75 382.425 278.25001] CT
0.149 GC
/Helvetica 13 F
GS
[1 0 0 1 0 0] CT
-8.5 13 moveto 
1 -1 scale
(10) t 
GR
GR
GS
[0 -0.75 0.75 0 96.5 148.99987] CT
0.149 GC
/Helvetica 15 F
GS
[1 0 0 1 0 0] CT
-55 -22 moveto 
1 -1 scale
( engagement  ) t 
GR
GR
GS
[0 -0.75 0.75 0 96.5 148.99987] CT
0.149 GC
/Helvetica 15 F
GS
[1 0 0 1 0 0] CT
-54 -4 moveto 
1 -1 scale
(max deviation) t 
GR
GR
GS
[0.75 0 0 0.75 0 0.5] CT
0.149 GC
2 setlinecap
10.0 ML
N
147 365 M
147 31 L
S
GR
GS
[0.75 0 0 0.75 0 0.5] CT
0.149 GC
2 setlinecap
10.0 ML
N
529 365 M
529 31 L
S
GR
GS
[0.75 0 0 0.75 0 0.5] CT
0.149 GC
2 setlinecap
10.0 ML
N
147 331.336 M
150.82 331.336 L
S
GR
GS
[0.75 0 0 0.75 0 0.5] CT
0.149 GC
2 setlinecap
10.0 ML
N
147 295.743 M
150.82 295.743 L
S
GR
GS
[0.75 0 0 0.75 0 0.5] CT
0.149 GC
2 setlinecap
10.0 ML
N
147 260.15 M
150.82 260.15 L
S
GR
GS
[0.75 0 0 0.75 0 0.5] CT
0.149 GC
2 setlinecap
10.0 ML
N
147 224.556 M
150.82 224.556 L
S
GR
GS
[0.75 0 0 0.75 0 0.5] CT
0.149 GC
2 setlinecap
10.0 ML
N
147 188.963 M
150.82 188.963 L
S
GR
GS
[0.75 0 0 0.75 0 0.5] CT
0.149 GC
2 setlinecap
10.0 ML
N
147 153.37 M
150.82 153.37 L
S
GR
GS
[0.75 0 0 0.75 0 0.5] CT
0.149 GC
2 setlinecap
10.0 ML
N
147 117.776 M
150.82 117.776 L
S
GR
GS
[0.75 0 0 0.75 0 0.5] CT
0.149 GC
2 setlinecap
10.0 ML
N
147 82.183 M
150.82 82.183 L
S
GR
GS
[0.75 0 0 0.75 0 0.5] CT
0.149 GC
2 setlinecap
10.0 ML
N
147 46.589 M
150.82 46.589 L
S
GR
GS
[0.75 0 0 0.75 0 0.5] CT
0.149 GC
2 setlinecap
10.0 ML
N
529 331.336 M
525.18 331.336 L
S
GR
GS
[0.75 0 0 0.75 0 0.5] CT
0.149 GC
2 setlinecap
10.0 ML
N
529 295.743 M
525.18 295.743 L
S
GR
GS
[0.75 0 0 0.75 0 0.5] CT
0.149 GC
2 setlinecap
10.0 ML
N
529 260.15 M
525.18 260.15 L
S
GR
GS
[0.75 0 0 0.75 0 0.5] CT
0.149 GC
2 setlinecap
10.0 ML
N
529 224.556 M
525.18 224.556 L
S
GR
GS
[0.75 0 0 0.75 0 0.5] CT
0.149 GC
2 setlinecap
10.0 ML
N
529 188.963 M
525.18 188.963 L
S
GR
GS
[0.75 0 0 0.75 0 0.5] CT
0.149 GC
2 setlinecap
10.0 ML
N
529 153.37 M
525.18 153.37 L
S
GR
GS
[0.75 0 0 0.75 0 0.5] CT
0.149 GC
2 setlinecap
10.0 ML
N
529 117.776 M
525.18 117.776 L
S
GR
GS
[0.75 0 0 0.75 0 0.5] CT
0.149 GC
2 setlinecap
10.0 ML
N
529 82.183 M
525.18 82.183 L
S
GR
GS
[0.75 0 0 0.75 0 0.5] CT
0.149 GC
2 setlinecap
10.0 ML
N
529 46.589 M
525.18 46.589 L
S
GR
GS
[0.75 0 0 0.75 106.25 249.00223] CT
0.149 GC
/Helvetica 13 F
GS
[1 0 0 1 0 0] CT
-9 4.5 moveto 
1 -1 scale
(1) t 
GR
GR
GS
[0.75 0 0 0.75 106.25 222.30721] CT
0.149 GC
/Helvetica 13 F
GS
[1 0 0 1 0 0] CT
-9 4.5 moveto 
1 -1 scale
(2) t 
GR
GR
GS
[0.75 0 0 0.75 106.25 195.6122] CT
0.149 GC
/Helvetica 13 F
GS
[1 0 0 1 0 0] CT
-9 4.5 moveto 
1 -1 scale
(3) t 
GR
GR
GS
[0.75 0 0 0.75 106.25 168.91717] CT
0.149 GC
/Helvetica 13 F
GS
[1 0 0 1 0 0] CT
-9 4.5 moveto 
1 -1 scale
(4) t 
GR
GR
GS
[0.75 0 0 0.75 106.25 142.22216] CT
0.149 GC
/Helvetica 13 F
GS
[1 0 0 1 0 0] CT
-9 4.5 moveto 
1 -1 scale
(5) t 
GR
GR
GS
[0.75 0 0 0.75 106.25 115.52713] CT
0.149 GC
/Helvetica 13 F
GS
[1 0 0 1 0 0] CT
-9 4.5 moveto 
1 -1 scale
(6) t 
GR
GR
GS
[0.75 0 0 0.75 106.25 88.83211] CT
0.149 GC
/Helvetica 13 F
GS
[1 0 0 1 0 0] CT
-9 4.5 moveto 
1 -1 scale
(7) t 
GR
GR
GS
[0.75 0 0 0.75 106.25 62.13709] CT
0.149 GC
/Helvetica 13 F
GS
[1 0 0 1 0 0] CT
-9 4.5 moveto 
1 -1 scale
(8) t 
GR
GR
GS
[0.75 0 0 0.75 106.25 35.44207] CT
0.149 GC
/Helvetica 13 F
GS
[1 0 0 1 0 0] CT
-9 4.5 moveto 
1 -1 scale
(9) t 
GR
GR
GS
[0.75 0 0 0.75 0 0.5] CT
[10 6] 0 setdash
2 LJ
N
166.1 319.916 M
166.1 298.14 L
S
GR
GS
[0.75 0 0 0.75 0 0.5] CT
[10 6] 0 setdash
2 LJ
N
204.3 300.103 M
204.3 287.507 L
S
GR
GS
[0.75 0 0 0.75 0 0.5] CT
[10 6] 0 setdash
2 LJ
N
242.5 273.22 M
242.5 256.22 L
S
GR
GS
[0.75 0 0 0.75 0 0.5] CT
[10 6] 0 setdash
2 LJ
N
280.7 252.124 M
280.7 232.602 L
S
GR
GS
[0.75 0 0 0.75 0 0.5] CT
[10 6] 0 setdash
2 LJ
N
318.9 232.273 M
318.9 193.259 L
S
GR
GS
[0.75 0 0 0.75 0 0.5] CT
[10 6] 0 setdash
2 LJ
N
357.1 213.11 M
357.1 168.569 L
S
GR
GS
[0.75 0 0 0.75 0 0.5] CT
[10 6] 0 setdash
2 LJ
N
395.3 203.202 M
395.3 149.163 L
S
GR
GS
[0.75 0 0 0.75 0 0.5] CT
[10 6] 0 setdash
2 LJ
N
433.5 194.674 M
433.5 166.327 L
S
GR
GS
[0.75 0 0 0.75 0 0.5] CT
[10 6] 0 setdash
2 LJ
N
471.7 187.245 M
471.7 149.347 L
S
GR
GS
[0.75 0 0 0.75 0 0.5] CT
[10 6] 0 setdash
2 LJ
N
509.9 179.223 M
509.9 130.725 L
S
GR
GS
[0.75 0 0 0.75 0 0.5] CT
[10 6] 0 setdash
2 LJ
N
166.1 349.818 M
166.1 335.26 L
S
GR
GS
[0.75 0 0 0.75 0 0.5] CT
[10 6] 0 setdash
2 LJ
N
204.3 315.666 M
204.3 309.035 L
S
GR
GS
[0.75 0 0 0.75 0 0.5] CT
[10 6] 0 setdash
2 LJ
N
242.5 328.006 M
242.5 296.321 L
S
GR
GS
[0.75 0 0 0.75 0 0.5] CT
[10 6] 0 setdash
2 LJ
N
280.7 301.605 M
280.7 276.142 L
S
GR
GS
[0.75 0 0 0.75 0 0.5] CT
[10 6] 0 setdash
2 LJ
N
318.9 303.234 M
318.9 269.871 L
S
GR
GS
[0.75 0 0 0.75 0 0.5] CT
[10 6] 0 setdash
2 LJ
N
357.1 274.531 M
357.1 248.699 L
S
GR
GS
[0.75 0 0 0.75 0 0.5] CT
[10 6] 0 setdash
2 LJ
N
395.3 296.155 M
395.3 241.141 L
S
GR
GS
[0.75 0 0 0.75 0 0.5] CT
[10 6] 0 setdash
2 LJ
N
433.5 290.47 M
433.5 248.205 L
S
GR
GS
[0.75 0 0 0.75 0 0.5] CT
[10 6] 0 setdash
2 LJ
N
471.7 302.679 M
471.7 247.494 L
S
GR
GS
[0.75 0 0 0.75 0 0.5] CT
[10 6] 0 setdash
2 LJ
N
509.9 272.741 M
509.9 229.305 L
S
GR
GS
[0.75 0 0 0.75 0 0.5] CT
2 setlinecap
10.0 ML
N
161.325 298.14 M
170.875 298.14 L
S
GR
GS
[0.75 0 0 0.75 0 0.5] CT
2 setlinecap
10.0 ML
N
199.525 287.507 M
209.075 287.507 L
S
GR
GS
[0.75 0 0 0.75 0 0.5] CT
2 setlinecap
10.0 ML
N
237.725 256.22 M
247.275 256.22 L
S
GR
GS
[0.75 0 0 0.75 0 0.5] CT
2 setlinecap
10.0 ML
N
275.925 232.602 M
285.475 232.602 L
S
GR
GS
[0.75 0 0 0.75 0 0.5] CT
2 setlinecap
10.0 ML
N
314.125 193.259 M
323.675 193.259 L
S
GR
GS
[0.75 0 0 0.75 0 0.5] CT
2 setlinecap
10.0 ML
N
352.325 168.569 M
361.875 168.569 L
S
GR
GS
[0.75 0 0 0.75 0 0.5] CT
2 setlinecap
10.0 ML
N
390.525 149.163 M
400.075 149.163 L
S
GR
GS
[0.75 0 0 0.75 0 0.5] CT
2 setlinecap
10.0 ML
N
428.725 166.327 M
438.275 166.327 L
S
GR
GS
[0.75 0 0 0.75 0 0.5] CT
2 setlinecap
10.0 ML
N
466.925 149.347 M
476.475 149.347 L
S
GR
GS
[0.75 0 0 0.75 0 0.5] CT
2 setlinecap
10.0 ML
N
505.125 130.725 M
514.675 130.725 L
S
GR
GS
[0.75 0 0 0.75 0 0.5] CT
2 setlinecap
10.0 ML
N
161.325 349.818 M
170.875 349.818 L
S
GR
GS
[0.75 0 0 0.75 0 0.5] CT
2 setlinecap
10.0 ML
N
199.525 315.666 M
209.075 315.666 L
S
GR
GS
[0.75 0 0 0.75 0 0.5] CT
2 setlinecap
10.0 ML
N
237.725 328.006 M
247.275 328.006 L
S
GR
GS
[0.75 0 0 0.75 0 0.5] CT
2 setlinecap
10.0 ML
N
275.925 301.605 M
285.475 301.605 L
S
GR
GS
[0.75 0 0 0.75 0 0.5] CT
2 setlinecap
10.0 ML
N
314.125 303.234 M
323.675 303.234 L
S
GR
GS
[0.75 0 0 0.75 0 0.5] CT
2 setlinecap
10.0 ML
N
352.325 274.531 M
361.875 274.531 L
S
GR
GS
[0.75 0 0 0.75 0 0.5] CT
2 setlinecap
10.0 ML
N
390.525 296.155 M
400.075 296.155 L
S
GR
GS
[0.75 0 0 0.75 0 0.5] CT
2 setlinecap
10.0 ML
N
428.725 290.47 M
438.275 290.47 L
S
GR
GS
[0.75 0 0 0.75 0 0.5] CT
2 setlinecap
10.0 ML
N
466.925 302.679 M
476.475 302.679 L
S
GR
GS
[0.75 0 0 0.75 0 0.5] CT
2 setlinecap
10.0 ML
N
505.125 272.741 M
514.675 272.741 L
S
GR
GS
[0.75 0 0 0.75 0 0.5] CT
0 0 1 RC
2 setlinecap
10.0 ML
N
156.55 335.26 M
156.55 319.916 L
175.65 319.916 L
175.65 335.26 L
156.55 335.26 L
S
GR
GS
[0.75 0 0 0.75 0 0.5] CT
0 0 1 RC
2 setlinecap
10.0 ML
N
194.75 309.035 M
194.75 300.103 L
213.85 300.103 L
213.85 309.035 L
194.75 309.035 L
S
GR
GS
[0.75 0 0 0.75 0 0.5] CT
0 0 1 RC
2 setlinecap
10.0 ML
N
232.95 296.321 M
232.95 273.22 L
252.05 273.22 L
252.05 296.321 L
232.95 296.321 L
S
GR
GS
[0.75 0 0 0.75 0 0.5] CT
0 0 1 RC
2 setlinecap
10.0 ML
N
271.15 276.142 M
271.15 252.124 L
290.25 252.124 L
290.25 276.142 L
271.15 276.142 L
S
GR
GS
[0.75 0 0 0.75 0 0.5] CT
0 0 1 RC
2 setlinecap
10.0 ML
N
309.35 269.871 M
309.35 232.273 L
328.45 232.273 L
328.45 269.871 L
309.35 269.871 L
S
GR
GS
[0.75 0 0 0.75 0 0.5] CT
0 0 1 RC
2 setlinecap
10.0 ML
N
347.55 248.699 M
347.55 213.11 L
366.65 213.11 L
366.65 248.699 L
347.55 248.699 L
S
GR
GS
[0.75 0 0 0.75 0 0.5] CT
0 0 1 RC
2 setlinecap
10.0 ML
N
385.75 241.141 M
385.75 203.202 L
404.85 203.202 L
404.85 241.141 L
385.75 241.141 L
S
GR
GS
[0.75 0 0 0.75 0 0.5] CT
0 0 1 RC
2 setlinecap
10.0 ML
N
423.95 248.205 M
423.95 194.674 L
443.05 194.674 L
443.05 248.205 L
423.95 248.205 L
S
GR
GS
[0.75 0 0 0.75 0 0.5] CT
0 0 1 RC
2 setlinecap
10.0 ML
N
462.15 247.494 M
462.15 187.245 L
481.25 187.245 L
481.25 247.494 L
462.15 247.494 L
S
GR
GS
[0.75 0 0 0.75 0 0.5] CT
0 0 1 RC
2 setlinecap
10.0 ML
N
500.35 229.305 M
500.35 179.223 L
519.45 179.223 L
519.45 229.305 L
500.35 229.305 L
S
GR
GS
[0.75 0 0 0.75 0 0.5] CT
1 0 0 RC
2 setlinecap
10.0 ML
N
156.55 333.274 M
175.65 333.274 L
S
GR
GS
[0.75 0 0 0.75 0 0.5] CT
1 0 0 RC
2 setlinecap
10.0 ML
N
194.75 302.21 M
213.85 302.21 L
S
GR
GS
[0.75 0 0 0.75 0 0.5] CT
1 0 0 RC
2 setlinecap
10.0 ML
N
232.95 284.051 M
252.05 284.051 L
S
GR
GS
[0.75 0 0 0.75 0 0.5] CT
1 0 0 RC
2 setlinecap
10.0 ML
N
271.15 261.68 M
290.25 261.68 L
S
GR
GS
[0.75 0 0 0.75 0 0.5] CT
1 0 0 RC
2 setlinecap
10.0 ML
N
309.35 253.291 M
328.45 253.291 L
S
GR
GS
[0.75 0 0 0.75 0 0.5] CT
1 0 0 RC
2 setlinecap
10.0 ML
N
347.55 234.667 M
366.65 234.667 L
S
GR
GS
[0.75 0 0 0.75 0 0.5] CT
1 0 0 RC
2 setlinecap
10.0 ML
N
385.75 221.944 M
404.85 221.944 L
S
GR
GS
[0.75 0 0 0.75 0 0.5] CT
1 0 0 RC
2 setlinecap
10.0 ML
N
423.95 218.353 M
443.05 218.353 L
S
GR
GS
[0.75 0 0 0.75 0 0.5] CT
1 0 0 RC
2 setlinecap
10.0 ML
N
462.15 212.081 M
481.25 212.081 L
S
GR
GS
[0.75 0 0 0.75 0 0.5] CT
1 0 0 RC
2 setlinecap
10.0 ML
N
500.35 206.742 M
519.45 206.742 L
S
GR
GS
[0.75 0 0 0.75 0 0.5] CT
1 GC
N
638 365 M
1011 365 L
1011 31 L
638 31 L
cp
f
GR
GS
[0.75 0 0 0.75 618.37514 291.99999] CT
0.149 GC
/Helvetica 15 F
GS
[1 0 0 1 0 0] CT
-149.5 14 moveto 
1 -1 scale
(perturbation duration \(number of trials\)) t 
GR
GR
GS
[0.75 0 0 0.75 0 0.5] CT
0.149 GC
2 setlinecap
10.0 ML
N
638 365 M
1011 365 L
S
GR
GS
[0.75 0 0 0.75 0 0.5] CT
0.149 GC
2 setlinecap
10.0 ML
N
638 31 M
1011 31 L
S
GR
GS
[0.75 0 0 0.75 0 0.5] CT
0.149 GC
2 setlinecap
10.0 ML
N
656.65 365 M
656.65 361.27 L
S
GR
GS
[0.75 0 0 0.75 0 0.5] CT
0.149 GC
2 setlinecap
10.0 ML
N
693.95 365 M
693.95 361.27 L
S
GR
GS
[0.75 0 0 0.75 0 0.5] CT
0.149 GC
2 setlinecap
10.0 ML
N
731.25 365 M
731.25 361.27 L
S
GR
GS
[0.75 0 0 0.75 0 0.5] CT
0.149 GC
2 setlinecap
10.0 ML
N
768.55 365 M
768.55 361.27 L
S
GR
GS
[0.75 0 0 0.75 0 0.5] CT
0.149 GC
2 setlinecap
10.0 ML
N
805.85 365 M
805.85 361.27 L
S
GR
GS
[0.75 0 0 0.75 0 0.5] CT
0.149 GC
2 setlinecap
10.0 ML
N
843.15 365 M
843.15 361.27 L
S
GR
GS
[0.75 0 0 0.75 0 0.5] CT
0.149 GC
2 setlinecap
10.0 ML
N
880.45 365 M
880.45 361.27 L
S
GR
GS
[0.75 0 0 0.75 0 0.5] CT
0.149 GC
2 setlinecap
10.0 ML
N
917.75 365 M
917.75 361.27 L
S
GR
GS
[0.75 0 0 0.75 0 0.5] CT
0.149 GC
2 setlinecap
10.0 ML
N
955.05 365 M
955.05 361.27 L
S
GR
GS
[0.75 0 0 0.75 0 0.5] CT
0.149 GC
2 setlinecap
10.0 ML
N
992.35 365 M
992.35 361.27 L
S
GR
GS
[0.75 0 0 0.75 0 0.5] CT
0.149 GC
2 setlinecap
10.0 ML
N
656.65 31 M
656.65 34.73 L
S
GR
GS
[0.75 0 0 0.75 0 0.5] CT
0.149 GC
2 setlinecap
10.0 ML
N
693.95 31 M
693.95 34.73 L
S
GR
GS
[0.75 0 0 0.75 0 0.5] CT
0.149 GC
2 setlinecap
10.0 ML
N
731.25 31 M
731.25 34.73 L
S
GR
GS
[0.75 0 0 0.75 0 0.5] CT
0.149 GC
2 setlinecap
10.0 ML
N
768.55 31 M
768.55 34.73 L
S
GR
GS
[0.75 0 0 0.75 0 0.5] CT
0.149 GC
2 setlinecap
10.0 ML
N
805.85 31 M
805.85 34.73 L
S
GR
GS
[0.75 0 0 0.75 0 0.5] CT
0.149 GC
2 setlinecap
10.0 ML
N
843.15 31 M
843.15 34.73 L
S
GR
GS
[0.75 0 0 0.75 0 0.5] CT
0.149 GC
2 setlinecap
10.0 ML
N
880.45 31 M
880.45 34.73 L
S
GR
GS
[0.75 0 0 0.75 0 0.5] CT
0.149 GC
2 setlinecap
10.0 ML
N
917.75 31 M
917.75 34.73 L
S
GR
GS
[0.75 0 0 0.75 0 0.5] CT
0.149 GC
2 setlinecap
10.0 ML
N
955.05 31 M
955.05 34.73 L
S
GR
GS
[0.75 0 0 0.75 0 0.5] CT
0.149 GC
2 setlinecap
10.0 ML
N
992.35 31 M
992.35 34.73 L
S
GR
GS
[0.75 0 0 0.75 492.48752 278.25001] CT
0.149 GC
/Helvetica 13 F
GS
[1 0 0 1 0 0] CT
-4.5 13 moveto 
1 -1 scale
(1) t 
GR
GR
GS
[0.75 0 0 0.75 520.46251 278.25001] CT
0.149 GC
/Helvetica 13 F
GS
[1 0 0 1 0 0] CT
-4.5 13 moveto 
1 -1 scale
(2) t 
GR
GR
GS
[0.75 0 0 0.75 548.4375 278.25001] CT
0.149 GC
/Helvetica 13 F
GS
[1 0 0 1 0 0] CT
-4.5 13 moveto 
1 -1 scale
(3) t 
GR
GR
GS
[0.75 0 0 0.75 576.41249 278.25001] CT
0.149 GC
/Helvetica 13 F
GS
[1 0 0 1 0 0] CT
-4.5 13 moveto 
1 -1 scale
(4) t 
GR
GR
GS
[0.75 0 0 0.75 604.38748 278.25001] CT
0.149 GC
/Helvetica 13 F
GS
[1 0 0 1 0 0] CT
-4.5 13 moveto 
1 -1 scale
(5) t 
GR
GR
GS
[0.75 0 0 0.75 632.36252 278.25001] CT
0.149 GC
/Helvetica 13 F
GS
[1 0 0 1 0 0] CT
-4.5 13 moveto 
1 -1 scale
(6) t 
GR
GR
GS
[0.75 0 0 0.75 660.33751 278.25001] CT
0.149 GC
/Helvetica 13 F
GS
[1 0 0 1 0 0] CT
-4.5 13 moveto 
1 -1 scale
(7) t 
GR
GR
GS
[0.75 0 0 0.75 688.3125 278.25001] CT
0.149 GC
/Helvetica 13 F
GS
[1 0 0 1 0 0] CT
-4.5 13 moveto 
1 -1 scale
(8) t 
GR
GR
GS
[0.75 0 0 0.75 716.28749 278.25001] CT
0.149 GC
/Helvetica 13 F
GS
[1 0 0 1 0 0] CT
-4.5 13 moveto 
1 -1 scale
(9) t 
GR
GR
GS
[0.75 0 0 0.75 744.26248 278.25001] CT
0.149 GC
/Helvetica 13 F
GS
[1 0 0 1 0 0] CT
-8.5 13 moveto 
1 -1 scale
(10) t 
GR
GR
GS
[0 -0.75 0.75 0 458.75002 148.99987] CT
0.149 GC
/Helvetica 15 F
GS
[1 0 0 1 0 0] CT
-54 -4 moveto 
1 -1 scale
(#trials to 90%) t 
GR
GR
GS
[0.75 0 0 0.75 0 0.5] CT
0.149 GC
2 setlinecap
10.0 ML
N
638 365 M
638 31 L
S
GR
GS
[0.75 0 0 0.75 0 0.5] CT
0.149 GC
2 setlinecap
10.0 ML
N
1011 365 M
1011 31 L
S
GR
GS
[0.75 0 0 0.75 0 0.5] CT
0.149 GC
2 setlinecap
10.0 ML
N
638 349.818 M
641.73 349.818 L
S
GR
GS
[0.75 0 0 0.75 0 0.5] CT
0.149 GC
2 setlinecap
10.0 ML
N
638 310.89 M
641.73 310.89 L
S
GR
GS
[0.75 0 0 0.75 0 0.5] CT
0.149 GC
2 setlinecap
10.0 ML
N
638 271.963 M
641.73 271.963 L
S
GR
GS
[0.75 0 0 0.75 0 0.5] CT
0.149 GC
2 setlinecap
10.0 ML
N
638 233.035 M
641.73 233.035 L
S
GR
GS
[0.75 0 0 0.75 0 0.5] CT
0.149 GC
2 setlinecap
10.0 ML
N
638 194.107 M
641.73 194.107 L
S
GR
GS
[0.75 0 0 0.75 0 0.5] CT
0.149 GC
2 setlinecap
10.0 ML
N
638 155.179 M
641.73 155.179 L
S
GR
GS
[0.75 0 0 0.75 0 0.5] CT
0.149 GC
2 setlinecap
10.0 ML
N
638 116.252 M
641.73 116.252 L
S
GR
GS
[0.75 0 0 0.75 0 0.5] CT
0.149 GC
2 setlinecap
10.0 ML
N
638 77.324 M
641.73 77.324 L
S
GR
GS
[0.75 0 0 0.75 0 0.5] CT
0.149 GC
2 setlinecap
10.0 ML
N
638 38.396 M
641.73 38.396 L
S
GR
GS
[0.75 0 0 0.75 0 0.5] CT
0.149 GC
2 setlinecap
10.0 ML
N
1011 349.818 M
1007.27 349.818 L
S
GR
GS
[0.75 0 0 0.75 0 0.5] CT
0.149 GC
2 setlinecap
10.0 ML
N
1011 310.89 M
1007.27 310.89 L
S
GR
GS
[0.75 0 0 0.75 0 0.5] CT
0.149 GC
2 setlinecap
10.0 ML
N
1011 271.963 M
1007.27 271.963 L
S
GR
GS
[0.75 0 0 0.75 0 0.5] CT
0.149 GC
2 setlinecap
10.0 ML
N
1011 233.035 M
1007.27 233.035 L
S
GR
GS
[0.75 0 0 0.75 0 0.5] CT
0.149 GC
2 setlinecap
10.0 ML
N
1011 194.107 M
1007.27 194.107 L
S
GR
GS
[0.75 0 0 0.75 0 0.5] CT
0.149 GC
2 setlinecap
10.0 ML
N
1011 155.179 M
1007.27 155.179 L
S
GR
GS
[0.75 0 0 0.75 0 0.5] CT
0.149 GC
2 setlinecap
10.0 ML
N
1011 116.252 M
1007.27 116.252 L
S
GR
GS
[0.75 0 0 0.75 0 0.5] CT
0.149 GC
2 setlinecap
10.0 ML
N
1011 77.324 M
1007.27 77.324 L
S
GR
GS
[0.75 0 0 0.75 0 0.5] CT
0.149 GC
2 setlinecap
10.0 ML
N
1011 38.396 M
1007.27 38.396 L
S
GR
GS
[0.75 0 0 0.75 474.50002 262.86363] CT
0.149 GC
/Helvetica 13 F
GS
[1 0 0 1 0 0] CT
-9 4.5 moveto 
1 -1 scale
(0) t 
GR
GR
GS
[0.75 0 0 0.75 474.50002 233.66783] CT
0.149 GC
/Helvetica 13 F
GS
[1 0 0 1 0 0] CT
-9 4.5 moveto 
1 -1 scale
(5) t 
GR
GR
GS
[0.75 0 0 0.75 474.50002 204.47203] CT
0.149 GC
/Helvetica 13 F
GS
[1 0 0 1 0 0] CT
-17 4.5 moveto 
1 -1 scale
(10) t 
GR
GR
GS
[0.75 0 0 0.75 474.50002 175.27622] CT
0.149 GC
/Helvetica 13 F
GS
[1 0 0 1 0 0] CT
-17 4.5 moveto 
1 -1 scale
(15) t 
GR
GR
GS
[0.75 0 0 0.75 474.50002 146.08042] CT
0.149 GC
/Helvetica 13 F
GS
[1 0 0 1 0 0] CT
-17 4.5 moveto 
1 -1 scale
(20) t 
GR
GR
GS
[0.75 0 0 0.75 474.50002 116.88462] CT
0.149 GC
/Helvetica 13 F
GS
[1 0 0 1 0 0] CT
-17 4.5 moveto 
1 -1 scale
(25) t 
GR
GR
GS
[0.75 0 0 0.75 474.50002 87.68881] CT
0.149 GC
/Helvetica 13 F
GS
[1 0 0 1 0 0] CT
-17 4.5 moveto 
1 -1 scale
(30) t 
GR
GR
GS
[0.75 0 0 0.75 474.50002 58.49301] CT
0.149 GC
/Helvetica 13 F
GS
[1 0 0 1 0 0] CT
-17 4.5 moveto 
1 -1 scale
(35) t 
GR
GR
GS
[0.75 0 0 0.75 474.50002 29.2972] CT
0.149 GC
/Helvetica 13 F
GS
[1 0 0 1 0 0] CT
-17 4.5 moveto 
1 -1 scale
(40) t 
GR
GR
GS
[0.75 0 0 0.75 0 0.5] CT
[10 6] 0 setdash
2 LJ
N
656.65 310.89 M
656.65 279.748 L
S
GR
GS
[0.75 0 0 0.75 0 0.5] CT
[10 6] 0 setdash
2 LJ
N
693.95 295.319 M
693.95 256.392 L
S
GR
GS
[0.75 0 0 0.75 0 0.5] CT
[10 6] 0 setdash
2 LJ
N
731.25 287.534 M
731.25 264.177 L
S
GR
GS
[0.75 0 0 0.75 0 0.5] CT
[10 6] 0 setdash
2 LJ
N
768.55 271.963 M
768.55 201.893 L
S
GR
GS
[0.75 0 0 0.75 0 0.5] CT
[10 6] 0 setdash
2 LJ
N
805.85 256.392 M
805.85 186.322 L
S
GR
GS
[0.75 0 0 0.75 0 0.5] CT
[10 6] 0 setdash
2 LJ
N
843.15 217.464 M
843.15 108.466 L
S
GR
GS
[0.75 0 0 0.75 0 0.5] CT
[10 6] 0 setdash
2 LJ
N
880.45 240.821 M
880.45 139.608 L
S
GR
GS
[0.75 0 0 0.75 0 0.5] CT
[10 6] 0 setdash
2 LJ
N
917.75 217.464 M
917.75 124.037 L
S
GR
GS
[0.75 0 0 0.75 0 0.5] CT
[10 6] 0 setdash
2 LJ
N
955.05 194.107 M
955.05 139.608 L
S
GR
GS
[0.75 0 0 0.75 0 0.5] CT
[10 6] 0 setdash
2 LJ
N
992.35 178.536 M
992.35 108.466 L
S
GR
GS
[0.75 0 0 0.75 0 0.5] CT
[10 6] 0 setdash
2 LJ
N
656.65 349.818 M
656.65 334.247 L
S
GR
GS
[0.75 0 0 0.75 0 0.5] CT
[10 6] 0 setdash
2 LJ
N
693.95 342.033 M
693.95 326.462 L
S
GR
GS
[0.75 0 0 0.75 0 0.5] CT
[10 6] 0 setdash
2 LJ
N
731.25 349.818 M
731.25 318.676 L
S
GR
GS
[0.75 0 0 0.75 0 0.5] CT
[10 6] 0 setdash
2 LJ
N
768.55 326.462 M
768.55 318.676 L
S
GR
GS
[0.75 0 0 0.75 0 0.5] CT
[10 6] 0 setdash
2 LJ
N
805.85 326.462 M
805.85 303.105 L
S
GR
GS
[0.75 0 0 0.75 0 0.5] CT
[10 6] 0 setdash
2 LJ
N
843.15 318.676 M
843.15 295.319 L
S
GR
GS
[0.75 0 0 0.75 0 0.5] CT
[10 6] 0 setdash
2 LJ
N
880.45 349.818 M
880.45 318.676 L
S
GR
GS
[0.75 0 0 0.75 0 0.5] CT
[10 6] 0 setdash
2 LJ
N
917.75 310.89 M
917.75 279.748 L
S
GR
GS
[0.75 0 0 0.75 0 0.5] CT
[10 6] 0 setdash
2 LJ
N
955.05 326.462 M
955.05 279.748 L
S
GR
GS
[0.75 0 0 0.75 0 0.5] CT
[10 6] 0 setdash
2 LJ
N
992.35 349.818 M
992.35 279.748 L
S
GR
GS
[0.75 0 0 0.75 0 0.5] CT
2 setlinecap
10.0 ML
N
651.987 279.748 M
661.313 279.748 L
S
GR
GS
[0.75 0 0 0.75 0 0.5] CT
2 setlinecap
10.0 ML
N
689.287 256.392 M
698.612 256.392 L
S
GR
GS
[0.75 0 0 0.75 0 0.5] CT
2 setlinecap
10.0 ML
N
726.588 264.177 M
735.912 264.177 L
S
GR
GS
[0.75 0 0 0.75 0 0.5] CT
2 setlinecap
10.0 ML
N
763.888 201.893 M
773.213 201.893 L
S
GR
GS
[0.75 0 0 0.75 0 0.5] CT
2 setlinecap
10.0 ML
N
801.188 186.322 M
810.513 186.322 L
S
GR
GS
[0.75 0 0 0.75 0 0.5] CT
2 setlinecap
10.0 ML
N
838.487 108.466 M
847.813 108.466 L
S
GR
GS
[0.75 0 0 0.75 0 0.5] CT
2 setlinecap
10.0 ML
N
875.787 139.608 M
885.112 139.608 L
S
GR
GS
[0.75 0 0 0.75 0 0.5] CT
2 setlinecap
10.0 ML
N
913.088 124.037 M
922.412 124.037 L
S
GR
GS
[0.75 0 0 0.75 0 0.5] CT
2 setlinecap
10.0 ML
N
950.388 139.608 M
959.713 139.608 L
S
GR
GS
[0.75 0 0 0.75 0 0.5] CT
2 setlinecap
10.0 ML
N
987.688 108.466 M
997.013 108.466 L
S
GR
GS
[0.75 0 0 0.75 0 0.5] CT
2 setlinecap
10.0 ML
N
651.987 349.818 M
661.313 349.818 L
S
GR
GS
[0.75 0 0 0.75 0 0.5] CT
2 setlinecap
10.0 ML
N
689.287 342.033 M
698.612 342.033 L
S
GR
GS
[0.75 0 0 0.75 0 0.5] CT
2 setlinecap
10.0 ML
N
726.588 349.818 M
735.912 349.818 L
S
GR
GS
[0.75 0 0 0.75 0 0.5] CT
2 setlinecap
10.0 ML
N
763.888 326.462 M
773.213 326.462 L
S
GR
GS
[0.75 0 0 0.75 0 0.5] CT
2 setlinecap
10.0 ML
N
801.188 326.462 M
810.513 326.462 L
S
GR
GS
[0.75 0 0 0.75 0 0.5] CT
2 setlinecap
10.0 ML
N
838.487 318.676 M
847.813 318.676 L
S
GR
GS
[0.75 0 0 0.75 0 0.5] CT
2 setlinecap
10.0 ML
N
875.787 349.818 M
885.112 349.818 L
S
GR
GS
[0.75 0 0 0.75 0 0.5] CT
2 setlinecap
10.0 ML
N
913.088 310.89 M
922.412 310.89 L
S
GR
GS
[0.75 0 0 0.75 0 0.5] CT
2 setlinecap
10.0 ML
N
950.388 326.462 M
959.713 326.462 L
S
GR
GS
[0.75 0 0 0.75 0 0.5] CT
2 setlinecap
10.0 ML
N
987.688 349.818 M
997.013 349.818 L
S
GR
GS
[0.75 0 0 0.75 0 0.5] CT
0 0 1 RC
2 setlinecap
10.0 ML
N
647.325 334.247 M
647.325 310.89 L
665.975 310.89 L
665.975 334.247 L
647.325 334.247 L
S
GR
GS
[0.75 0 0 0.75 0 0.5] CT
0 0 1 RC
2 setlinecap
10.0 ML
N
684.625 326.462 M
684.625 295.319 L
703.275 295.319 L
703.275 326.462 L
684.625 326.462 L
S
GR
GS
[0.75 0 0 0.75 0 0.5] CT
0 0 1 RC
2 setlinecap
10.0 ML
N
721.925 318.676 M
721.925 287.534 L
740.575 287.534 L
740.575 318.676 L
721.925 318.676 L
S
GR
GS
[0.75 0 0 0.75 0 0.5] CT
0 0 1 RC
2 setlinecap
10.0 ML
N
759.225 318.676 M
759.225 271.963 L
777.875 271.963 L
777.875 318.676 L
759.225 318.676 L
S
GR
GS
[0.75 0 0 0.75 0 0.5] CT
0 0 1 RC
2 setlinecap
10.0 ML
N
796.525 303.105 M
796.525 256.392 L
815.175 256.392 L
815.175 303.105 L
796.525 303.105 L
S
GR
GS
[0.75 0 0 0.75 0 0.5] CT
0 0 1 RC
2 setlinecap
10.0 ML
N
833.825 295.319 M
833.825 217.464 L
852.475 217.464 L
852.475 295.319 L
833.825 295.319 L
S
GR
GS
[0.75 0 0 0.75 0 0.5] CT
0 0 1 RC
2 setlinecap
10.0 ML
N
871.125 318.676 M
871.125 240.821 L
889.775 240.821 L
889.775 318.676 L
871.125 318.676 L
S
GR
GS
[0.75 0 0 0.75 0 0.5] CT
0 0 1 RC
2 setlinecap
10.0 ML
N
908.425 279.748 M
908.425 217.464 L
927.075 217.464 L
927.075 279.748 L
908.425 279.748 L
S
GR
GS
[0.75 0 0 0.75 0 0.5] CT
0 0 1 RC
2 setlinecap
10.0 ML
N
945.725 279.748 M
945.725 194.107 L
964.375 194.107 L
964.375 279.748 L
945.725 279.748 L
S
GR
GS
[0.75 0 0 0.75 0 0.5] CT
0 0 1 RC
2 setlinecap
10.0 ML
N
983.025 279.748 M
983.025 178.536 L
1001.675 178.536 L
1001.675 279.748 L
983.025 279.748 L
S
GR
GS
[0.75 0 0 0.75 0 0.5] CT
1 0 0 RC
2 setlinecap
10.0 ML
N
647.325 326.462 M
665.975 326.462 L
S
GR
GS
[0.75 0 0 0.75 0 0.5] CT
1 0 0 RC
2 setlinecap
10.0 ML
N
684.625 310.89 M
703.275 310.89 L
S
GR
GS
[0.75 0 0 0.75 0 0.5] CT
1 0 0 RC
2 setlinecap
10.0 ML
N
721.925 303.105 M
740.575 303.105 L
S
GR
GS
[0.75 0 0 0.75 0 0.5] CT
1 0 0 RC
2 setlinecap
10.0 ML
N
759.225 295.319 M
777.875 295.319 L
S
GR
GS
[0.75 0 0 0.75 0 0.5] CT
1 0 0 RC
2 setlinecap
10.0 ML
N
796.525 271.963 M
815.175 271.963 L
S
GR
GS
[0.75 0 0 0.75 0 0.5] CT
1 0 0 RC
2 setlinecap
10.0 ML
N
833.825 264.177 M
852.475 264.177 L
S
GR
GS
[0.75 0 0 0.75 0 0.5] CT
1 0 0 RC
2 setlinecap
10.0 ML
N
871.125 279.748 M
889.775 279.748 L
S
GR
GS
[0.75 0 0 0.75 0 0.5] CT
1 0 0 RC
2 setlinecap
10.0 ML
N
908.425 256.392 M
927.075 256.392 L
S
GR
GS
[0.75 0 0 0.75 0 0.5] CT
1 0 0 RC
2 setlinecap
10.0 ML
N
945.725 256.392 M
964.375 256.392 L
S
GR
GS
[0.75 0 0 0.75 0 0.5] CT
1 0 0 RC
2 setlinecap
10.0 ML
N
983.025 244.713 M
1001.675 244.713 L
S
GR
%%Trailer
%%Pages: 1
%%EOF
