\relax 
\citation{khamassi17}
\citation{kober11,stulp13}
\citation{kober13}
\citation{masson16,hausknecht16}
\citation{hausknecht16}
\citation{kober13}
\citation{hausknecht16}
\citation{vanhasselt07}
\citation{schweighofer03}
\citation{geist10}
\citation{anzalone15}
\@writefile{toc}{\contentsline {section}{\numberline {I}Introduction}{1}}
\citation{khamassi17}
\citation{watkins92}
\citation{vanhasselt07}
\citation{vanhasselt07}
\citation{schweighofer03}
\citation{schweighofer03}
\citation{anzalone15}
\@writefile{toc}{\contentsline {section}{\numberline {II}Active exploration algorithm}{2}}
\newlabel{eq:delta}{{1}{2}}
\newlabel{eq:QL}{{2}{2}}
\newlabel{eq:gauss}{{3}{2}}
\newlabel{eq:critic}{{4}{2}}
\newlabel{eq:actor}{{5}{2}}
\newlabel{eq:schweighofer}{{6}{2}}
\newlabel{eq:meta}{{7}{2}}
\newlabel{alg:algo}{{1}{2}}
\@writefile{loa}{\contentsline {algorithm}{\numberline {1}{\ignorespaces Active exploration with meta-learning}}{2}}
\@writefile{toc}{\contentsline {section}{\numberline {III}Experiments}{2}}
\@writefile{toc}{\contentsline {subsection}{\numberline {\unhbox \voidb@x \hbox {III-A}}Simple HRI simulation}{2}}
\citation{anzalone15,ooko2011}
\@writefile{toc}{\contentsline {subsection}{\numberline {\unhbox \voidb@x \hbox {III-B}}Engagement Estimation Process}{3}}
\@writefile{lof}{\contentsline {figure}{\numberline {1}{\ignorespaces Top: Comparison of engagement in 10 simulations of the meta-learning model (dark gray), the model without active exploration (black), and the Kalman-QL (light gray). Bottom: V-REP simulations of the NAO robot interacting with a human.}}{3}}
\newlabel{fig:active}{{1}{3}}
\@writefile{lof}{\contentsline {figure}{\numberline {2}{\ignorespaces Estimated vs. real (simulated) engagement in one run involving a step change (of $100\%$) after 100 trials, based on $n=5$ head pose observations per trial and Gaussian measurement noise with $\sigma =1$.}}{4}}
\newlabel{fig:fig0}{{2}{4}}
\@writefile{lof}{\contentsline {figure}{\numberline {3}{\ignorespaces Top: Real (simulated) human engagement (mean and standard deviation after 50 runs) when the optimal action parameter undergoes step changes every 100 trials as shown in left figure (engagement does not drop below a $70\%$ value). Bottom: Executed action parameter (mean and standard deviation after 50 runs) involving step changes.}}{4}}
\newlabel{fig:fig1}{{3}{4}}
\@writefile{toc}{\contentsline {section}{\numberline {IV}Discussion}{4}}
\@writefile{lof}{\contentsline {figure}{\numberline {4}{\ignorespaces Action parameter perturbations with durations of 1, 2, 5 and 10 trials, respectively.}}{5}}
\newlabel{fig:fig3}{{4}{5}}
\@writefile{lof}{\contentsline {figure}{\numberline {5}{\ignorespaces Performance for increasing perturbation duration. Left: Engagement mean absolute deviation from its maximum value (10). Right: Action parameter mean absolute deviation from its optimal value (5). The measurement noise has a $\sigma =1$.}}{5}}
\newlabel{fig:fig4}{{5}{5}}
\@writefile{lof}{\contentsline {figure}{\numberline {6}{\ignorespaces Performance for increasing noise $\sigma $. Left: Engagement mean absolute deviation from its maximum value (10). Right: Action parameter mean absolute deviation from its optimal value (5). The measurement noise has $\sigma =1$.}}{5}}
\newlabel{fig:fig5}{{6}{5}}
\@writefile{lot}{\contentsline {table}{\numberline {I}{\ignorespaces Engagement MAD values}}{5}}
\newlabel{tab:eng_mad}{{I}{5}}
\bibstyle{IEEEtran}
\bibdata{biblio}
\bibcite{khamassi17}{1}
\bibcite{kober11}{2}
\bibcite{stulp13}{3}
\bibcite{kober13}{4}
\bibcite{masson16}{5}
\bibcite{hausknecht16}{6}
\bibcite{vanhasselt07}{7}
\bibcite{schweighofer03}{8}
\bibcite{geist10}{9}
\bibcite{watkins92}{10}
\bibcite{anzalone15}{11}
\bibcite{ooko2011}{12}
\bibcite{viejo15}{13}
\@writefile{lot}{\contentsline {table}{\numberline {II}{\ignorespaces Action parameter MAD values}}{6}}
\newlabel{tab:param_mad}{{II}{6}}
\@writefile{lot}{\contentsline {table}{\numberline {III}{\ignorespaces Engagement max deviation}}{6}}
\newlabel{tab:eng_max_deviation}{{III}{6}}
\@writefile{lot}{\contentsline {table}{\numberline {IV}{\ignorespaces Number of trials to 90\%}}{6}}
\newlabel{tab:trials90}{{IV}{6}}
\@writefile{toc}{\contentsline {section}{References}{6}}
