\relax 
\@writefile{toc}{\contentsline {section}{\numberline {I}Engagement Estimation Process in the V-REP HRI simulation}{1}}
\@writefile{lof}{\contentsline {figure}{\numberline {1}{\ignorespaces Left: Low head pose variance. Human engagement is high. Right: High head pose variance. Human engagement is low.\relax }}{1}}
\providecommand*\caption@xref[2]{\@setref\relax\@undefined{#1}}
\newlabel{fig:head_var}{{1}{1}}
\@writefile{lof}{\contentsline {figure}{\numberline {2}{\ignorespaces Real (simulated) vs. estimated engagement based on $n = 5$ head pose observations per trial and Gaussian measurement noise with $\sigma = 0.5$.\relax }}{2}}
\newlabel{fig:estimated_real_eng2}{{2}{2}}
\@writefile{lof}{\contentsline {figure}{\numberline {3}{\ignorespaces Top: Executed action parameter (mean and variance after 20 runs) involving step changes. Bottom: Real (simulated) human engagement (mean and variance after 20 runs) when the optimal action parameter undergoes step changes every 100 trials as shown in bottom figure (engagement does not drop below a 60\% value).\relax }}{2}}
\newlabel{fig:eng_param_20exp_1to4to0}{{3}{2}}
\@writefile{lof}{\contentsline {figure}{\numberline {4}{\ignorespaces Action parameter (top) and human engagement (bottom) during optimal action parameter perturbations with duration of 1 (solid black), 2 (dashed black), 5 (solid gray) and 10 (dashed gray) trials respectively.\relax }}{2}}
\newlabel{fig:param_eng_pert1_2_5_10}{{4}{2}}
\@writefile{lof}{\contentsline {figure}{\numberline {5}{\ignorespaces Performance for increasing perturbation duration (number of trials). Top: Engagement deviation from its maximum value (10). Bottom: Action parameter deviation from its optimal value (1). The measurement noise has $\sigma =1$.\relax }}{3}}
\newlabel{fig:eng_param_mad2}{{5}{3}}
\@writefile{lot}{\contentsline {table}{\numberline {I}{\ignorespaces Number of trials needed for engagement to reach 90\% of its maximal value after a perturbation.\relax }}{3}}
\newlabel{tab:trials90}{{I}{3}}
\@writefile{lof}{\contentsline {figure}{\numberline {6}{\ignorespaces Performance for increasing noise $\sigma $. Top: Engagement deviation from its maximum value (10). Bottom: Action parameter deviation from its optimal value (1).\relax }}{3}}
\newlabel{fig:noise_eng_param_mad2}{{6}{3}}
\@writefile{toc}{\contentsline {section}{\numberline {II}Conclusion}{3}}
