\relax 
\citation{narayanan02,brick07,edlund08,cantrell10,kopp14,lemaignan17}
\citation{anzalone15}
\citation{tomasello10}
\citation{boucher12,moubayed13,admoni14,bampatzia14}
\citation{rich10,anzalone15,ivaldi17,lemaignan17}
\citation{obrien08}
\citation{khamassi11}
\citation{kober11,stulp13}
\citation{kober13}
\citation{mnih15}
\citation{wang16,mouret17}
\citation{vollmer16}
\citation{schmidhuber06,baranes13,moulin-frier13,benureau16,wang16}
\@writefile{toc}{\contentsline {section}{\numberline {I}Introduction}{1}}
\citation{masson16,hausknecht16}
\citation{masson16}
\citation{hausknecht16}
\citation{hausknecht16}
\citation{vanHasselt07}
\citation{schweighofer03}
\citation{garivier08}
\citation{geist10}
\citation{Daw06,frank09}
\citation{watkins92}
\@writefile{toc}{\contentsline {section}{\numberline {II}Active exploration algorithm}{2}}
\newlabel{eq:delta}{{1}{2}}
\citation{vanHasselt07}
\citation{vanHasselt07}
\citation{vanHasselt07}
\citation{caluwaerts12}
\citation{schweighofer03,khamassi13}
\citation{palminteri15}
\citation{schweighofer03}
\citation{schweighofer03}
\citation{geist10}
\citation{Daw06}
\citation{geist10}
\newlabel{eq:QL}{{2}{3}}
\newlabel{eq:softmax}{{3}{3}}
\newlabel{eq:gauss}{{4}{3}}
\newlabel{eq:critic}{{5}{3}}
\newlabel{eq:actor}{{6}{3}}
\newlabel{eq:schweighofer}{{7}{3}}
\newlabel{eq:meta}{{8}{3}}
\newlabel{alg:algo}{{1}{3}}
\@writefile{loa}{\contentsline {algorithm}{\numberline {1}{\ignorespaces Active exploration with meta-learning}}{3}}
\@writefile{toc}{\contentsline {section}{\numberline {III}Experiments}{3}}
\@writefile{toc}{\contentsline {subsection}{\numberline {\unhbox \voidb@x \hbox {III-A}}Non-stationary multi-armed bandit}{3}}
\citation{garivier08}
\citation{garivier08}
\citation{garivier08}
\citation{garivier08}
\citation{kocsis06}
\citation{auer02}
\citation{garivier08}
\citation{garivier08}
\@writefile{lof}{\contentsline {figure}{\numberline {1}{\ignorespaces Probability that an arm $a$ will return a reward upon choice in the non-stationary multi-armed bandit task tested here. Adapted from \cite  {garivier08}.}}{4}}
\newlabel{fig:fig1g}{{1}{4}}
\newlabel{eq:ucb_n}{{9}{4}}
\newlabel{eq:ucb_r}{{10}{4}}
\newlabel{eq:ucb_c}{{11}{4}}
\newlabel{eq:ucb_a}{{12}{4}}
\@writefile{lof}{\contentsline {figure}{\numberline {2}{\ignorespaces Performance in the bandit task. Top: The averaged cumulative regret per episode. Bottom left: The final cumulative regret for 500 sessions. Bottom right: The final cumulative reward for 500 sessions}}{4}}
\newlabel{fig:resultsBandit}{{2}{4}}
\newlabel{eq:QL2}{{13}{4}}
\newlabel{eq:beta2}{{14}{4}}
\citation{anzalone15}
\citation{schilbach10}
\citation{geist10}
\@writefile{toc}{\contentsline {subsection}{\numberline {\unhbox \voidb@x \hbox {III-B}}Simple HRI simulation}{5}}
\newlabel{fig:a}{{2(a)}{6}}
\newlabel{sub@fig:a}{{(a)}{6}}
\newlabel{fig:b}{{2(b)}{6}}
\newlabel{sub@fig:b}{{(b)}{6}}
\newlabel{fig:c}{{2(c)}{6}}
\newlabel{sub@fig:c}{{(c)}{6}}
\newlabel{fig:d}{{2(d)}{6}}
\newlabel{sub@fig:d}{{(d)}{6}}
\@writefile{lof}{\contentsline {subfigure}{\numberline{(a)}{\ignorespaces {Fixed exploration, $\sigma = 20$}}}{6}}
\@writefile{lof}{\contentsline {subfigure}{\numberline{(b)}{\ignorespaces {Fixed exploration, $\sigma = 10$}}}{6}}
\@writefile{lof}{\contentsline {subfigure}{\numberline{(c)}{\ignorespaces {Kalman Q-learning}}}{6}}
\@writefile{lof}{\contentsline {subfigure}{\numberline{(d)}{\ignorespaces {Meta-learning}}}{6}}
\@writefile{lof}{\contentsline {figure}{\numberline {3}{\ignorespaces Simulations of the parameterized reinforcement learning (RL) algorithm with (a) fixed $\sigma =20$ and $\beta =4$ (no active exploration), (b) fixed $\sigma =10$ and $\beta =4$ (no active exploration), (d) $\sigma _t^a$ and $b_t^a$ tuned by Kalman-RL (active exploration) or (d) $\sigma _t$ and $\beta _t$ tuned by meta-learning (active exploration).}}{6}}
\newlabel{fig:fixedExploration}{{3}{6}}
\@writefile{lof}{\contentsline {figure}{\numberline {4}{\ignorespaces Comparison of engagement in 10 simulations of the meta-learning model (dark gray), the model without active exploration (black), and the Kalman-QL (light gray).}}{6}}
\newlabel{fig:10sims}{{4}{6}}
\@writefile{toc}{\contentsline {subsection}{\numberline {\unhbox \voidb@x \hbox {III-C}}Realistic V-REP HRI simulation}{6}}
\@writefile{lof}{\contentsline {figure}{\numberline {5}{\ignorespaces Parameter optimization for the different tested algorithms.}}{7}}
\newlabel{fig:paramOptim}{{5}{7}}
\citation{anzalone15,ooko11}
\@writefile{lof}{\contentsline {figure}{\numberline {6}{\ignorespaces Snapshots of the V-REP simulated HRI scenario, showing human-centric (left) and robot-centric (right) views of the scene. Top views: human engagement is high. Bottom views: human engagement is low.}}{8}}
\newlabel{fig:vrep}{{6}{8}}
\@writefile{toc}{\contentsline {subsection}{\numberline {\unhbox \voidb@x \hbox {III-D}}Engagement Estimation Process in the V/REP HRI simulation}{8}}
\@writefile{lof}{\contentsline {figure}{\numberline {7}{\ignorespaces Left column: Comparison of engagement (top) and action parameter (bottom) convergence between the meta-learning and the Kalman-QL algorithms. Right Column: zoomed-in plots depicting convergence performance of the proposed meta-learning algorithm.}}{9}}
\newlabel{fig:theo1}{{7}{9}}
\@writefile{lot}{\contentsline {table}{\numberline {I}{\ignorespaces Engagement MAD values}}{9}}
\newlabel{tab:eng_mad}{{I}{9}}
\@writefile{lot}{\contentsline {table}{\numberline {II}{\ignorespaces Action parameter MAD values}}{9}}
\newlabel{tab:param_mad}{{II}{9}}
\@writefile{lot}{\contentsline {table}{\numberline {III}{\ignorespaces Engagement max deviation}}{9}}
\newlabel{tab:eng_max_deviation}{{III}{9}}
\@writefile{lot}{\contentsline {table}{\numberline {IV}{\ignorespaces Number of trials to 90\%}}{9}}
\newlabel{tab:trials90}{{IV}{9}}
\citation{garivier08}
\citation{alles15}
\citation{geist10}
\citation{viejo15}
\@writefile{lof}{\contentsline {figure}{\numberline {8}{\ignorespaces Estimated vs. real (simulated) engagement in one run involving a step change (of $100\%$) after 100 trials, based on $n=5$ head pose observations per trial and Gaussian measurement noise with $\sigma =1$.}}{10}}
\newlabel{fig:estimated_engagement}{{8}{10}}
\@writefile{lof}{\contentsline {figure}{\numberline {9}{\ignorespaces Left: Executed action parameter (mean and variance after 50 runs) involving step changes. Right: Real (simulated) human engagement (mean and variance after 50 runs) when the optimal action parameter undergoes step changes every 100 trials as shown in left figure (engagement does not drop below a $70\%$ value).}}{10}}
\newlabel{fig:execut_action_param}{{9}{10}}
\@writefile{toc}{\contentsline {section}{\numberline {IV}Conclusion}{10}}
\bibstyle{IEEEtran}
\bibdata{biblio}
\@writefile{lof}{\contentsline {figure}{\numberline {10}{\ignorespaces Action parameter perturbations with durations of 1, 2, 5 and 10 trials, respectively.}}{11}}
\newlabel{fig:action_param_perturb}{{10}{11}}
\@writefile{lof}{\contentsline {figure}{\numberline {11}{\ignorespaces Performance for increasing perturbation duration. Left: Engagement deviation from its maximum value (10). Right: Action parameter deviation from its optimal value (5). The measurement noise has a $\sigma =1$.}}{11}}
\newlabel{fig:increasing_perturbation}{{11}{11}}
\@writefile{lof}{\contentsline {figure}{\numberline {12}{\ignorespaces Performance for increasing noise $\sigma $. Left: Engagement deviation from its maximum value (10). Right: Action parameter deviation from its optimal value (5). The measurement noise has $\sigma =1$.}}{11}}
\newlabel{fig:increasing_noise}{{12}{11}}
\@writefile{toc}{\contentsline {section}{Biographies}{11}}
\@writefile{toc}{\contentsline {subsection}{Mehdi Khamassi}{11}}
\@writefile{toc}{\contentsline {subsection}{George Velentzas}{12}}
\@writefile{toc}{\contentsline {subsection}{Theodore Tsitsimis}{12}}
\@writefile{toc}{\contentsline {subsection}{Costas Tzafestas}{12}}
