\headcommand {\slideentry {0}{0}{1}{1/1}{}{0}}
\headcommand {\beamer@framepages {1}{1}}
\headcommand {\sectionentry {1}{Introduction}{2}{Introduction}{0}}
\headcommand {\beamer@sectionpages {1}{1}}
\headcommand {\beamer@subsectionpages {1}{1}}
\headcommand {\slideentry {1}{0}{1}{2/9}{}{0}}
\headcommand {\beamer@framepages {2}{9}}
\headcommand {\slideentry {1}{0}{2}{10/12}{}{0}}
\headcommand {\beamer@framepages {10}{12}}
\headcommand {\sectionentry {2}{Parameterized Actions}{13}{Parameterized Actions}{0}}
\headcommand {\beamer@sectionpages {2}{12}}
\headcommand {\beamer@subsectionpages {2}{12}}
\headcommand {\slideentry {2}{0}{1}{13/24}{}{0}}
\headcommand {\beamer@framepages {13}{24}}
\headcommand {\sectionentry {3}{Active Exploration Algorithm}{25}{Active Exploration Algorithm}{0}}
\headcommand {\beamer@sectionpages {13}{24}}
\headcommand {\beamer@subsectionpages {13}{24}}
\headcommand {\slideentry {3}{0}{1}{25/33}{}{0}}
\headcommand {\beamer@framepages {25}{33}}
\headcommand {\slideentry {3}{0}{2}{34/42}{}{0}}
\headcommand {\beamer@framepages {34}{42}}
\headcommand {\slideentry {3}{0}{3}{43/46}{}{0}}
\headcommand {\beamer@framepages {43}{46}}
\headcommand {\slideentry {3}{0}{4}{47/51}{}{0}}
\headcommand {\beamer@framepages {47}{51}}
\headcommand {\slideentry {3}{0}{5}{52/54}{}{0}}
\headcommand {\beamer@framepages {52}{54}}
\headcommand {\sectionentry {4}{Experiments-Simulations}{55}{Experiments-Simulations}{0}}
\headcommand {\beamer@sectionpages {25}{54}}
\headcommand {\beamer@subsectionpages {25}{54}}
\headcommand {\slideentry {4}{0}{1}{55/55}{}{0}}
\headcommand {\beamer@framepages {55}{55}}
\headcommand {\slideentry {4}{0}{2}{56/60}{}{0}}
\headcommand {\beamer@framepages {56}{60}}
\headcommand {\slideentry {4}{0}{3}{61/66}{}{0}}
\headcommand {\beamer@framepages {61}{66}}
\headcommand {\slideentry {4}{0}{4}{67/71}{}{0}}
\headcommand {\beamer@framepages {67}{71}}
\headcommand {\slideentry {4}{0}{5}{72/76}{}{0}}
\headcommand {\beamer@framepages {72}{76}}
\headcommand {\slideentry {4}{0}{6}{77/80}{}{0}}
\headcommand {\beamer@framepages {77}{80}}
\headcommand {\slideentry {4}{0}{7}{81/84}{}{0}}
\headcommand {\beamer@framepages {81}{84}}
\headcommand {\slideentry {4}{0}{8}{85/89}{}{0}}
\headcommand {\beamer@framepages {85}{89}}
\headcommand {\slideentry {4}{0}{9}{90/95}{}{0}}
\headcommand {\beamer@framepages {90}{95}}
\headcommand {\slideentry {4}{0}{10}{96/96}{}{0}}
\headcommand {\beamer@framepages {96}{96}}
\headcommand {\sectionentry {5}{Conclusions}{97}{Conclusions}{0}}
\headcommand {\beamer@sectionpages {55}{96}}
\headcommand {\beamer@subsectionpages {55}{96}}
\headcommand {\slideentry {5}{0}{1}{97/97}{}{0}}
\headcommand {\beamer@framepages {97}{97}}
\headcommand {\slideentry {5}{0}{2}{98/98}{}{0}}
\headcommand {\beamer@framepages {98}{98}}
\headcommand {\beamer@partpages {1}{98}}
\headcommand {\beamer@subsectionpages {97}{98}}
\headcommand {\beamer@sectionpages {97}{98}}
\headcommand {\beamer@documentpages {98}}
\headcommand {\def \inserttotalframenumber {21}}
