\relax 
\providecommand\hyper@newdestlabel[2]{}
\providecommand\HyperFirstAtBeginDocument{\AtBeginDocument}
\HyperFirstAtBeginDocument{\ifx\hyper@anchor\@undefined
\global\let\oldcontentsline\contentsline
\gdef\contentsline#1#2#3#4{\oldcontentsline{#1}{#2}{#3}}
\global\let\oldnewlabel\newlabel
\gdef\newlabel#1#2{\newlabelxx{#1}#2}
\gdef\newlabelxx#1#2#3#4#5#6{\oldnewlabel{#1}{{#2}{#3}}}
\AtEndDocument{\ifx\hyper@anchor\@undefined
\let\contentsline\oldcontentsline
\let\newlabel\oldnewlabel
\fi}
\fi}
\global\let\hyper@last\relax 
\gdef\HyperFirstAtBeginDocument#1{#1}
\providecommand\HyField@AuxAddToFields[1]{}
\providecommand\HyField@AuxAddToCoFields[2]{}
\select@language{english}
\@writefile{toc}{\select@language{english}}
\@writefile{lof}{\select@language{english}}
\@writefile{lot}{\select@language{english}}
\@writefile{nav}{\headcommand {\slideentry {0}{0}{1}{1/1}{}{0}}}
\@writefile{nav}{\headcommand {\beamer@framepages {1}{1}}}
\@writefile{toc}{\beamer@sectionintoc {1}{Introduction}{2}{0}{1}}
\@writefile{nav}{\headcommand {\sectionentry {1}{Introduction}{2}{Introduction}{0}}}
\@writefile{nav}{\headcommand {\beamer@sectionpages {1}{1}}}
\@writefile{nav}{\headcommand {\beamer@subsectionpages {1}{1}}}
\@writefile{nav}{\headcommand {\slideentry {1}{0}{1}{2/9}{}{0}}}
\@writefile{nav}{\headcommand {\beamer@framepages {2}{9}}}
\@writefile{nav}{\headcommand {\slideentry {1}{0}{2}{10/12}{}{0}}}
\@writefile{nav}{\headcommand {\beamer@framepages {10}{12}}}
\@writefile{toc}{\beamer@sectionintoc {2}{Parameterized Actions}{13}{0}{2}}
\@writefile{nav}{\headcommand {\sectionentry {2}{Parameterized Actions}{13}{Parameterized Actions}{0}}}
\@writefile{nav}{\headcommand {\beamer@sectionpages {2}{12}}}
\@writefile{nav}{\headcommand {\beamer@subsectionpages {2}{12}}}
\@writefile{nav}{\headcommand {\slideentry {2}{0}{1}{13/24}{}{0}}}
\@writefile{nav}{\headcommand {\beamer@framepages {13}{24}}}
\@writefile{toc}{\beamer@sectionintoc {3}{Active Exploration Algorithm}{25}{0}{3}}
\@writefile{nav}{\headcommand {\sectionentry {3}{Active Exploration Algorithm}{25}{Active Exploration Algorithm}{0}}}
\@writefile{nav}{\headcommand {\beamer@sectionpages {13}{24}}}
\@writefile{nav}{\headcommand {\beamer@subsectionpages {13}{24}}}
\@writefile{nav}{\headcommand {\slideentry {3}{0}{1}{25/33}{}{0}}}
\@writefile{nav}{\headcommand {\beamer@framepages {25}{33}}}
\@writefile{nav}{\headcommand {\slideentry {3}{0}{2}{34/42}{}{0}}}
\@writefile{nav}{\headcommand {\beamer@framepages {34}{42}}}
\@writefile{nav}{\headcommand {\slideentry {3}{0}{3}{43/46}{}{0}}}
\@writefile{nav}{\headcommand {\beamer@framepages {43}{46}}}
\@writefile{nav}{\headcommand {\slideentry {3}{0}{4}{47/51}{}{0}}}
\@writefile{nav}{\headcommand {\beamer@framepages {47}{51}}}
\@writefile{nav}{\headcommand {\slideentry {3}{0}{5}{52/54}{}{0}}}
\@writefile{nav}{\headcommand {\beamer@framepages {52}{54}}}
\@writefile{toc}{\beamer@sectionintoc {4}{Experiments-Simulations}{55}{0}{4}}
\@writefile{nav}{\headcommand {\sectionentry {4}{Experiments-Simulations}{55}{Experiments-Simulations}{0}}}
\@writefile{nav}{\headcommand {\beamer@sectionpages {25}{54}}}
\@writefile{nav}{\headcommand {\beamer@subsectionpages {25}{54}}}
\@writefile{nav}{\headcommand {\slideentry {4}{0}{1}{55/55}{}{0}}}
\@writefile{nav}{\headcommand {\beamer@framepages {55}{55}}}
\@writefile{nav}{\headcommand {\slideentry {4}{0}{2}{56/60}{}{0}}}
\@writefile{nav}{\headcommand {\beamer@framepages {56}{60}}}
\@writefile{nav}{\headcommand {\slideentry {4}{0}{3}{61/66}{}{0}}}
\@writefile{nav}{\headcommand {\beamer@framepages {61}{66}}}
\@writefile{nav}{\headcommand {\slideentry {4}{0}{4}{67/71}{}{0}}}
\@writefile{nav}{\headcommand {\beamer@framepages {67}{71}}}
\@writefile{nav}{\headcommand {\slideentry {4}{0}{5}{72/76}{}{0}}}
\@writefile{nav}{\headcommand {\beamer@framepages {72}{76}}}
\@writefile{nav}{\headcommand {\slideentry {4}{0}{6}{77/80}{}{0}}}
\@writefile{nav}{\headcommand {\beamer@framepages {77}{80}}}
\@writefile{nav}{\headcommand {\slideentry {4}{0}{7}{81/84}{}{0}}}
\@writefile{nav}{\headcommand {\beamer@framepages {81}{84}}}
\@writefile{nav}{\headcommand {\slideentry {4}{0}{8}{85/89}{}{0}}}
\@writefile{nav}{\headcommand {\beamer@framepages {85}{89}}}
\@writefile{nav}{\headcommand {\slideentry {4}{0}{9}{90/95}{}{0}}}
\@writefile{nav}{\headcommand {\beamer@framepages {90}{95}}}
\@writefile{nav}{\headcommand {\slideentry {4}{0}{10}{96/96}{}{0}}}
\@writefile{nav}{\headcommand {\beamer@framepages {96}{96}}}
\@writefile{toc}{\beamer@sectionintoc {5}{Conclusions}{97}{0}{5}}
\@writefile{nav}{\headcommand {\sectionentry {5}{Conclusions}{97}{Conclusions}{0}}}
\@writefile{nav}{\headcommand {\beamer@sectionpages {55}{96}}}
\@writefile{nav}{\headcommand {\beamer@subsectionpages {55}{96}}}
\@writefile{nav}{\headcommand {\slideentry {5}{0}{1}{97/97}{}{0}}}
\@writefile{nav}{\headcommand {\beamer@framepages {97}{97}}}
\@writefile{nav}{\headcommand {\slideentry {5}{0}{2}{98/98}{}{0}}}
\@writefile{nav}{\headcommand {\beamer@framepages {98}{98}}}
\@writefile{nav}{\headcommand {\beamer@partpages {1}{98}}}
\@writefile{nav}{\headcommand {\beamer@subsectionpages {97}{98}}}
\@writefile{nav}{\headcommand {\beamer@sectionpages {97}{98}}}
\@writefile{nav}{\headcommand {\beamer@documentpages {98}}}
\@writefile{nav}{\headcommand {\def \inserttotalframenumber {21}}}
