\headcommand {\slideentry {0}{0}{1}{1/1}{}{0}}
\headcommand {\beamer@framepages {1}{1}}
\headcommand {\sectionentry {1}{Introduction}{2}{Introduction}{0}}
\headcommand {\beamer@sectionpages {1}{1}}
\headcommand {\beamer@subsectionpages {1}{1}}
\headcommand {\slideentry {1}{0}{1}{2/2}{}{0}}
\headcommand {\beamer@framepages {2}{2}}
\headcommand {\sectionentry {2}{Parameterized Actions}{3}{Parameterized Actions}{0}}
\headcommand {\beamer@sectionpages {2}{2}}
\headcommand {\beamer@subsectionpages {2}{2}}
\headcommand {\slideentry {2}{0}{1}{3/5}{}{0}}
\headcommand {\beamer@framepages {3}{5}}
\headcommand {\sectionentry {3}{Active Exploration Algorithm}{6}{Active Exploration Algorithm}{0}}
\headcommand {\beamer@sectionpages {3}{5}}
\headcommand {\beamer@subsectionpages {3}{5}}
\headcommand {\slideentry {3}{0}{1}{6/6}{}{0}}
\headcommand {\beamer@framepages {6}{6}}
\headcommand {\sectionentry {4}{Experiments-Simulations}{7}{Experiments-Simulations}{0}}
\headcommand {\beamer@sectionpages {6}{6}}
\headcommand {\beamer@subsectionpages {6}{6}}
\headcommand {\slideentry {4}{0}{1}{7/7}{}{0}}
\headcommand {\beamer@framepages {7}{7}}
\headcommand {\slideentry {4}{0}{2}{8/8}{}{0}}
\headcommand {\beamer@framepages {8}{8}}
\headcommand {\slideentry {4}{0}{3}{9/9}{}{0}}
\headcommand {\beamer@framepages {9}{9}}
\headcommand {\slideentry {4}{0}{4}{10/10}{}{0}}
\headcommand {\beamer@framepages {10}{10}}
\headcommand {\slideentry {4}{0}{5}{11/11}{}{0}}
\headcommand {\beamer@framepages {11}{11}}
\headcommand {\slideentry {4}{0}{6}{12/12}{}{0}}
\headcommand {\beamer@framepages {12}{12}}
\headcommand {\sectionentry {5}{Conclusions}{13}{Conclusions}{0}}
\headcommand {\beamer@sectionpages {7}{12}}
\headcommand {\beamer@subsectionpages {7}{12}}
\headcommand {\slideentry {5}{0}{1}{13/13}{}{0}}
\headcommand {\beamer@framepages {13}{13}}
\headcommand {\slideentry {5}{0}{2}{14/14}{}{0}}
\headcommand {\beamer@framepages {14}{14}}
\headcommand {\beamer@partpages {1}{14}}
\headcommand {\beamer@subsectionpages {13}{14}}
\headcommand {\beamer@sectionpages {13}{14}}
\headcommand {\beamer@documentpages {14}}
\headcommand {\def \inserttotalframenumber {12}}
