\relax 
\providecommand\hyper@newdestlabel[2]{}
\providecommand\HyperFirstAtBeginDocument{\AtBeginDocument}
\HyperFirstAtBeginDocument{\ifx\hyper@anchor\@undefined
\global\let\oldcontentsline\contentsline
\gdef\contentsline#1#2#3#4{\oldcontentsline{#1}{#2}{#3}}
\global\let\oldnewlabel\newlabel
\gdef\newlabel#1#2{\newlabelxx{#1}#2}
\gdef\newlabelxx#1#2#3#4#5#6{\oldnewlabel{#1}{{#2}{#3}}}
\AtEndDocument{\ifx\hyper@anchor\@undefined
\let\contentsline\oldcontentsline
\let\newlabel\oldnewlabel
\fi}
\fi}
\global\let\hyper@last\relax 
\gdef\HyperFirstAtBeginDocument#1{#1}
\providecommand\HyField@AuxAddToFields[1]{}
\providecommand\HyField@AuxAddToCoFields[2]{}
\select@language{english}
\@writefile{toc}{\select@language{english}}
\@writefile{lof}{\select@language{english}}
\@writefile{lot}{\select@language{english}}
\@writefile{nav}{\headcommand {\slideentry {0}{0}{1}{1/1}{}{0}}}
\@writefile{nav}{\headcommand {\beamer@framepages {1}{1}}}
\@writefile{toc}{\beamer@sectionintoc {1}{Introduction}{2}{0}{1}}
\@writefile{nav}{\headcommand {\sectionentry {1}{Introduction}{2}{Introduction}{0}}}
\@writefile{nav}{\headcommand {\beamer@sectionpages {1}{1}}}
\@writefile{nav}{\headcommand {\beamer@subsectionpages {1}{1}}}
\@writefile{nav}{\headcommand {\slideentry {1}{0}{1}{2/2}{}{0}}}
\@writefile{nav}{\headcommand {\beamer@framepages {2}{2}}}
\@writefile{toc}{\beamer@sectionintoc {2}{Parameterized Actions}{3}{0}{2}}
\@writefile{nav}{\headcommand {\sectionentry {2}{Parameterized Actions}{3}{Parameterized Actions}{0}}}
\@writefile{nav}{\headcommand {\beamer@sectionpages {2}{2}}}
\@writefile{nav}{\headcommand {\beamer@subsectionpages {2}{2}}}
\@writefile{nav}{\headcommand {\slideentry {2}{0}{1}{3/5}{}{0}}}
\@writefile{nav}{\headcommand {\beamer@framepages {3}{5}}}
\@writefile{toc}{\beamer@sectionintoc {3}{Active Exploration Algorithm}{6}{0}{3}}
\@writefile{nav}{\headcommand {\sectionentry {3}{Active Exploration Algorithm}{6}{Active Exploration Algorithm}{0}}}
\@writefile{nav}{\headcommand {\beamer@sectionpages {3}{5}}}
\@writefile{nav}{\headcommand {\beamer@subsectionpages {3}{5}}}
\@writefile{nav}{\headcommand {\slideentry {3}{0}{1}{6/6}{}{0}}}
\@writefile{nav}{\headcommand {\beamer@framepages {6}{6}}}
\@writefile{toc}{\beamer@sectionintoc {4}{Experiments-Simulations}{7}{0}{4}}
\@writefile{nav}{\headcommand {\sectionentry {4}{Experiments-Simulations}{7}{Experiments-Simulations}{0}}}
\@writefile{nav}{\headcommand {\beamer@sectionpages {6}{6}}}
\@writefile{nav}{\headcommand {\beamer@subsectionpages {6}{6}}}
\@writefile{nav}{\headcommand {\slideentry {4}{0}{1}{7/7}{}{0}}}
\@writefile{nav}{\headcommand {\beamer@framepages {7}{7}}}
\@writefile{nav}{\headcommand {\slideentry {4}{0}{2}{8/8}{}{0}}}
\@writefile{nav}{\headcommand {\beamer@framepages {8}{8}}}
\@writefile{nav}{\headcommand {\slideentry {4}{0}{3}{9/9}{}{0}}}
\@writefile{nav}{\headcommand {\beamer@framepages {9}{9}}}
\@writefile{nav}{\headcommand {\slideentry {4}{0}{4}{10/10}{}{0}}}
\@writefile{nav}{\headcommand {\beamer@framepages {10}{10}}}
\@writefile{nav}{\headcommand {\slideentry {4}{0}{5}{11/11}{}{0}}}
\@writefile{nav}{\headcommand {\beamer@framepages {11}{11}}}
\@writefile{nav}{\headcommand {\slideentry {4}{0}{6}{12/12}{}{0}}}
\@writefile{nav}{\headcommand {\beamer@framepages {12}{12}}}
\@writefile{toc}{\beamer@sectionintoc {5}{Conclusions}{13}{0}{5}}
\@writefile{nav}{\headcommand {\sectionentry {5}{Conclusions}{13}{Conclusions}{0}}}
\@writefile{nav}{\headcommand {\beamer@sectionpages {7}{12}}}
\@writefile{nav}{\headcommand {\beamer@subsectionpages {7}{12}}}
\@writefile{nav}{\headcommand {\slideentry {5}{0}{1}{13/13}{}{0}}}
\@writefile{nav}{\headcommand {\beamer@framepages {13}{13}}}
\@writefile{nav}{\headcommand {\slideentry {5}{0}{2}{14/14}{}{0}}}
\@writefile{nav}{\headcommand {\beamer@framepages {14}{14}}}
\@writefile{nav}{\headcommand {\beamer@partpages {1}{14}}}
\@writefile{nav}{\headcommand {\beamer@subsectionpages {13}{14}}}
\@writefile{nav}{\headcommand {\beamer@sectionpages {13}{14}}}
\@writefile{nav}{\headcommand {\beamer@documentpages {14}}}
\@writefile{nav}{\headcommand {\def \inserttotalframenumber {12}}}
