%!PS-Adobe-3.0 EPSF-3.0
%%Creator: (MATLAB, The Mathworks, Inc. Version 8.5.0.197613 \(R2015a\). Operating System: Linux)
%%Title: ./engagement.eps
%%CreationDate: 2017-04-20T14:32:24
%%Pages: (atend)
%%BoundingBox: (atend)
%%LanguageLevel: 3
%%EndComments
%%BeginProlog
%%BeginResource: procset (Apache XML Graphics Std ProcSet) 1.2 0
%%Version: 1.2 0
%%Copyright: (Copyright 2001-2003,2010 The Apache Software Foundation. License terms: http://www.apache.org/licenses/LICENSE-2.0)
/bd{bind def}bind def
/ld{load def}bd
/GR/grestore ld
/M/moveto ld
/LJ/setlinejoin ld
/C/curveto ld
/f/fill ld
/LW/setlinewidth ld
/GC/setgray ld
/t/show ld
/N/newpath ld
/CT/concat ld
/cp/closepath ld
/S/stroke ld
/L/lineto ld
/CC/setcmykcolor ld
/A/ashow ld
/GS/gsave ld
/RC/setrgbcolor ld
/RM/rmoveto ld
/ML/setmiterlimit ld
/re {4 2 roll M
1 index 0 rlineto
0 exch rlineto
neg 0 rlineto
cp } bd
/_ctm matrix def
/_tm matrix def
/BT { _ctm currentmatrix pop matrix _tm copy pop 0 0 moveto } bd
/ET { _ctm setmatrix } bd
/iTm { _ctm setmatrix _tm concat } bd
/Tm { _tm astore pop iTm 0 0 moveto } bd
/ux 0.0 def
/uy 0.0 def
/F {
  /Tp exch def
  /Tf exch def
  Tf findfont Tp scalefont setfont
  /cf Tf def  /cs Tp def
} bd
/ULS {currentpoint /uy exch def /ux exch def} bd
/ULE {
  /Tcx currentpoint pop def
  gsave
  newpath
  cf findfont cs scalefont dup
  /FontMatrix get 0 get /Ts exch def /FontInfo get dup
  /UnderlinePosition get Ts mul /To exch def
  /UnderlineThickness get Ts mul /Tt exch def
  ux uy To add moveto  Tcx uy To add lineto
  Tt setlinewidth stroke
  grestore
} bd
/OLE {
  /Tcx currentpoint pop def
  gsave
  newpath
  cf findfont cs scalefont dup
  /FontMatrix get 0 get /Ts exch def /FontInfo get dup
  /UnderlinePosition get Ts mul /To exch def
  /UnderlineThickness get Ts mul /Tt exch def
  ux uy To add cs add moveto Tcx uy To add cs add lineto
  Tt setlinewidth stroke
  grestore
} bd
/SOE {
  /Tcx currentpoint pop def
  gsave
  newpath
  cf findfont cs scalefont dup
  /FontMatrix get 0 get /Ts exch def /FontInfo get dup
  /UnderlinePosition get Ts mul /To exch def
  /UnderlineThickness get Ts mul /Tt exch def
  ux uy To add cs 10 mul 26 idiv add moveto Tcx uy To add cs 10 mul 26 idiv add lineto
  Tt setlinewidth stroke
  grestore
} bd
/QT {
/Y22 exch store
/X22 exch store
/Y21 exch store
/X21 exch store
currentpoint
/Y21 load 2 mul add 3 div exch
/X21 load 2 mul add 3 div exch
/X21 load 2 mul /X22 load add 3 div
/Y21 load 2 mul /Y22 load add 3 div
/X22 load /Y22 load curveto
} bd
/SSPD {
dup length /d exch dict def
{
/v exch def
/k exch def
currentpagedevice k known {
/cpdv currentpagedevice k get def
v cpdv ne {
/upd false def
/nullv v type /nulltype eq def
/nullcpdv cpdv type /nulltype eq def
nullv nullcpdv or
{
/upd true def
} {
/sametype v type cpdv type eq def
sametype {
v type /arraytype eq {
/vlen v length def
/cpdvlen cpdv length def
vlen cpdvlen eq {
0 1 vlen 1 sub {
/i exch def
/obj v i get def
/cpdobj cpdv i get def
obj cpdobj ne {
/upd true def
exit
} if
} for
} {
/upd true def
} ifelse
} {
v type /dicttype eq {
v {
/dv exch def
/dk exch def
/cpddv cpdv dk get def
dv cpddv ne {
/upd true def
exit
} if
} forall
} {
/upd true def
} ifelse
} ifelse
} if
} ifelse
upd true eq {
d k v put
} if
} if
} if
} forall
d length 0 gt {
d setpagedevice
} if
} bd
%%EndResource
%%BeginResource: procset (Apache XML Graphics EPS ProcSet) 1.0 0
%%Version: 1.0 0
%%Copyright: (Copyright 2002-2003 The Apache Software Foundation. License terms: http://www.apache.org/licenses/LICENSE-2.0)
/BeginEPSF { %def
/b4_Inc_state save def         % Save state for cleanup
/dict_count countdictstack def % Count objects on dict stack
/op_count count 1 sub def      % Count objects on operand stack
userdict begin                 % Push userdict on dict stack
/showpage { } def              % Redefine showpage, { } = null proc
0 setgray 0 setlinecap         % Prepare graphics state
1 setlinewidth 0 setlinejoin
10 setmiterlimit [ ] 0 setdash newpath
/languagelevel where           % If level not equal to 1 then
{pop languagelevel             % set strokeadjust and
1 ne                           % overprint to their defaults.
{false setstrokeadjust false setoverprint
} if
} if
} bd
/EndEPSF { %def
count op_count sub {pop} repeat            % Clean up stacks
countdictstack dict_count sub {end} repeat
b4_Inc_state restore
} bd
%%EndResource
%FOPBeginFontDict
%%IncludeResource: font Courier-Bold
%%IncludeResource: font Helvetica
%%IncludeResource: font Courier-BoldOblique
%%IncludeResource: font Courier-Oblique
%%IncludeResource: font Times-Roman
%%IncludeResource: font Helvetica-BoldOblique
%%IncludeResource: font Helvetica-Bold
%%IncludeResource: font Helvetica-Oblique
%%IncludeResource: font Times-BoldItalic
%%IncludeResource: font Courier
%%IncludeResource: font Times-Italic
%%IncludeResource: font Times-Bold
%%IncludeResource: font Symbol
%%IncludeResource: font ZapfDingbats
%FOPEndFontDict
%%BeginResource: encoding WinAnsiEncoding
/WinAnsiEncoding [
/.notdef /.notdef /.notdef /.notdef /.notdef
/.notdef /.notdef /.notdef /.notdef /.notdef
/.notdef /.notdef /.notdef /.notdef /.notdef
/.notdef /.notdef /.notdef /.notdef /.notdef
/.notdef /.notdef /.notdef /.notdef /.notdef
/.notdef /.notdef /.notdef /.notdef /.notdef
/.notdef /.notdef /space /exclam /quotedbl
/numbersign /dollar /percent /ampersand /quotesingle
/parenleft /parenright /asterisk /plus /comma
/hyphen /period /slash /zero /one
/two /three /four /five /six
/seven /eight /nine /colon /semicolon
/less /equal /greater /question /at
/A /B /C /D /E
/F /G /H /I /J
/K /L /M /N /O
/P /Q /R /S /T
/U /V /W /X /Y
/Z /bracketleft /backslash /bracketright /asciicircum
/underscore /quoteleft /a /b /c
/d /e /f /g /h
/i /j /k /l /m
/n /o /p /q /r
/s /t /u /v /w
/x /y /z /braceleft /bar
/braceright /asciitilde /bullet /Euro /bullet
/quotesinglbase /florin /quotedblbase /ellipsis /dagger
/daggerdbl /circumflex /perthousand /Scaron /guilsinglleft
/OE /bullet /Zcaron /bullet /bullet
/quoteleft /quoteright /quotedblleft /quotedblright /bullet
/endash /emdash /asciitilde /trademark /scaron
/guilsinglright /oe /bullet /zcaron /Ydieresis
/space /exclamdown /cent /sterling /currency
/yen /brokenbar /section /dieresis /copyright
/ordfeminine /guillemotleft /logicalnot /sfthyphen /registered
/macron /degree /plusminus /twosuperior /threesuperior
/acute /mu /paragraph /middot /cedilla
/onesuperior /ordmasculine /guillemotright /onequarter /onehalf
/threequarters /questiondown /Agrave /Aacute /Acircumflex
/Atilde /Adieresis /Aring /AE /Ccedilla
/Egrave /Eacute /Ecircumflex /Edieresis /Igrave
/Iacute /Icircumflex /Idieresis /Eth /Ntilde
/Ograve /Oacute /Ocircumflex /Otilde /Odieresis
/multiply /Oslash /Ugrave /Uacute /Ucircumflex
/Udieresis /Yacute /Thorn /germandbls /agrave
/aacute /acircumflex /atilde /adieresis /aring
/ae /ccedilla /egrave /eacute /ecircumflex
/edieresis /igrave /iacute /icircumflex /idieresis
/eth /ntilde /ograve /oacute /ocircumflex
/otilde /odieresis /divide /oslash /ugrave
/uacute /ucircumflex /udieresis /yacute /thorn
/ydieresis
] def
%%EndResource
%FOPBeginFontReencode
/Courier-Bold findfont
dup length dict begin
  {1 index /FID ne {def} {pop pop} ifelse} forall
  /Encoding WinAnsiEncoding def
  currentdict
end
/Courier-Bold exch definefont pop
/Helvetica findfont
dup length dict begin
  {1 index /FID ne {def} {pop pop} ifelse} forall
  /Encoding WinAnsiEncoding def
  currentdict
end
/Helvetica exch definefont pop
/Courier-BoldOblique findfont
dup length dict begin
  {1 index /FID ne {def} {pop pop} ifelse} forall
  /Encoding WinAnsiEncoding def
  currentdict
end
/Courier-BoldOblique exch definefont pop
/Courier-Oblique findfont
dup length dict begin
  {1 index /FID ne {def} {pop pop} ifelse} forall
  /Encoding WinAnsiEncoding def
  currentdict
end
/Courier-Oblique exch definefont pop
/Times-Roman findfont
dup length dict begin
  {1 index /FID ne {def} {pop pop} ifelse} forall
  /Encoding WinAnsiEncoding def
  currentdict
end
/Times-Roman exch definefont pop
/Helvetica-BoldOblique findfont
dup length dict begin
  {1 index /FID ne {def} {pop pop} ifelse} forall
  /Encoding WinAnsiEncoding def
  currentdict
end
/Helvetica-BoldOblique exch definefont pop
/Helvetica-Bold findfont
dup length dict begin
  {1 index /FID ne {def} {pop pop} ifelse} forall
  /Encoding WinAnsiEncoding def
  currentdict
end
/Helvetica-Bold exch definefont pop
/Helvetica-Oblique findfont
dup length dict begin
  {1 index /FID ne {def} {pop pop} ifelse} forall
  /Encoding WinAnsiEncoding def
  currentdict
end
/Helvetica-Oblique exch definefont pop
/Times-BoldItalic findfont
dup length dict begin
  {1 index /FID ne {def} {pop pop} ifelse} forall
  /Encoding WinAnsiEncoding def
  currentdict
end
/Times-BoldItalic exch definefont pop
/Courier findfont
dup length dict begin
  {1 index /FID ne {def} {pop pop} ifelse} forall
  /Encoding WinAnsiEncoding def
  currentdict
end
/Courier exch definefont pop
/Times-Italic findfont
dup length dict begin
  {1 index /FID ne {def} {pop pop} ifelse} forall
  /Encoding WinAnsiEncoding def
  currentdict
end
/Times-Italic exch definefont pop
/Times-Bold findfont
dup length dict begin
  {1 index /FID ne {def} {pop pop} ifelse} forall
  /Encoding WinAnsiEncoding def
  currentdict
end
/Times-Bold exch definefont pop
%FOPEndFontReencode
%%EndProlog
%%Page: 1 1
%%PageBoundingBox: 0 0 720 288
%%BeginPageSetup
[1 0 0 -1 0 288] CT
%%EndPageSetup
GS
[0.75 0 0 0.75 0 0] CT
1 GC
N
0 0 960 384 re
f
GR
GS
[0.75 0 0 0.75 0 0] CT
1 GC
N
0 0 960 384 re
f
GR
GS
[0.75 0 0 0.75 0 0] CT
1 GC
N
125 342 M
869 342 L
869 29 L
125 29 L
cp
f
GR
GS
[0.75 0 0 0.75 372.75034 274.25002] CT
0.149 GC
/Helvetica 15 F
GS
[1 0 0 1 0 0] CT
-37.5 14 moveto 
1 -1 scale
(timesteps) t 
GR
GR
GS
[0.75 0 0 0.75 0 0] CT
0.149 GC
2 setlinecap
10.0 ML
N
125 342 M
869 342 L
S
GR
GS
[0.75 0 0 0.75 0 0] CT
0.149 GC
2 setlinecap
10.0 ML
N
125 29 M
869 29 L
S
GR
GS
[0.75 0 0 0.75 0 0] CT
0.149 GC
2 setlinecap
10.0 ML
N
125 342 M
125 334.56 L
S
GR
GS
[0.75 0 0 0.75 0 0] CT
0.149 GC
2 setlinecap
10.0 ML
N
199.4 342 M
199.4 334.56 L
S
GR
GS
[0.75 0 0 0.75 0 0] CT
0.149 GC
2 setlinecap
10.0 ML
N
273.8 342 M
273.8 334.56 L
S
GR
GS
[0.75 0 0 0.75 0 0] CT
0.149 GC
2 setlinecap
10.0 ML
N
348.2 342 M
348.2 334.56 L
S
GR
GS
[0.75 0 0 0.75 0 0] CT
0.149 GC
2 setlinecap
10.0 ML
N
422.6 342 M
422.6 334.56 L
S
GR
GS
[0.75 0 0 0.75 0 0] CT
0.149 GC
2 setlinecap
10.0 ML
N
497 342 M
497 334.56 L
S
GR
GS
[0.75 0 0 0.75 0 0] CT
0.149 GC
2 setlinecap
10.0 ML
N
571.4 342 M
571.4 334.56 L
S
GR
GS
[0.75 0 0 0.75 0 0] CT
0.149 GC
2 setlinecap
10.0 ML
N
645.8 342 M
645.8 334.56 L
S
GR
GS
[0.75 0 0 0.75 0 0] CT
0.149 GC
2 setlinecap
10.0 ML
N
720.2 342 M
720.2 334.56 L
S
GR
GS
[0.75 0 0 0.75 0 0] CT
0.149 GC
2 setlinecap
10.0 ML
N
794.6 342 M
794.6 334.56 L
S
GR
GS
[0.75 0 0 0.75 0 0] CT
0.149 GC
2 setlinecap
10.0 ML
N
869 342 M
869 334.56 L
S
GR
GS
[0.75 0 0 0.75 0 0] CT
0.149 GC
2 setlinecap
10.0 ML
N
125 29 M
125 36.44 L
S
GR
GS
[0.75 0 0 0.75 0 0] CT
0.149 GC
2 setlinecap
10.0 ML
N
199.4 29 M
199.4 36.44 L
S
GR
GS
[0.75 0 0 0.75 0 0] CT
0.149 GC
2 setlinecap
10.0 ML
N
273.8 29 M
273.8 36.44 L
S
GR
GS
[0.75 0 0 0.75 0 0] CT
0.149 GC
2 setlinecap
10.0 ML
N
348.2 29 M
348.2 36.44 L
S
GR
GS
[0.75 0 0 0.75 0 0] CT
0.149 GC
2 setlinecap
10.0 ML
N
422.6 29 M
422.6 36.44 L
S
GR
GS
[0.75 0 0 0.75 0 0] CT
0.149 GC
2 setlinecap
10.0 ML
N
497 29 M
497 36.44 L
S
GR
GS
[0.75 0 0 0.75 0 0] CT
0.149 GC
2 setlinecap
10.0 ML
N
571.4 29 M
571.4 36.44 L
S
GR
GS
[0.75 0 0 0.75 0 0] CT
0.149 GC
2 setlinecap
10.0 ML
N
645.8 29 M
645.8 36.44 L
S
GR
GS
[0.75 0 0 0.75 0 0] CT
0.149 GC
2 setlinecap
10.0 ML
N
720.2 29 M
720.2 36.44 L
S
GR
GS
[0.75 0 0 0.75 0 0] CT
0.149 GC
2 setlinecap
10.0 ML
N
794.6 29 M
794.6 36.44 L
S
GR
GS
[0.75 0 0 0.75 0 0] CT
0.149 GC
2 setlinecap
10.0 ML
N
869 29 M
869 36.44 L
S
GR
GS
[0.75 0 0 0.75 93.75 260.49998] CT
0.149 GC
/Helvetica 13 F
GS
[1 0 0 1 0 0] CT
-12.5 13 moveto 
1 -1 scale
(900) t 
GR
GR
GS
[0.75 0 0 0.75 149.55 260.49998] CT
0.149 GC
/Helvetica 13 F
GS
[1 0 0 1 0 0] CT
-12.5 13 moveto 
1 -1 scale
(920) t 
GR
GR
GS
[0.75 0 0 0.75 205.34999 260.49998] CT
0.149 GC
/Helvetica 13 F
GS
[1 0 0 1 0 0] CT
-12.5 13 moveto 
1 -1 scale
(940) t 
GR
GR
GS
[0.75 0 0 0.75 261.15001 260.49998] CT
0.149 GC
/Helvetica 13 F
GS
[1 0 0 1 0 0] CT
-12.5 13 moveto 
1 -1 scale
(960) t 
GR
GR
GS
[0.75 0 0 0.75 316.95 260.49998] CT
0.149 GC
/Helvetica 13 F
GS
[1 0 0 1 0 0] CT
-12.5 13 moveto 
1 -1 scale
(980) t 
GR
GR
GS
[0.75 0 0 0.75 372.75 260.49998] CT
0.149 GC
/Helvetica 13 F
GS
[1 0 0 1 0 0] CT
-17 13 moveto 
1 -1 scale
(1000) t 
GR
GR
GS
[0.75 0 0 0.75 428.55002 260.49998] CT
0.149 GC
/Helvetica 13 F
GS
[1 0 0 1 0 0] CT
-17 13 moveto 
1 -1 scale
(1020) t 
GR
GR
GS
[0.75 0 0 0.75 484.34999 260.49998] CT
0.149 GC
/Helvetica 13 F
GS
[1 0 0 1 0 0] CT
-17 13 moveto 
1 -1 scale
(1040) t 
GR
GR
GS
[0.75 0 0 0.75 540.15001 260.49998] CT
0.149 GC
/Helvetica 13 F
GS
[1 0 0 1 0 0] CT
-17 13 moveto 
1 -1 scale
(1060) t 
GR
GR
GS
[0.75 0 0 0.75 595.94998 260.49998] CT
0.149 GC
/Helvetica 13 F
GS
[1 0 0 1 0 0] CT
-17 13 moveto 
1 -1 scale
(1080) t 
GR
GR
GS
[0.75 0 0 0.75 651.75 260.49998] CT
0.149 GC
/Helvetica 13 F
GS
[1 0 0 1 0 0] CT
-17 13 moveto 
1 -1 scale
(1100) t 
GR
GR
GS
[0.75 0 0 0.75 0 0] CT
0.149 GC
2 setlinecap
10.0 ML
N
125 342 M
125 29 L
S
GR
GS
[0.75 0 0 0.75 0 0] CT
0.149 GC
2 setlinecap
10.0 ML
N
869 342 M
869 29 L
S
GR
GS
[0.75 0 0 0.75 0 0] CT
0.149 GC
2 setlinecap
10.0 ML
N
125 303.232 M
132.44 303.232 L
S
GR
GS
[0.75 0 0 0.75 0 0] CT
0.149 GC
2 setlinecap
10.0 ML
N
125 254.639 M
132.44 254.639 L
S
GR
GS
[0.75 0 0 0.75 0 0] CT
0.149 GC
2 setlinecap
10.0 ML
N
125 206.047 M
132.44 206.047 L
S
GR
GS
[0.75 0 0 0.75 0 0] CT
0.149 GC
2 setlinecap
10.0 ML
N
125 157.454 M
132.44 157.454 L
S
GR
GS
[0.75 0 0 0.75 0 0] CT
0.149 GC
2 setlinecap
10.0 ML
N
125 108.861 M
132.44 108.861 L
S
GR
GS
[0.75 0 0 0.75 0 0] CT
0.149 GC
2 setlinecap
10.0 ML
N
125 60.268 M
132.44 60.268 L
S
GR
GS
[0.75 0 0 0.75 0 0] CT
0.149 GC
2 setlinecap
10.0 ML
N
869 303.232 M
861.56 303.232 L
S
GR
GS
[0.75 0 0 0.75 0 0] CT
0.149 GC
2 setlinecap
10.0 ML
N
869 254.639 M
861.56 254.639 L
S
GR
GS
[0.75 0 0 0.75 0 0] CT
0.149 GC
2 setlinecap
10.0 ML
N
869 206.047 M
861.56 206.047 L
S
GR
GS
[0.75 0 0 0.75 0 0] CT
0.149 GC
2 setlinecap
10.0 ML
N
869 157.454 M
861.56 157.454 L
S
GR
GS
[0.75 0 0 0.75 0 0] CT
0.149 GC
2 setlinecap
10.0 ML
N
869 108.861 M
861.56 108.861 L
S
GR
GS
[0.75 0 0 0.75 0 0] CT
0.149 GC
2 setlinecap
10.0 ML
N
869 60.268 M
861.56 60.268 L
S
GR
GS
[0.75 0 0 0.75 89.74994 227.424] CT
0.149 GC
/Helvetica 13 F
GS
[1 0 0 1 0 0] CT
-21 4.5 moveto 
1 -1 scale
(7.5) t 
GR
GR
GS
[0.75 0 0 0.75 89.74994 190.97946] CT
0.149 GC
/Helvetica 13 F
GS
[1 0 0 1 0 0] CT
-9 4.5 moveto 
1 -1 scale
(8) t 
GR
GR
GS
[0.75 0 0 0.75 89.74994 154.53492] CT
0.149 GC
/Helvetica 13 F
GS
[1 0 0 1 0 0] CT
-21 4.5 moveto 
1 -1 scale
(8.5) t 
GR
GR
GS
[0.75 0 0 0.75 89.74994 118.09038] CT
0.149 GC
/Helvetica 13 F
GS
[1 0 0 1 0 0] CT
-9 4.5 moveto 
1 -1 scale
(9) t 
GR
GR
GS
[0.75 0 0 0.75 89.74994 81.64584] CT
0.149 GC
/Helvetica 13 F
GS
[1 0 0 1 0 0] CT
-21 4.5 moveto 
1 -1 scale
(9.5) t 
GR
GR
GS
[0.75 0 0 0.75 89.74994 45.2013] CT
0.149 GC
/Helvetica 13 F
GS
[1 0 0 1 0 0] CT
-17 4.5 moveto 
1 -1 scale
(10) t 
GR
GR
GS
[0.75 0 0 0.75 0 0] CT
2 LJ
1.333 LW
N
124.926 60.268 M
125 60.268 L
128.72 60.268 L
132.44 60.268 L
136.16 60.268 L
139.88 60.268 L
143.6 60.268 L
147.32 60.268 L
151.04 60.268 L
154.76 60.268 L
158.48 60.268 L
162.2 60.268 L
165.92 60.268 L
169.64 60.268 L
173.36 60.268 L
177.08 60.268 L
180.8 60.268 L
184.52 60.268 L
188.24 60.268 L
191.96 60.268 L
195.68 60.268 L
199.4 60.268 L
203.12 60.268 L
206.84 60.268 L
210.56 60.268 L
214.28 60.268 L
218 60.268 L
221.72 60.268 L
225.44 60.268 L
229.16 60.268 L
232.88 60.268 L
236.6 60.268 L
240.32 60.268 L
244.04 60.268 L
247.76 60.268 L
251.48 60.268 L
255.2 60.268 L
258.92 60.268 L
262.64 60.268 L
266.36 60.268 L
270.08 60.268 L
273.8 60.268 L
277.52 60.268 L
281.24 60.268 L
284.96 60.268 L
288.68 60.268 L
292.4 60.268 L
296.12 60.268 L
299.84 60.268 L
303.56 60.268 L
S
GR
GS
[0.75 0 0 0.75 0 0] CT
2 LJ
1.333 LW
N
303.56 60.268 M
307.28 60.268 L
311 60.268 L
314.72 60.268 L
318.44 60.268 L
322.16 60.268 L
325.88 60.268 L
329.6 60.268 L
333.32 60.268 L
337.04 60.268 L
340.76 60.268 L
344.48 60.268 L
348.2 60.268 L
351.92 60.268 L
355.64 60.268 L
359.36 60.268 L
363.08 60.268 L
366.8 60.268 L
370.52 60.268 L
374.24 60.268 L
377.96 60.268 L
381.68 60.268 L
385.4 60.268 L
389.12 60.268 L
392.84 60.268 L
396.56 60.268 L
400.28 60.268 L
404 60.268 L
407.72 60.268 L
411.44 60.268 L
415.16 60.268 L
418.88 60.268 L
422.6 60.268 L
426.32 60.268 L
430.04 60.268 L
433.76 60.268 L
437.48 60.268 L
441.2 60.268 L
444.92 60.268 L
448.64 60.268 L
452.36 60.268 L
456.08 60.268 L
459.8 60.268 L
463.52 60.268 L
467.24 60.268 L
470.96 60.268 L
474.68 60.268 L
478.4 60.268 L
482.12 60.268 L
485.84 60.268 L
S
GR
GS
[0.75 0 0 0.75 0 0] CT
2 LJ
1.333 LW
N
485.84 60.268 M
489.56 60.268 L
493.28 60.268 L
497 60.268 L
500.72 60.268 L
504.44 90.723 L
508.16 133.982 L
511.88 234.775 L
515.6 335.121 L
519.32 170.151 L
523.04 108.824 L
526.76 76.435 L
530.48 74.811 L
534.2 67.93 L
537.92 64.139 L
541.64 63.459 L
545.36 172.101 L
549.08 136.736 L
552.8 108.335 L
556.52 77.548 L
560.24 66.946 L
563.96 64.727 L
567.68 61.799 L
571.4 61.126 L
575.12 60.528 L
578.84 60.35 L
582.56 60.295 L
586.28 60.276 L
590 60.271 L
593.72 60.269 L
597.44 60.269 L
601.16 60.268 L
604.88 60.268 L
608.6 60.268 L
612.32 60.268 L
616.04 60.268 L
619.76 60.268 L
623.48 60.268 L
627.2 60.268 L
630.92 60.268 L
634.64 60.268 L
638.36 60.268 L
642.08 60.268 L
645.8 60.268 L
649.52 60.268 L
653.24 60.268 L
656.96 60.268 L
660.68 60.268 L
664.4 60.268 L
668.12 60.268 L
S
GR
GS
[0.75 0 0 0.75 0 0] CT
2 LJ
1.333 LW
N
668.12 60.268 M
671.84 60.268 L
675.56 60.268 L
679.28 60.268 L
683 60.268 L
686.72 60.268 L
690.44 60.268 L
694.16 60.268 L
697.88 60.268 L
701.6 60.268 L
705.32 60.268 L
709.04 60.268 L
712.76 60.268 L
716.48 60.268 L
720.2 60.268 L
723.92 60.268 L
727.64 60.268 L
731.36 60.268 L
735.08 60.268 L
738.8 60.268 L
742.52 60.268 L
746.24 60.268 L
749.96 60.268 L
753.68 60.268 L
757.4 60.268 L
761.12 60.268 L
764.84 60.268 L
768.56 60.268 L
772.28 60.268 L
776 60.268 L
779.72 60.268 L
783.44 60.268 L
787.16 60.268 L
790.88 60.268 L
794.6 60.268 L
798.32 60.268 L
802.04 60.268 L
805.76 60.268 L
809.48 60.268 L
813.2 60.268 L
816.92 60.268 L
820.64 60.268 L
824.36 60.268 L
828.08 60.268 L
831.8 60.268 L
835.52 60.268 L
839.24 60.268 L
842.96 60.268 L
846.68 60.268 L
850.4 60.268 L
S
GR
GS
[0.75 0 0 0.75 0 0] CT
2 LJ
1.333 LW
N
850.4 60.268 M
854.12 60.268 L
857.84 60.268 L
861.56 60.268 L
865.28 60.268 L
869 60.268 L
869.074 60.268 L
S
GR
GS
[0.75 0 0 0.75 0 0] CT
[10 6] 0 setdash
2 LJ
1.333 LW
N
124.926 60.268 M
125 60.268 L
128.72 60.268 L
132.44 60.268 L
136.16 60.268 L
139.88 60.268 L
143.6 60.268 L
147.32 60.268 L
151.04 60.268 L
154.76 60.268 L
158.48 60.268 L
162.2 60.268 L
165.92 60.268 L
169.64 60.268 L
173.36 60.268 L
177.08 60.268 L
180.8 60.268 L
184.52 60.268 L
188.24 60.268 L
191.96 60.268 L
195.68 60.268 L
199.4 60.268 L
203.12 60.268 L
206.84 60.268 L
210.56 60.268 L
214.28 60.268 L
218 60.268 L
221.72 60.268 L
225.44 60.268 L
229.16 60.268 L
232.88 60.268 L
236.6 60.268 L
240.32 60.268 L
244.04 60.268 L
247.76 60.268 L
251.48 60.268 L
255.2 60.268 L
258.92 60.268 L
262.64 60.268 L
266.36 60.268 L
270.08 60.268 L
273.8 60.268 L
277.52 60.268 L
281.24 60.268 L
284.96 60.268 L
288.68 60.268 L
292.4 60.268 L
296.12 60.268 L
299.84 60.268 L
303.56 60.268 L
307.28 60.268 L
311 60.268 L
314.72 60.268 L
318.44 60.268 L
322.16 60.268 L
325.88 60.268 L
329.6 60.268 L
333.32 60.268 L
337.04 60.268 L
340.76 60.268 L
344.48 60.268 L
348.2 60.268 L
351.92 60.268 L
355.64 60.268 L
359.36 60.268 L
363.08 60.268 L
366.8 60.268 L
370.52 60.268 L
374.24 60.268 L
377.96 60.268 L
381.68 60.268 L
385.4 60.268 L
389.12 60.268 L
392.84 60.268 L
396.56 60.268 L
400.28 60.268 L
404 60.268 L
407.72 60.268 L
411.44 60.268 L
415.16 60.268 L
418.88 60.268 L
422.6 60.268 L
426.32 60.268 L
430.04 60.268 L
433.76 60.268 L
437.48 60.268 L
441.2 60.268 L
444.92 60.268 L
448.64 60.268 L
452.36 60.268 L
456.08 60.268 L
459.8 60.268 L
463.52 60.268 L
467.24 60.268 L
470.96 60.268 L
474.68 60.268 L
478.4 60.268 L
482.12 60.268 L
485.84 60.268 L
489.56 60.268 L
493.28 60.268 L
497 60.268 L
500.72 60.268 L
504.44 60.268 L
508.16 104.44 L
511.88 80.876 L
515.6 270.699 L
519.32 232.978 L
523.04 118.798 L
526.76 79.153 L
530.48 66.774 L
534.2 62.243 L
537.92 60.877 L
541.64 60.453 L
545.36 134.262 L
549.08 125.223 L
552.8 87.189 L
556.52 69.323 L
560.24 63.101 L
563.96 61.154 L
567.68 60.537 L
571.4 60.351 L
575.12 60.293 L
578.84 60.276 L
582.56 60.271 L
586.28 60.269 L
590 60.269 L
593.72 60.268 L
597.44 60.268 L
601.16 60.268 L
604.88 60.268 L
608.6 60.268 L
612.32 60.268 L
616.04 60.268 L
619.76 60.268 L
623.48 60.268 L
627.2 60.268 L
630.92 60.268 L
634.64 60.268 L
638.36 60.268 L
642.08 60.268 L
645.8 60.268 L
649.52 60.268 L
653.24 60.268 L
656.96 60.268 L
660.68 60.268 L
664.4 60.268 L
668.12 60.268 L
671.84 60.268 L
675.56 60.268 L
679.28 60.268 L
683 60.268 L
686.72 60.268 L
690.44 60.268 L
694.16 60.268 L
697.88 60.268 L
701.6 60.268 L
705.32 60.268 L
709.04 60.268 L
712.76 60.268 L
716.48 60.268 L
720.2 60.268 L
723.92 60.268 L
727.64 60.268 L
731.36 60.268 L
735.08 60.268 L
738.8 60.268 L
742.52 60.268 L
746.24 60.268 L
749.96 60.268 L
753.68 60.268 L
757.4 60.268 L
761.12 60.268 L
764.84 60.268 L
768.56 60.268 L
772.28 60.268 L
776 60.268 L
779.72 60.268 L
783.44 60.268 L
787.16 60.268 L
790.88 60.268 L
794.6 60.268 L
798.32 60.268 L
802.04 60.268 L
805.76 60.268 L
809.48 60.268 L
813.2 60.268 L
816.92 60.268 L
820.64 60.268 L
824.36 60.268 L
828.08 60.268 L
831.8 60.268 L
835.52 60.268 L
839.24 60.268 L
842.96 60.268 L
846.68 60.268 L
850.4 60.268 L
854.12 60.268 L
857.84 60.268 L
861.56 60.268 L
865.28 60.268 L
869 60.268 L
869.074 60.268 L
S
GR
GS
[0.75 0 0 0.75 372.75034 19.68752] CT
/Helvetica 15 F
GS
[1 0 0 1 0 0] CT
-48 -4 moveto 
1 -1 scale
(engagement) t 
GR
GR
GS
[0.75 0 0 0.75 0 0] CT
1 GC
N
669 299 M
669 230 L
818 230 L
818 299 L
cp
f
GR
GS
[0.75 0 0 0.75 551.41667 187.11459] CT
/Helvetica 12 F
GS
[1 0 0 1 0 0] CT
0 4.5 moveto 
1 -1 scale
(real) t 
GR
GR
GS
[0.75 0 0 0.75 0 0] CT
2 setlinecap
10.0 ML
1.333 LW
N
679.188 249.486 M
730.128 249.486 L
S
GR
GS
[0.75 0 0 0.75 551.41667 209.63541] CT
/Helvetica 12 F
GS
[1 0 0 1 0 0] CT
0 4.5 moveto 
1 -1 scale
(estimated) t 
GR
GR
GS
[0.75 0 0 0.75 0 0] CT
[10 6] 0 setdash
2 LJ
1.333 LW
N
679.188 279.514 M
730.128 279.514 L
S
GR
GS
[0.75 0 0 0.75 0 0] CT
0.149 GC
2 setlinecap
10.0 ML
N
669 299 M
669 230 L
818 230 L
818 299 L
669 299 L
S
GR
%%Trailer
%%BoundingBox: 73 0 663 281
%%Pages: 1
%%EOF
