%!PS-Adobe-3.0 EPSF-3.0
%%Creator: (MATLAB, The Mathworks, Inc. Version 8.5.0.197613 \(R2015a\). Operating System: Linux)
%%Title: ./param.eps
%%CreationDate: 2017-04-20T14:32:47
%%Pages: (atend)
%%BoundingBox: (atend)
%%LanguageLevel: 3
%%EndComments
%%BeginProlog
%%BeginResource: procset (Apache XML Graphics Std ProcSet) 1.2 0
%%Version: 1.2 0
%%Copyright: (Copyright 2001-2003,2010 The Apache Software Foundation. License terms: http://www.apache.org/licenses/LICENSE-2.0)
/bd{bind def}bind def
/ld{load def}bd
/GR/grestore ld
/M/moveto ld
/LJ/setlinejoin ld
/C/curveto ld
/f/fill ld
/LW/setlinewidth ld
/GC/setgray ld
/t/show ld
/N/newpath ld
/CT/concat ld
/cp/closepath ld
/S/stroke ld
/L/lineto ld
/CC/setcmykcolor ld
/A/ashow ld
/GS/gsave ld
/RC/setrgbcolor ld
/RM/rmoveto ld
/ML/setmiterlimit ld
/re {4 2 roll M
1 index 0 rlineto
0 exch rlineto
neg 0 rlineto
cp } bd
/_ctm matrix def
/_tm matrix def
/BT { _ctm currentmatrix pop matrix _tm copy pop 0 0 moveto } bd
/ET { _ctm setmatrix } bd
/iTm { _ctm setmatrix _tm concat } bd
/Tm { _tm astore pop iTm 0 0 moveto } bd
/ux 0.0 def
/uy 0.0 def
/F {
  /Tp exch def
  /Tf exch def
  Tf findfont Tp scalefont setfont
  /cf Tf def  /cs Tp def
} bd
/ULS {currentpoint /uy exch def /ux exch def} bd
/ULE {
  /Tcx currentpoint pop def
  gsave
  newpath
  cf findfont cs scalefont dup
  /FontMatrix get 0 get /Ts exch def /FontInfo get dup
  /UnderlinePosition get Ts mul /To exch def
  /UnderlineThickness get Ts mul /Tt exch def
  ux uy To add moveto  Tcx uy To add lineto
  Tt setlinewidth stroke
  grestore
} bd
/OLE {
  /Tcx currentpoint pop def
  gsave
  newpath
  cf findfont cs scalefont dup
  /FontMatrix get 0 get /Ts exch def /FontInfo get dup
  /UnderlinePosition get Ts mul /To exch def
  /UnderlineThickness get Ts mul /Tt exch def
  ux uy To add cs add moveto Tcx uy To add cs add lineto
  Tt setlinewidth stroke
  grestore
} bd
/SOE {
  /Tcx currentpoint pop def
  gsave
  newpath
  cf findfont cs scalefont dup
  /FontMatrix get 0 get /Ts exch def /FontInfo get dup
  /UnderlinePosition get Ts mul /To exch def
  /UnderlineThickness get Ts mul /Tt exch def
  ux uy To add cs 10 mul 26 idiv add moveto Tcx uy To add cs 10 mul 26 idiv add lineto
  Tt setlinewidth stroke
  grestore
} bd
/QT {
/Y22 exch store
/X22 exch store
/Y21 exch store
/X21 exch store
currentpoint
/Y21 load 2 mul add 3 div exch
/X21 load 2 mul add 3 div exch
/X21 load 2 mul /X22 load add 3 div
/Y21 load 2 mul /Y22 load add 3 div
/X22 load /Y22 load curveto
} bd
/SSPD {
dup length /d exch dict def
{
/v exch def
/k exch def
currentpagedevice k known {
/cpdv currentpagedevice k get def
v cpdv ne {
/upd false def
/nullv v type /nulltype eq def
/nullcpdv cpdv type /nulltype eq def
nullv nullcpdv or
{
/upd true def
} {
/sametype v type cpdv type eq def
sametype {
v type /arraytype eq {
/vlen v length def
/cpdvlen cpdv length def
vlen cpdvlen eq {
0 1 vlen 1 sub {
/i exch def
/obj v i get def
/cpdobj cpdv i get def
obj cpdobj ne {
/upd true def
exit
} if
} for
} {
/upd true def
} ifelse
} {
v type /dicttype eq {
v {
/dv exch def
/dk exch def
/cpddv cpdv dk get def
dv cpddv ne {
/upd true def
exit
} if
} forall
} {
/upd true def
} ifelse
} ifelse
} if
} ifelse
upd true eq {
d k v put
} if
} if
} if
} forall
d length 0 gt {
d setpagedevice
} if
} bd
%%EndResource
%%BeginResource: procset (Apache XML Graphics EPS ProcSet) 1.0 0
%%Version: 1.0 0
%%Copyright: (Copyright 2002-2003 The Apache Software Foundation. License terms: http://www.apache.org/licenses/LICENSE-2.0)
/BeginEPSF { %def
/b4_Inc_state save def         % Save state for cleanup
/dict_count countdictstack def % Count objects on dict stack
/op_count count 1 sub def      % Count objects on operand stack
userdict begin                 % Push userdict on dict stack
/showpage { } def              % Redefine showpage, { } = null proc
0 setgray 0 setlinecap         % Prepare graphics state
1 setlinewidth 0 setlinejoin
10 setmiterlimit [ ] 0 setdash newpath
/languagelevel where           % If level not equal to 1 then
{pop languagelevel             % set strokeadjust and
1 ne                           % overprint to their defaults.
{false setstrokeadjust false setoverprint
} if
} if
} bd
/EndEPSF { %def
count op_count sub {pop} repeat            % Clean up stacks
countdictstack dict_count sub {end} repeat
b4_Inc_state restore
} bd
%%EndResource
%FOPBeginFontDict
%%IncludeResource: font Courier-Bold
%%IncludeResource: font Helvetica
%%IncludeResource: font Courier-BoldOblique
%%IncludeResource: font Courier-Oblique
%%IncludeResource: font Times-Roman
%%IncludeResource: font Helvetica-BoldOblique
%%IncludeResource: font Helvetica-Bold
%%IncludeResource: font Helvetica-Oblique
%%IncludeResource: font Times-BoldItalic
%%IncludeResource: font Courier
%%IncludeResource: font Times-Italic
%%IncludeResource: font Times-Bold
%%IncludeResource: font Symbol
%%IncludeResource: font ZapfDingbats
%FOPEndFontDict
%%BeginResource: encoding WinAnsiEncoding
/WinAnsiEncoding [
/.notdef /.notdef /.notdef /.notdef /.notdef
/.notdef /.notdef /.notdef /.notdef /.notdef
/.notdef /.notdef /.notdef /.notdef /.notdef
/.notdef /.notdef /.notdef /.notdef /.notdef
/.notdef /.notdef /.notdef /.notdef /.notdef
/.notdef /.notdef /.notdef /.notdef /.notdef
/.notdef /.notdef /space /exclam /quotedbl
/numbersign /dollar /percent /ampersand /quotesingle
/parenleft /parenright /asterisk /plus /comma
/hyphen /period /slash /zero /one
/two /three /four /five /six
/seven /eight /nine /colon /semicolon
/less /equal /greater /question /at
/A /B /C /D /E
/F /G /H /I /J
/K /L /M /N /O
/P /Q /R /S /T
/U /V /W /X /Y
/Z /bracketleft /backslash /bracketright /asciicircum
/underscore /quoteleft /a /b /c
/d /e /f /g /h
/i /j /k /l /m
/n /o /p /q /r
/s /t /u /v /w
/x /y /z /braceleft /bar
/braceright /asciitilde /bullet /Euro /bullet
/quotesinglbase /florin /quotedblbase /ellipsis /dagger
/daggerdbl /circumflex /perthousand /Scaron /guilsinglleft
/OE /bullet /Zcaron /bullet /bullet
/quoteleft /quoteright /quotedblleft /quotedblright /bullet
/endash /emdash /asciitilde /trademark /scaron
/guilsinglright /oe /bullet /zcaron /Ydieresis
/space /exclamdown /cent /sterling /currency
/yen /brokenbar /section /dieresis /copyright
/ordfeminine /guillemotleft /logicalnot /sfthyphen /registered
/macron /degree /plusminus /twosuperior /threesuperior
/acute /mu /paragraph /middot /cedilla
/onesuperior /ordmasculine /guillemotright /onequarter /onehalf
/threequarters /questiondown /Agrave /Aacute /Acircumflex
/Atilde /Adieresis /Aring /AE /Ccedilla
/Egrave /Eacute /Ecircumflex /Edieresis /Igrave
/Iacute /Icircumflex /Idieresis /Eth /Ntilde
/Ograve /Oacute /Ocircumflex /Otilde /Odieresis
/multiply /Oslash /Ugrave /Uacute /Ucircumflex
/Udieresis /Yacute /Thorn /germandbls /agrave
/aacute /acircumflex /atilde /adieresis /aring
/ae /ccedilla /egrave /eacute /ecircumflex
/edieresis /igrave /iacute /icircumflex /idieresis
/eth /ntilde /ograve /oacute /ocircumflex
/otilde /odieresis /divide /oslash /ugrave
/uacute /ucircumflex /udieresis /yacute /thorn
/ydieresis
] def
%%EndResource
%FOPBeginFontReencode
/Courier-Bold findfont
dup length dict begin
  {1 index /FID ne {def} {pop pop} ifelse} forall
  /Encoding WinAnsiEncoding def
  currentdict
end
/Courier-Bold exch definefont pop
/Helvetica findfont
dup length dict begin
  {1 index /FID ne {def} {pop pop} ifelse} forall
  /Encoding WinAnsiEncoding def
  currentdict
end
/Helvetica exch definefont pop
/Courier-BoldOblique findfont
dup length dict begin
  {1 index /FID ne {def} {pop pop} ifelse} forall
  /Encoding WinAnsiEncoding def
  currentdict
end
/Courier-BoldOblique exch definefont pop
/Courier-Oblique findfont
dup length dict begin
  {1 index /FID ne {def} {pop pop} ifelse} forall
  /Encoding WinAnsiEncoding def
  currentdict
end
/Courier-Oblique exch definefont pop
/Times-Roman findfont
dup length dict begin
  {1 index /FID ne {def} {pop pop} ifelse} forall
  /Encoding WinAnsiEncoding def
  currentdict
end
/Times-Roman exch definefont pop
/Helvetica-BoldOblique findfont
dup length dict begin
  {1 index /FID ne {def} {pop pop} ifelse} forall
  /Encoding WinAnsiEncoding def
  currentdict
end
/Helvetica-BoldOblique exch definefont pop
/Helvetica-Bold findfont
dup length dict begin
  {1 index /FID ne {def} {pop pop} ifelse} forall
  /Encoding WinAnsiEncoding def
  currentdict
end
/Helvetica-Bold exch definefont pop
/Helvetica-Oblique findfont
dup length dict begin
  {1 index /FID ne {def} {pop pop} ifelse} forall
  /Encoding WinAnsiEncoding def
  currentdict
end
/Helvetica-Oblique exch definefont pop
/Times-BoldItalic findfont
dup length dict begin
  {1 index /FID ne {def} {pop pop} ifelse} forall
  /Encoding WinAnsiEncoding def
  currentdict
end
/Times-BoldItalic exch definefont pop
/Courier findfont
dup length dict begin
  {1 index /FID ne {def} {pop pop} ifelse} forall
  /Encoding WinAnsiEncoding def
  currentdict
end
/Courier exch definefont pop
/Times-Italic findfont
dup length dict begin
  {1 index /FID ne {def} {pop pop} ifelse} forall
  /Encoding WinAnsiEncoding def
  currentdict
end
/Times-Italic exch definefont pop
/Times-Bold findfont
dup length dict begin
  {1 index /FID ne {def} {pop pop} ifelse} forall
  /Encoding WinAnsiEncoding def
  currentdict
end
/Times-Bold exch definefont pop
%FOPEndFontReencode
%%EndProlog
%%Page: 1 1
%%PageBoundingBox: 0 0 720 288
%%BeginPageSetup
[1 0 0 -1 0 288] CT
%%EndPageSetup
GS
[0.75 0 0 0.75 0 0] CT
1 GC
N
0 0 960 384 re
f
GR
GS
[0.75 0 0 0.75 0 0] CT
1 GC
N
0 0 960 384 re
f
GR
GS
[0.75 0 0 0.75 0 0] CT
1 GC
N
125 342 M
869 342 L
869 29 L
125 29 L
cp
f
GR
GS
[0.75 0 0 0.75 372.75034 274.24999] CT
0.149 GC
/Helvetica 15 F
GS
[1 0 0 1 0 0] CT
-37.5 14 moveto 
1 -1 scale
(timesteps) t 
GR
GR
GS
[0.75 0 0 0.75 0 0] CT
0.149 GC
2 setlinecap
10.0 ML
N
125 342 M
869 342 L
S
GR
GS
[0.75 0 0 0.75 0 0] CT
0.149 GC
2 setlinecap
10.0 ML
N
125 29 M
869 29 L
S
GR
GS
[0.75 0 0 0.75 0 0] CT
0.149 GC
2 setlinecap
10.0 ML
N
125 342 M
125 334.56 L
S
GR
GS
[0.75 0 0 0.75 0 0] CT
0.149 GC
2 setlinecap
10.0 ML
N
199.4 342 M
199.4 334.56 L
S
GR
GS
[0.75 0 0 0.75 0 0] CT
0.149 GC
2 setlinecap
10.0 ML
N
273.8 342 M
273.8 334.56 L
S
GR
GS
[0.75 0 0 0.75 0 0] CT
0.149 GC
2 setlinecap
10.0 ML
N
348.2 342 M
348.2 334.56 L
S
GR
GS
[0.75 0 0 0.75 0 0] CT
0.149 GC
2 setlinecap
10.0 ML
N
422.6 342 M
422.6 334.56 L
S
GR
GS
[0.75 0 0 0.75 0 0] CT
0.149 GC
2 setlinecap
10.0 ML
N
497 342 M
497 334.56 L
S
GR
GS
[0.75 0 0 0.75 0 0] CT
0.149 GC
2 setlinecap
10.0 ML
N
571.4 342 M
571.4 334.56 L
S
GR
GS
[0.75 0 0 0.75 0 0] CT
0.149 GC
2 setlinecap
10.0 ML
N
645.8 342 M
645.8 334.56 L
S
GR
GS
[0.75 0 0 0.75 0 0] CT
0.149 GC
2 setlinecap
10.0 ML
N
720.2 342 M
720.2 334.56 L
S
GR
GS
[0.75 0 0 0.75 0 0] CT
0.149 GC
2 setlinecap
10.0 ML
N
794.6 342 M
794.6 334.56 L
S
GR
GS
[0.75 0 0 0.75 0 0] CT
0.149 GC
2 setlinecap
10.0 ML
N
869 342 M
869 334.56 L
S
GR
GS
[0.75 0 0 0.75 0 0] CT
0.149 GC
2 setlinecap
10.0 ML
N
125 29 M
125 36.44 L
S
GR
GS
[0.75 0 0 0.75 0 0] CT
0.149 GC
2 setlinecap
10.0 ML
N
199.4 29 M
199.4 36.44 L
S
GR
GS
[0.75 0 0 0.75 0 0] CT
0.149 GC
2 setlinecap
10.0 ML
N
273.8 29 M
273.8 36.44 L
S
GR
GS
[0.75 0 0 0.75 0 0] CT
0.149 GC
2 setlinecap
10.0 ML
N
348.2 29 M
348.2 36.44 L
S
GR
GS
[0.75 0 0 0.75 0 0] CT
0.149 GC
2 setlinecap
10.0 ML
N
422.6 29 M
422.6 36.44 L
S
GR
GS
[0.75 0 0 0.75 0 0] CT
0.149 GC
2 setlinecap
10.0 ML
N
497 29 M
497 36.44 L
S
GR
GS
[0.75 0 0 0.75 0 0] CT
0.149 GC
2 setlinecap
10.0 ML
N
571.4 29 M
571.4 36.44 L
S
GR
GS
[0.75 0 0 0.75 0 0] CT
0.149 GC
2 setlinecap
10.0 ML
N
645.8 29 M
645.8 36.44 L
S
GR
GS
[0.75 0 0 0.75 0 0] CT
0.149 GC
2 setlinecap
10.0 ML
N
720.2 29 M
720.2 36.44 L
S
GR
GS
[0.75 0 0 0.75 0 0] CT
0.149 GC
2 setlinecap
10.0 ML
N
794.6 29 M
794.6 36.44 L
S
GR
GS
[0.75 0 0 0.75 0 0] CT
0.149 GC
2 setlinecap
10.0 ML
N
869 29 M
869 36.44 L
S
GR
GS
[0.75 0 0 0.75 93.75 260.50001] CT
0.149 GC
/Helvetica 13 F
GS
[1 0 0 1 0 0] CT
-12.5 13 moveto 
1 -1 scale
(900) t 
GR
GR
GS
[0.75 0 0 0.75 149.55 260.50001] CT
0.149 GC
/Helvetica 13 F
GS
[1 0 0 1 0 0] CT
-12.5 13 moveto 
1 -1 scale
(920) t 
GR
GR
GS
[0.75 0 0 0.75 205.34999 260.50001] CT
0.149 GC
/Helvetica 13 F
GS
[1 0 0 1 0 0] CT
-12.5 13 moveto 
1 -1 scale
(940) t 
GR
GR
GS
[0.75 0 0 0.75 261.15001 260.50001] CT
0.149 GC
/Helvetica 13 F
GS
[1 0 0 1 0 0] CT
-12.5 13 moveto 
1 -1 scale
(960) t 
GR
GR
GS
[0.75 0 0 0.75 316.95 260.50001] CT
0.149 GC
/Helvetica 13 F
GS
[1 0 0 1 0 0] CT
-12.5 13 moveto 
1 -1 scale
(980) t 
GR
GR
GS
[0.75 0 0 0.75 372.75 260.50001] CT
0.149 GC
/Helvetica 13 F
GS
[1 0 0 1 0 0] CT
-17 13 moveto 
1 -1 scale
(1000) t 
GR
GR
GS
[0.75 0 0 0.75 428.55002 260.50001] CT
0.149 GC
/Helvetica 13 F
GS
[1 0 0 1 0 0] CT
-17 13 moveto 
1 -1 scale
(1020) t 
GR
GR
GS
[0.75 0 0 0.75 484.34999 260.50001] CT
0.149 GC
/Helvetica 13 F
GS
[1 0 0 1 0 0] CT
-17 13 moveto 
1 -1 scale
(1040) t 
GR
GR
GS
[0.75 0 0 0.75 540.15001 260.50001] CT
0.149 GC
/Helvetica 13 F
GS
[1 0 0 1 0 0] CT
-17 13 moveto 
1 -1 scale
(1060) t 
GR
GR
GS
[0.75 0 0 0.75 595.94998 260.50001] CT
0.149 GC
/Helvetica 13 F
GS
[1 0 0 1 0 0] CT
-17 13 moveto 
1 -1 scale
(1080) t 
GR
GR
GS
[0.75 0 0 0.75 651.75 260.50001] CT
0.149 GC
/Helvetica 13 F
GS
[1 0 0 1 0 0] CT
-17 13 moveto 
1 -1 scale
(1100) t 
GR
GR
GS
[0.75 0 0 0.75 0 0] CT
0.149 GC
2 setlinecap
10.0 ML
N
125 342 M
125 29 L
S
GR
GS
[0.75 0 0 0.75 0 0] CT
0.149 GC
2 setlinecap
10.0 ML
N
869 342 M
869 29 L
S
GR
GS
[0.75 0 0 0.75 0 0] CT
0.149 GC
2 setlinecap
10.0 ML
N
125 330.809 M
132.44 330.809 L
S
GR
GS
[0.75 0 0 0.75 0 0] CT
0.149 GC
2 setlinecap
10.0 ML
N
125 284.986 M
132.44 284.986 L
S
GR
GS
[0.75 0 0 0.75 0 0] CT
0.149 GC
2 setlinecap
10.0 ML
N
125 239.162 M
132.44 239.162 L
S
GR
GS
[0.75 0 0 0.75 0 0] CT
0.149 GC
2 setlinecap
10.0 ML
N
125 193.339 M
132.44 193.339 L
S
GR
GS
[0.75 0 0 0.75 0 0] CT
0.149 GC
2 setlinecap
10.0 ML
N
125 147.515 M
132.44 147.515 L
S
GR
GS
[0.75 0 0 0.75 0 0] CT
0.149 GC
2 setlinecap
10.0 ML
N
125 101.692 M
132.44 101.692 L
S
GR
GS
[0.75 0 0 0.75 0 0] CT
0.149 GC
2 setlinecap
10.0 ML
N
125 55.868 M
132.44 55.868 L
S
GR
GS
[0.75 0 0 0.75 0 0] CT
0.149 GC
2 setlinecap
10.0 ML
N
869 330.809 M
861.56 330.809 L
S
GR
GS
[0.75 0 0 0.75 0 0] CT
0.149 GC
2 setlinecap
10.0 ML
N
869 284.986 M
861.56 284.986 L
S
GR
GS
[0.75 0 0 0.75 0 0] CT
0.149 GC
2 setlinecap
10.0 ML
N
869 239.162 M
861.56 239.162 L
S
GR
GS
[0.75 0 0 0.75 0 0] CT
0.149 GC
2 setlinecap
10.0 ML
N
869 193.339 M
861.56 193.339 L
S
GR
GS
[0.75 0 0 0.75 0 0] CT
0.149 GC
2 setlinecap
10.0 ML
N
869 147.515 M
861.56 147.515 L
S
GR
GS
[0.75 0 0 0.75 0 0] CT
0.149 GC
2 setlinecap
10.0 ML
N
869 101.692 M
861.56 101.692 L
S
GR
GS
[0.75 0 0 0.75 0 0] CT
0.149 GC
2 setlinecap
10.0 ML
N
869 55.868 M
861.56 55.868 L
S
GR
GS
[0.75 0 0 0.75 89.74994 248.10702] CT
0.149 GC
/Helvetica 13 F
GS
[1 0 0 1 0 0] CT
-9 4.5 moveto 
1 -1 scale
(0) t 
GR
GR
GS
[0.75 0 0 0.75 89.74994 213.73936] CT
0.149 GC
/Helvetica 13 F
GS
[1 0 0 1 0 0] CT
-21 4.5 moveto 
1 -1 scale
(0.5) t 
GR
GR
GS
[0.75 0 0 0.75 89.74994 179.37169] CT
0.149 GC
/Helvetica 13 F
GS
[1 0 0 1 0 0] CT
-9 4.5 moveto 
1 -1 scale
(1) t 
GR
GR
GS
[0.75 0 0 0.75 89.74994 145.00404] CT
0.149 GC
/Helvetica 13 F
GS
[1 0 0 1 0 0] CT
-21 4.5 moveto 
1 -1 scale
(1.5) t 
GR
GR
GS
[0.75 0 0 0.75 89.74994 110.63638] CT
0.149 GC
/Helvetica 13 F
GS
[1 0 0 1 0 0] CT
-9 4.5 moveto 
1 -1 scale
(2) t 
GR
GR
GS
[0.75 0 0 0.75 89.74994 76.26871] CT
0.149 GC
/Helvetica 13 F
GS
[1 0 0 1 0 0] CT
-21 4.5 moveto 
1 -1 scale
(2.5) t 
GR
GR
GS
[0.75 0 0 0.75 89.74994 41.90106] CT
0.149 GC
/Helvetica 13 F
GS
[1 0 0 1 0 0] CT
-9 4.5 moveto 
1 -1 scale
(3) t 
GR
GR
GS
[0.75 0 0 0.75 0 0] CT
2 LJ
1.333 LW
N
124.926 262.285 M
125 262.272 L
128.72 277.519 L
132.44 280.307 L
136.16 264.81 L
139.88 276.391 L
143.6 285.98 L
147.32 252.534 L
151.04 257.943 L
154.76 274.799 L
158.48 277.492 L
162.2 255.694 L
165.92 252.617 L
169.64 253.027 L
173.36 254.859 L
177.08 267.137 L
180.8 273.971 L
184.52 263.975 L
188.24 276.572 L
191.96 263.069 L
195.68 267.594 L
199.4 260.785 L
203.12 264.822 L
206.84 270.871 L
210.56 263.918 L
214.28 269.849 L
218 265.846 L
221.72 278.341 L
225.44 259.46 L
229.16 258.133 L
232.88 268.753 L
236.6 261.427 L
240.32 268.413 L
244.04 269.543 L
247.76 249.158 L
251.48 257.771 L
255.2 258.599 L
258.92 259.133 L
262.64 270.95 L
266.36 274.31 L
270.08 258.319 L
273.8 256.972 L
277.52 282.516 L
281.24 258.167 L
284.96 259.945 L
288.68 261.356 L
292.4 269.118 L
296.12 267.834 L
299.84 255.707 L
303.56 259.964 L
S
GR
GS
[0.75 0 0 0.75 0 0] CT
2 LJ
1.333 LW
N
303.56 259.964 M
307.28 291.445 L
311 262.133 L
314.72 260.073 L
318.44 259.67 L
322.16 261.502 L
325.88 275.91 L
329.6 261.353 L
333.32 279.402 L
337.04 257.037 L
340.76 268.336 L
344.48 262.134 L
348.2 264.971 L
351.92 271.568 L
355.64 274.596 L
359.36 259.871 L
363.08 266.585 L
366.8 268.404 L
370.52 265.117 L
374.24 270.592 L
377.96 263.255 L
381.68 281.119 L
385.4 251.827 L
389.12 275.356 L
392.84 261.354 L
396.56 260.362 L
400.28 265.676 L
404 270.405 L
407.72 248.71 L
411.44 259.136 L
415.16 264.05 L
418.88 261.956 L
422.6 266.727 L
426.32 263.846 L
430.04 276.703 L
433.76 269.965 L
437.48 260.077 L
441.2 250.839 L
444.92 270.422 L
448.64 278.711 L
452.36 258.512 L
456.08 250.371 L
459.8 266.692 L
463.52 264.543 L
467.24 268.393 L
470.96 270.068 L
474.68 268.103 L
478.4 257.717 L
482.12 271.092 L
485.84 281.07 L
S
GR
GS
[0.75 0 0 0.75 0 0] CT
2 LJ
1.333 LW
N
485.84 281.07 M
489.56 248.981 L
493.28 260.331 L
497 273.981 L
500.72 267.958 L
504.44 274.121 L
508.16 307.132 L
511.88 315.776 L
515.6 182.759 L
519.32 189.883 L
523.04 167.517 L
526.76 244.425 L
530.48 202.002 L
534.2 199.121 L
537.92 236.294 L
541.64 307.092 L
545.36 74.155 L
549.08 80.482 L
552.8 174.522 L
556.52 114.79 L
560.24 219.054 L
563.96 170.512 L
567.68 88.777 L
571.4 153.078 L
575.12 134.654 L
578.84 131.414 L
582.56 143.229 L
586.28 127.899 L
590 115.589 L
593.72 132.726 L
597.44 134.139 L
601.16 138.188 L
604.88 142.708 L
608.6 136.998 L
612.32 143.432 L
616.04 126.713 L
619.76 129.492 L
623.48 135.672 L
627.2 122.816 L
630.92 139.473 L
634.64 135.583 L
638.36 125.994 L
642.08 126.253 L
645.8 127.688 L
649.52 134.129 L
653.24 128.529 L
656.96 131.349 L
660.68 131.654 L
664.4 136.538 L
668.12 142.176 L
S
GR
GS
[0.75 0 0 0.75 0 0] CT
2 LJ
1.333 LW
N
668.12 142.176 M
671.84 123.423 L
675.56 125.351 L
679.28 133.306 L
683 137.255 L
686.72 134.994 L
690.44 131.349 L
694.16 150.781 L
697.88 115.359 L
701.6 127.394 L
705.32 129.409 L
709.04 130.669 L
712.76 134.048 L
716.48 127.769 L
720.2 122.799 L
723.92 115.719 L
727.64 132.266 L
731.36 117.663 L
735.08 126.615 L
738.8 136.161 L
742.52 147.711 L
746.24 139.922 L
749.96 114.298 L
753.68 125.374 L
757.4 118.026 L
761.12 123.951 L
764.84 114.366 L
768.56 126.5 L
772.28 150.013 L
776 129.702 L
779.72 135.889 L
783.44 122.39 L
787.16 125.792 L
790.88 133.379 L
794.6 135.744 L
798.32 143.987 L
802.04 125.755 L
805.76 126.489 L
809.48 129.605 L
813.2 137.451 L
816.92 129.494 L
820.64 130.02 L
824.36 114.337 L
828.08 136.227 L
831.8 130.2 L
835.52 124.717 L
839.24 152.145 L
842.96 126.246 L
846.68 136.929 L
850.4 135.723 L
S
GR
GS
[0.75 0 0 0.75 0 0] CT
2 LJ
1.333 LW
N
850.4 135.723 M
854.12 146.993 L
857.84 139.319 L
861.56 138.553 L
865.28 127.574 L
869 135.925 L
869.074 135.697 L
S
GR
GS
[0.75 0 0 0.75 0 0] CT
1 0 0 RC
[8 3 2 3] 0 setdash
2 LJ
1.333 LW
N
124.926 239.162 M
125 239.162 L
128.72 239.162 L
132.44 239.162 L
136.16 239.162 L
139.88 239.162 L
143.6 239.162 L
147.32 239.162 L
151.04 239.162 L
154.76 239.162 L
158.48 239.162 L
162.2 239.162 L
165.92 239.162 L
169.64 239.162 L
173.36 239.162 L
177.08 239.162 L
180.8 239.162 L
184.52 239.162 L
188.24 239.162 L
191.96 239.162 L
195.68 239.162 L
199.4 239.162 L
203.12 239.162 L
206.84 239.162 L
210.56 239.162 L
214.28 239.162 L
218 239.162 L
221.72 239.162 L
225.44 239.162 L
229.16 239.162 L
232.88 239.162 L
236.6 239.162 L
240.32 239.162 L
244.04 239.162 L
247.76 239.162 L
251.48 239.162 L
255.2 239.162 L
258.92 239.162 L
262.64 239.162 L
266.36 239.162 L
270.08 239.162 L
273.8 239.162 L
277.52 239.162 L
281.24 239.162 L
284.96 239.162 L
288.68 239.162 L
292.4 239.162 L
296.12 239.162 L
299.84 239.162 L
303.56 239.162 L
307.28 239.162 L
311 239.162 L
314.72 239.162 L
318.44 239.162 L
322.16 239.162 L
325.88 239.162 L
329.6 239.162 L
333.32 239.162 L
337.04 239.162 L
340.76 239.162 L
344.48 239.162 L
348.2 239.162 L
351.92 239.162 L
355.64 239.162 L
359.36 239.162 L
363.08 239.162 L
366.8 239.162 L
370.52 239.162 L
374.24 239.162 L
377.96 239.162 L
381.68 239.162 L
385.4 239.162 L
389.12 239.162 L
392.84 239.162 L
396.56 239.162 L
400.28 239.162 L
404 239.162 L
407.72 239.162 L
411.44 239.162 L
415.16 239.162 L
418.88 239.162 L
422.6 239.162 L
426.32 239.162 L
430.04 239.162 L
433.76 239.162 L
437.48 239.162 L
441.2 239.162 L
444.92 239.162 L
448.64 239.162 L
452.36 239.162 L
456.08 239.162 L
459.8 239.162 L
463.52 239.162 L
467.24 239.162 L
470.96 239.162 L
474.68 239.162 L
478.4 239.162 L
482.12 239.162 L
485.84 239.162 L
489.56 239.162 L
493.28 239.162 L
497 239.162 L
500.72 239.162 L
504.44 147.515 L
508.16 147.515 L
511.88 147.515 L
515.6 147.515 L
519.32 147.515 L
523.04 147.515 L
526.76 147.515 L
530.48 147.515 L
534.2 147.515 L
537.92 147.515 L
541.64 147.515 L
545.36 147.515 L
549.08 147.515 L
552.8 147.515 L
556.52 147.515 L
560.24 147.515 L
563.96 147.515 L
567.68 147.515 L
571.4 147.515 L
575.12 147.515 L
578.84 147.515 L
582.56 147.515 L
586.28 147.515 L
590 147.515 L
593.72 147.515 L
597.44 147.515 L
601.16 147.515 L
604.88 147.515 L
608.6 147.515 L
612.32 147.515 L
616.04 147.515 L
619.76 147.515 L
623.48 147.515 L
627.2 147.515 L
630.92 147.515 L
634.64 147.515 L
638.36 147.515 L
642.08 147.515 L
645.8 147.515 L
649.52 147.515 L
653.24 147.515 L
656.96 147.515 L
660.68 147.515 L
664.4 147.515 L
668.12 147.515 L
671.84 147.515 L
675.56 147.515 L
679.28 147.515 L
683 147.515 L
686.72 147.515 L
690.44 147.515 L
694.16 147.515 L
697.88 147.515 L
701.6 147.515 L
705.32 147.515 L
709.04 147.515 L
712.76 147.515 L
716.48 147.515 L
720.2 147.515 L
723.92 147.515 L
727.64 147.515 L
731.36 147.515 L
735.08 147.515 L
738.8 147.515 L
742.52 147.515 L
746.24 147.515 L
749.96 147.515 L
753.68 147.515 L
757.4 147.515 L
761.12 147.515 L
764.84 147.515 L
768.56 147.515 L
772.28 147.515 L
776 147.515 L
779.72 147.515 L
783.44 147.515 L
787.16 147.515 L
790.88 147.515 L
794.6 147.515 L
798.32 147.515 L
802.04 147.515 L
805.76 147.515 L
809.48 147.515 L
813.2 147.515 L
816.92 147.515 L
820.64 147.515 L
824.36 147.515 L
828.08 147.515 L
831.8 147.515 L
835.52 147.515 L
839.24 147.515 L
842.96 147.515 L
846.68 147.515 L
850.4 147.515 L
854.12 147.515 L
857.84 147.515 L
861.56 147.515 L
865.28 147.515 L
869 147.515 L
869.074 147.515 L
S
GR
GS
[0.75 0 0 0.75 372.75034 19.68749] CT
/Helvetica 15 F
GS
[1 0 0 1 0 0] CT
-65.5 -4 moveto 
1 -1 scale
(action parameter) t 
GR
GR
GS
[0.75 0 0 0.75 0 0] CT
1 GC
N
160 121 M
160 59 L
336 59 L
336 121 L
cp
f
GR
GS
[0.75 0 0 0.75 164.28387 57.38195] CT
/Helvetica 12 F
GS
[1 0 0 1 0 0] CT
0 4.5 moveto 
1 -1 scale
(executed param) t 
GR
GR
GS
[0.75 0 0 0.75 0 0] CT
2 setlinecap
10.0 ML
1.333 LW
N
169.084 76.509 M
214.503 76.509 L
S
GR
GS
[0.75 0 0 0.75 164.28387 77.61805] CT
/Helvetica 12 F
GS
[1 0 0 1 0 0] CT
0 4.5 moveto 
1 -1 scale
(optimal param) t 
GR
GR
GS
[0.75 0 0 0.75 0 0] CT
1 0 0 RC
[8 3 2 3] 0 setdash
2 LJ
1.333 LW
N
169.084 103.491 M
214.503 103.491 L
S
GR
GS
[0.75 0 0 0.75 0 0] CT
0.149 GC
2 setlinecap
10.0 ML
N
160 121 M
160 59 L
336 59 L
336 121 L
160 121 L
S
GR
%%Trailer
%%BoundingBox: 73 0 663 281
%%Pages: 1
%%EOF
