\relax 
\citation{narayanan02,brick07,edlund08,cantrell10,kopp14,lemaignan17}
\citation{anzalone15}
\citation{tomasello10}
\citation{boucher12,moubayed13,admoni14,bampatzia14}
\citation{rich10,anzalone15,ivaldi17,lemaignan17}
\citation{obrien08}
\citation{khamassi11}
\citation{kober11,stulp13}
\citation{kober13}
\citation{mnih15}
\citation{wang16,mouret17}
\citation{vollmer16}
\citation{schmidhuber06,baranes13,moulin-frier13,benureau16,wang16}
\@writefile{toc}{\contentsline {section}{\numberline {I}Introduction}{1}}
\citation{masson16,hausknecht16}
\citation{masson16}
\citation{hausknecht16}
\citation{hausknecht16}
\citation{vanHasselt07}
\citation{schweighofer03}
\citation{garivier08}
\citation{geist10}
\citation{Daw06,frank09}
\citation{watkins92}
\@writefile{toc}{\contentsline {section}{\numberline {II}Active exploration algorithm}{2}}
\newlabel{eq:delta}{{1}{2}}
\citation{vanHasselt07}
\citation{vanHasselt07}
\citation{vanHasselt07}
\citation{caluwaerts12}
\citation{schweighofer03,khamassi13}
\citation{palminteri15}
\citation{schweighofer03}
\citation{schweighofer03}
\citation{geist10}
\citation{Daw06}
\citation{geist10}
\newlabel{eq:QL}{{2}{3}}
\newlabel{eq:softmax}{{3}{3}}
\newlabel{eq:gauss}{{4}{3}}
\newlabel{eq:critic}{{5}{3}}
\newlabel{eq:actor}{{6}{3}}
\newlabel{eq:schweighofer}{{7}{3}}
\newlabel{eq:meta}{{8}{3}}
\newlabel{alg:algo}{{1}{3}}
\@writefile{loa}{\contentsline {algorithm}{\numberline {1}{\ignorespaces Active exploration with meta-learning}}{3}}
\@writefile{toc}{\contentsline {section}{\numberline {III}Experiments}{3}}
\@writefile{toc}{\contentsline {subsection}{\numberline {\unhbox \voidb@x \hbox {III-A}}Non-stationary multi-armed bandit}{3}}
\citation{garivier08}
\citation{garivier08}
\citation{garivier08}
\citation{garivier08}
\citation{kocsis06}
\citation{auer02}
\citation{garivier08}
\citation{garivier08}
\@writefile{lof}{\contentsline {figure}{\numberline {1}{\ignorespaces Probability that an arm $a$ will return a reward upon choice in the non-stationary multi-armed bandit task tested here. Adapted from \cite  {garivier08}.}}{4}}
\newlabel{fig:fig1g}{{1}{4}}
\newlabel{eq:ucb_n}{{9}{4}}
\newlabel{eq:ucb_r}{{10}{4}}
\newlabel{eq:ucb_c}{{11}{4}}
\newlabel{eq:ucb_a}{{12}{4}}
\@writefile{lof}{\contentsline {figure}{\numberline {2}{\ignorespaces Performance in the bandit task. Top: The averaged cumulative regret per episode. Bottom left: The final cumulative regret for 500 sessions. Bottom right: The final cumulative reward for 500 sessions}}{4}}
\newlabel{fig:resultsBandit}{{2}{4}}
\newlabel{eq:QL2}{{13}{4}}
\newlabel{eq:beta2}{{14}{4}}
\citation{anzalone15}
\citation{schilbach10}
\citation{geist10}
\@writefile{toc}{\contentsline {subsection}{\numberline {\unhbox \voidb@x \hbox {III-B}}Simple HRI simulation}{5}}
\newlabel{fig:a}{{2(a)}{6}}
\newlabel{sub@fig:a}{{(a)}{6}}
\newlabel{fig:b}{{2(b)}{6}}
\newlabel{sub@fig:b}{{(b)}{6}}
\newlabel{fig:c}{{2(c)}{6}}
\newlabel{sub@fig:c}{{(c)}{6}}
\newlabel{fig:d}{{2(d)}{6}}
\newlabel{sub@fig:d}{{(d)}{6}}
\@writefile{lof}{\contentsline {subfigure}{\numberline{(a)}{\ignorespaces {Fixed exploration, $\sigma = 20$}}}{6}}
\@writefile{lof}{\contentsline {subfigure}{\numberline{(b)}{\ignorespaces {Fixed exploration, $\sigma = 10$}}}{6}}
\@writefile{lof}{\contentsline {subfigure}{\numberline{(c)}{\ignorespaces {Kalman Q-learning}}}{6}}
\@writefile{lof}{\contentsline {subfigure}{\numberline{(d)}{\ignorespaces {Meta-learning}}}{6}}
\@writefile{lof}{\contentsline {figure}{\numberline {3}{\ignorespaces Simulations of the parameterized reinforcement learning (RL) algorithm with (a) fixed $\sigma =20$ and $\beta =4$ (no active exploration), (b) fixed $\sigma =10$ and $\beta =4$ (no active exploration), (d) $\sigma _t^a$ and $b_t^a$ tuned by Kalman-RL (active exploration) or (d) $\sigma _t$ and $\beta _t$ tuned by meta-learning (active exploration).}}{6}}
\newlabel{fig:fixedExploration}{{3}{6}}
\@writefile{lof}{\contentsline {figure}{\numberline {4}{\ignorespaces Comparison of engagement in 10 simulations of the meta-learning model (dark gray), the model without active exploration (black), and the Kalman-QL (light gray).}}{6}}
\newlabel{fig:10sims}{{4}{6}}
\@writefile{toc}{\contentsline {subsection}{\numberline {\unhbox \voidb@x \hbox {III-C}}Realistic V-REP HRI simulation}{6}}
\@writefile{lof}{\contentsline {figure}{\numberline {5}{\ignorespaces Parameter optimization for the different tested algorithms.}}{7}}
\newlabel{fig:paramOptim}{{5}{7}}
\@writefile{lof}{\contentsline {figure}{\numberline {6}{\ignorespaces Snapshot of the V-REP simulated HRI scenario showing the configuration of the experiment.}}{7}}
\newlabel{fig:vrep}{{6}{7}}
\citation{anzalone15}
\citation{ooko11}
\@writefile{toc}{\contentsline {subsection}{\numberline {\unhbox \voidb@x \hbox {III-D}}Engagement Estimation Process in the V/REP HRI simulation}{8}}
\@writefile{lof}{\contentsline {figure}{\numberline {8}{\ignorespaces Left: Low head pose variance. Human engagement is high. Right: High head pose variance. Human engagement is low.}}{8}}
\newlabel{fig:head_var}{{8}{8}}
\@writefile{lof}{\contentsline {figure}{\numberline {7}{\ignorespaces Left column: Comparison of engagement (top) and action parameter (bottom) convergence between the meta-learning and the Kalman-QL algorithms. Right Column: zoomed-in plots depicting convergence performance of the proposed meta-learning algorithm.}}{9}}
\newlabel{fig:theo1}{{7}{9}}
\@writefile{lof}{\contentsline {figure}{\numberline {9}{\ignorespaces Real (simulated) vs. estimated engagement based on $n = 5$ head pose observations per trial and Gaussian measurement noise with $\sigma = 0.5$.}}{9}}
\newlabel{fig:estimated_real_eng2}{{9}{9}}
\@writefile{lof}{\contentsline {figure}{\numberline {10}{\ignorespaces Top: Real (simulated) human engagement (mean and variance after 20 runs) when the optimal action parameter undergoes step changes every 100 trials as shown in bottom figure (engagement does not drop below a 60\% value). Bottom: Executed action parameter (mean and variance after 20 runs) involving step changes.}}{9}}
\newlabel{fig:eng_param_20exp_1to4to0}{{10}{9}}
\citation{garivier08}
\citation{alles15}
\citation{geist10}
\citation{viejo15}
\@writefile{lof}{\contentsline {figure}{\numberline {11}{\ignorespaces Human engagement (top) and action parameter (bottom) during optimal action parameter perturbations with duration of 1 (solid black), 2 (dashed black), 5 (solid gray) and 10 (dashed gray) trials respectively.}}{10}}
\newlabel{fig:param_eng_pert1_2_5_10}{{11}{10}}
\@writefile{lof}{\contentsline {figure}{\numberline {12}{\ignorespaces Performance for increasing perturbation duration (number of trials). Top: Engagement deviation from its maximum value (10). Bottom: Action parameter deviation from its optimal value (1). The measurement noise has $\sigma =1$.}}{10}}
\newlabel{fig:eng_param_mad2}{{12}{10}}
\@writefile{lot}{\contentsline {table}{\numberline {I}{\ignorespaces Number of trials needed for engagement to reach 90\% of its maximal value after a perturbation.}}{10}}
\newlabel{tab:trials90}{{I}{10}}
\@writefile{toc}{\contentsline {section}{\numberline {IV}Conclusion}{10}}
\bibstyle{IEEEtran}
\bibdata{biblio}
\bibcite{narayanan02}{1}
\bibcite{brick07}{2}
\bibcite{edlund08}{3}
\bibcite{cantrell10}{4}
\bibcite{kopp14}{5}
\bibcite{lemaignan17}{6}
\bibcite{anzalone15}{7}
\bibcite{tomasello10}{8}
\bibcite{boucher12}{9}
\bibcite{moubayed13}{10}
\bibcite{admoni14}{11}
\bibcite{bampatzia14}{12}
\bibcite{rich10}{13}
\bibcite{ivaldi17}{14}
\bibcite{obrien08}{15}
\bibcite{khamassi11}{16}
\bibcite{kober11}{17}
\@writefile{lof}{\contentsline {figure}{\numberline {13}{\ignorespaces Performance for increasing noise $\sigma $. Top: Engagement deviation from its maximum value (10). Bottom: Action parameter deviation from its optimal value (1).}}{11}}
\newlabel{fig:noise_eng_param_mad2}{{13}{11}}
\@writefile{toc}{\contentsline {section}{References}{11}}
\bibcite{stulp13}{18}
\bibcite{kober13}{19}
\bibcite{mnih15}{20}
\bibcite{wang16}{21}
\bibcite{mouret17}{22}
\bibcite{vollmer16}{23}
\bibcite{schmidhuber06}{24}
\bibcite{baranes13}{25}
\bibcite{moulin-frier13}{26}
\bibcite{benureau16}{27}
\bibcite{masson16}{28}
\bibcite{hausknecht16}{29}
\bibcite{vanHasselt07}{30}
\bibcite{schweighofer03}{31}
\bibcite{garivier08}{32}
\bibcite{geist10}{33}
\bibcite{Daw06}{34}
\bibcite{frank09}{35}
\bibcite{watkins92}{36}
\bibcite{caluwaerts12}{37}
\bibcite{khamassi13}{38}
\bibcite{palminteri15}{39}
\bibcite{kocsis06}{40}
\bibcite{auer02}{41}
\bibcite{schilbach10}{42}
\bibcite{ooko11}{43}
\bibcite{alles15}{44}
\bibcite{viejo15}{45}
\@writefile{toc}{\contentsline {section}{Biographies}{12}}
\@writefile{toc}{\contentsline {subsection}{Mehdi Khamassi}{12}}
\@writefile{toc}{\contentsline {subsection}{George Velentzas}{12}}
\@writefile{toc}{\contentsline {subsection}{Theodore Tsitsimis}{12}}
\@writefile{toc}{\contentsline {subsection}{Costas Tzafestas}{12}}
