\relax 
\providecommand\hyper@newdestlabel[2]{}
\providecommand\HyperFirstAtBeginDocument{\AtBeginDocument}
\HyperFirstAtBeginDocument{\ifx\hyper@anchor\@undefined
\global\let\oldcontentsline\contentsline
\gdef\contentsline#1#2#3#4{\oldcontentsline{#1}{#2}{#3}}
\global\let\oldnewlabel\newlabel
\gdef\newlabel#1#2{\newlabelxx{#1}#2}
\gdef\newlabelxx#1#2#3#4#5#6{\oldnewlabel{#1}{{#2}{#3}}}
\AtEndDocument{\ifx\hyper@anchor\@undefined
\let\contentsline\oldcontentsline
\let\newlabel\oldnewlabel
\fi}
\fi}
\global\let\hyper@last\relax 
\gdef\HyperFirstAtBeginDocument#1{#1}
\providecommand\HyField@AuxAddToFields[1]{}
\providecommand\HyField@AuxAddToCoFields[2]{}
\citation{kober11,stulp13}
\citation{kober13}
\citation{khamassi16,renaudo17}
\citation{masson16,hausknecht16}
\citation{masson16}
\citation{hausknecht16}
\citation{kober13}
\citation{hausknecht16}
\citation{vanHasselt07}
\citation{schweighofer03}
\citation{garivier08}
\citation{geist10}
\@writefile{toc}{\contentsline {section}{\numberline {I}Introduction}{1}{section.1}}
\citation{watkins92}
\citation{vanHasselt07}
\citation{vanHasselt07}
\citation{vanHasselt07}
\citation{caluwaerts12}
\citation{schweighofer03,khamassi13}
\citation{palminteri15}
\citation{schweighofer03}
\citation{schweighofer03}
\citation{geist10}
\@writefile{toc}{\contentsline {section}{\numberline {II}Active exploration algorithm}{2}{section.2}}
\newlabel{eq:delta}{{1}{2}{Active exploration algorithm}{equation.2.1}{}}
\newlabel{eq:QL}{{2}{2}{Active exploration algorithm}{equation.2.2}{}}
\newlabel{eq:softmax}{{3}{2}{Active exploration algorithm}{equation.2.3}{}}
\newlabel{eq:gauss}{{4}{2}{Active exploration algorithm}{equation.2.4}{}}
\newlabel{eq:critic}{{5}{2}{Active exploration algorithm}{equation.2.5}{}}
\newlabel{eq:actor}{{6}{2}{Active exploration algorithm}{equation.2.6}{}}
\newlabel{eq:schweighofer}{{7}{2}{Active exploration algorithm}{equation.2.7}{}}
\newlabel{eq:meta}{{8}{2}{Active exploration algorithm}{equation.2.8}{}}
\citation{garivier08}
\citation{kocsis06}
\citation{auer02}
\citation{garivier08}
\citation{garivier08}
\citation{garivier08}
\citation{garivier08}
\newlabel{alg:algo}{{1}{3}{Active exploration algorithm}{algorithm.1}{}}
\@writefile{loa}{\contentsline {algorithm}{\numberline {1}{\ignorespaces Active exploration with meta-learning}}{3}{algorithm.1}}
\@writefile{toc}{\contentsline {section}{\numberline {III}Experiments}{3}{section.3}}
\@writefile{toc}{\contentsline {subsection}{\numberline {\unhbox \voidb@x \hbox {III-A}}Non-stationary multi-armed bandit}{3}{subsection.3.1}}
\newlabel{eq:ucb_n}{{9}{3}{Non-stationary multi-armed bandit}{equation.3.9}{}}
\newlabel{eq:ucb_r}{{10}{3}{Non-stationary multi-armed bandit}{equation.3.10}{}}
\newlabel{eq:ucb_c}{{11}{3}{Non-stationary multi-armed bandit}{equation.3.11}{}}
\newlabel{eq:ucb_a}{{12}{3}{Non-stationary multi-armed bandit}{equation.3.12}{}}
\newlabel{eq:QL2}{{13}{3}{Non-stationary multi-armed bandit}{equation.3.13}{}}
\@writefile{lof}{\contentsline {figure}{\numberline {1}{\ignorespaces Probability that an arm $a$ will return a reward upon choice in the non-stationary multi-armed bandit task tested here. Adapted from \cite  {garivier08}.}}{3}{figure.1}}
\newlabel{fig:fig1}{{1}{3}{Probability that an arm $a$ will return a reward upon choice in the non-stationary multi-armed bandit task tested here. Adapted from \cite {garivier08}}{figure.1}{}}
\citation{anzalone15}
\newlabel{eq:beta2}{{14}{4}{Non-stationary multi-armed bandit}{equation.3.14}{}}
\@writefile{toc}{\contentsline {subsection}{\numberline {\unhbox \voidb@x \hbox {III-B}}Simple HRI simulation}{4}{subsection.3.2}}
\@writefile{lof}{\contentsline {figure}{\numberline {2}{\ignorespaces Performance in the bandit task. Top: The averaged cumulative regret per episode. Bottom left: The final cumulative regret for 500 sessions. Bottom right: The final cumulative reward for 500 sessions}}{4}{figure.2}}
\newlabel{fig:fig1}{{2}{4}{Performance in the bandit task. Top: The averaged cumulative regret per episode. Bottom left: The final cumulative regret for 500 sessions. Bottom right: The final cumulative reward for 500 sessions}{figure.2}{}}
\@writefile{lof}{\contentsline {figure}{\numberline {3}{\ignorespaces Simulations of the parameterized reinforcement learning (RL) algorithm with (A) fixed $\sigma =20$ and $\beta =4$ (no active exploration), (B) fixed $\sigma =10$ and $\beta =4$ (no active exploration), (C) $\sigma _t^a$ and $b_t^a$ tuned by Kalman-RL (active exploration) or (D) $\sigma _t$ and $\beta _t$ tuned by meta-learning (active exploration).}}{5}{figure.3}}
\newlabel{fig:fig2}{{\unhbox \voidb@x \hbox {III-A}}{5}{Non-stationary multi-armed bandit}{figure.3}{}}
\citation{garivier08}
\citation{alles15}
\@writefile{lof}{\contentsline {figure}{\numberline {4}{\ignorespaces Comparison of engagement in 10 simulations of the meta-learning model (red), the model without active exploration (blue), and the Kalman-QL (green).}}{6}{figure.4}}
\newlabel{fig:fig3}{{4}{6}{Comparison of engagement in 10 simulations of the meta-learning model (red), the model without active exploration (blue), and the Kalman-QL (green)}{figure.4}{}}
\@writefile{toc}{\contentsline {subsection}{\numberline {\unhbox \voidb@x \hbox {III-C}}Realistic V-REP HRI simulation}{6}{subsection.3.3}}
\@writefile{lof}{\contentsline {figure}{\numberline {5}{\ignorespaces Comparison of engagement and action parameter convergence of the meta-learning model and the Kalman-QL.}}{6}{figure.5}}
\newlabel{fig:fig4}{{5}{6}{Comparison of engagement and action parameter convergence of the meta-learning model and the Kalman-QL}{figure.5}{}}
\@writefile{lof}{\contentsline {figure}{\numberline {6}{\ignorespaces V/REP simulations of the NAO robot interacting with a human.}}{6}{figure.6}}
\newlabel{fig:fig5}{{6}{6}{V/REP simulations of the NAO robot interacting with a human}{figure.6}{}}
\@writefile{toc}{\contentsline {section}{\numberline {IV}Discussion}{6}{section.4}}
\citation{geist10}
\citation{viejo15}
\bibstyle{IEEEtran}
\bibdata{biblio}
\bibcite{kober11}{1}
\bibcite{stulp13}{2}
\bibcite{kober13}{3}
\bibcite{masson16}{4}
\bibcite{hausknecht16}{5}
\bibcite{vanHasselt07}{6}
\bibcite{schweighofer03}{7}
\bibcite{geist10}{8}
\bibcite{watkins92}{9}
\bibcite{caluwaerts12}{10}
\bibcite{viejo15}{11}
\@writefile{toc}{\contentsline {section}{References}{7}{section*.2}}
