\relax 
\@writefile{toc}{\contentsline {chapter}{\IeC {\textEpsilon }\IeC {\textupsilon }\IeC {\textchi }\IeC {\textalpha }\IeC {\textrho }\IeC {\textiota }\IeC {\textsigma }\IeC {\texttau }\IeC {\ensuregreek {\acctonos \textiota }}\IeC {\textepsilon }\IeC {\textvarsigma }}{1}}
\@writefile{toc}{\contentsline {chapter}{\textPi \textepsilon \textrho \acctonos \textiota \textlambda \texteta \textpsi \texteta }{3}}
\@writefile{toc}{\contentsline {chapter}{\foreignlanguage  {english}{Abstract}}{5}}
\@setckpt{abstract}{
\setcounter{page}{6}
\setcounter{equation}{0}
\setcounter{enumi}{0}
\setcounter{enumii}{0}
\setcounter{enumiii}{0}
\setcounter{enumiv}{0}
\setcounter{footnote}{0}
\setcounter{mpfootnote}{0}
\setcounter{parentequation}{0}
\setcounter{part}{0}
\setcounter{chapter}{0}
\setcounter{section}{0}
\setcounter{subsection}{0}
\setcounter{subsubsection}{0}
\setcounter{paragraph}{0}
\setcounter{subparagraph}{0}
\setcounter{figure}{0}
\setcounter{table}{0}
\setcounter{ContinuedFloat}{0}
\setcounter{subfigure}{0}
\setcounter{subtable}{0}
\setcounter{float@type}{8}
\setcounter{algorithm}{0}
\setcounter{ALC@unique}{0}
\setcounter{ALC@line}{0}
\setcounter{ALC@rem}{0}
\setcounter{ALC@depth}{0}
\setcounter{definition}{0}
\setcounter{proposition}{0}
\setcounter{theorem}{0}
\setcounter{corollary}{0}
\setcounter{lemma}{0}
\setcounter{example}{0}
\setcounter{remark}{0}
\setcounter{notation}{0}
\setcounter{law}{0}
}
