\relax 
\@writefile{toc}{\contentsline {chapter}{\numberline {6}\IeC {\textDelta }\IeC {\textiota }\IeC {\textalpha }\IeC {\textdelta }\IeC {\textrho }\IeC {\textalpha }\IeC {\textsigma }\IeC {\texttau }\IeC {\textiota }\IeC {\textkappa }\IeC {\ensuregreek {\acctonos \texteta }} \IeC {\textrho }\IeC {\textomicron }\IeC {\textmu }\IeC {\textpi }\IeC {\textomicron }\IeC {\texttau }\IeC {\textiota }\IeC {\textkappa }\IeC {\ensuregreek {\acctonos \texteta }} \IeC {\textlambda }\IeC {\ensuregreek {\acctonos \texteta }}\IeC {\textpsi }\IeC {\texteta } \IeC {\textalpha }\IeC {\textnu }\IeC {\texttau }\IeC {\textiota }\IeC {\textkappa }\IeC {\textepsilon }\IeC {\textiota }\IeC {\textmu }\IeC {\ensuregreek {\acctonos \textepsilon }}\IeC {\textnu }\IeC {\textomicron }\IeC {\textupsilon }}{57}}
\@writefile{lof}{\addvspace {10\p@ }}
\@writefile{lot}{\addvspace {10\p@ }}
\newlabel{chapter_handover_experiment}{{6}{57}}
\@writefile{toc}{\contentsline {section}{\numberline {6.1}\IeC {\textAlpha }\IeC {\textnu }\IeC {\texttheta }\IeC {\textrho }\IeC {\textomega }\IeC {\textpi }\IeC {\ensuregreek {\acctonos \textomicron }}\IeC {\textmu }\IeC {\textomicron }\IeC {\textrho }\IeC {\textphi }\IeC {\textomicron } \IeC {\textrho }\IeC {\textomicron }\IeC {\textmu }\IeC {\textpi }\IeC {\ensuregreek {\acctonos \textomicron }}\IeC {\texttau } \IeC {\textNu }\IeC {\textAlpha }\IeC {\textOmicron }}{57}}
\select@language{greek}
\@writefile{toc}{\select@language{greek}}
\@writefile{lof}{\select@language{greek}}
\@writefile{lot}{\select@language{greek}}
\select@language{greek}
\@writefile{toc}{\select@language{greek}}
\@writefile{lof}{\select@language{greek}}
\@writefile{lot}{\select@language{greek}}
\@writefile{lof}{\contentsline {figure}{\numberline {6.1}{\ignorespaces \IeC {\textSigma }\IeC {\textchi }\IeC {\texteta }\IeC {\textmu }\IeC {\textalpha }\IeC {\texttau }\IeC {\textiota }\IeC {\textkappa }\IeC {\ensuregreek {\acctonos \textomicron }} \IeC {\texttau }\IeC {\textomicron }\IeC {\textupsilon } \IeC {\textalpha }\IeC {\textnu }\IeC {\texttheta }\IeC {\textrho }\IeC {\textomega }\IeC {\textpi }\IeC {\ensuregreek {\acctonos \textomicron }}\IeC {\textmu }\IeC {\textomicron }\IeC {\textrho }\IeC {\textphi }\IeC {\textomicron }\IeC {\textupsilon } \IeC {\textrho }\IeC {\textomicron }\IeC {\textmu }\IeC {\textpi }\IeC {\ensuregreek {\acctonos \textomicron }}\IeC {\texttau } \IeC {\textNu }\IeC {\textAlpha }\IeC {\textOmicron }.\relax }}{58}}
\newlabel{im:nao_hardware}{{6.1}{58}}
\@writefile{toc}{\contentsline {section}{\numberline {6.2}\IeC {\textEpsilon }\IeC {\textnu }\IeC {\texttau }\IeC {\textomicron }\IeC {\textpi }\IeC {\textiota }\IeC {\textsigma }\IeC {\textmu }\IeC {\ensuregreek {\acctonos \textomicron }}\IeC {\textvarsigma } \IeC {\textalpha }\IeC {\textnu }\IeC {\texttau }\IeC {\textiota }\IeC {\textkappa }\IeC {\textepsilon }\IeC {\textiota }\IeC {\textmu }\IeC {\ensuregreek {\acctonos \textepsilon }}\IeC {\textnu }\IeC {\textomicron }\IeC {\textupsilon }}{58}}
\@writefile{toc}{\contentsline {section}{\numberline {6.3}\IeC {\textPi }\IeC {\textrho }\IeC {\textomicron }\IeC {\textsigma }\IeC {\ensuregreek {\acctonos \textepsilon }}\IeC {\textgamma }\IeC {\textgamma }\IeC {\textiota }\IeC {\textsigma }\IeC {\texteta } \IeC {\texttau }\IeC {\textomicron }\IeC {\textupsilon } \IeC {\textpi }\IeC {\textrho }\IeC {\textomicron }\IeC {\textbeta }\IeC {\textlambda }\IeC {\ensuregreek {\acctonos \texteta }}\IeC {\textmu }\IeC {\textalpha }\IeC {\texttau }\IeC {\textomicron }\IeC {\textvarsigma }}{59}}
\@writefile{lof}{\contentsline {figure}{\numberline {6.2}{\ignorespaces \IeC {\ensuregreek {\acctonos \textEpsilon }}\IeC {\textnu }\IeC {\textalpha } \IeC {\textalpha }\IeC {\textnu }\IeC {\texttau }\IeC {\textiota }\IeC {\textkappa }\IeC {\textepsilon }\IeC {\ensuregreek {\acctonos \textiota }}\IeC {\textmu }\IeC {\textepsilon }\IeC {\textnu }\IeC {\textomicron } \IeC {\textsigma }\IeC {\textepsilon } \IeC {\textdelta }\IeC {\textiota }\IeC {\ensuregreek {\acctonos \textalpha }}\IeC {\texttau }\IeC {\textalpha }\IeC {\textxi }\IeC {\texteta } \IeC {\textkappa }\IeC {\textalpha }\IeC {\textlambda }\IeC {\ensuregreek {\acctonos \texteta }}\IeC {\textvarsigma } (\IeC {\textalpha }\IeC {\textrho }\IeC {\textiota }\IeC {\textsigma }\IeC {\texttau }\IeC {\textepsilon }\IeC {\textrho }\IeC {\ensuregreek {\acctonos \textalpha }}), \IeC {\textmu }\IeC {\ensuregreek {\acctonos \textepsilon }}\IeC {\texttau }\IeC {\textrho }\IeC {\textiota }\IeC {\textalpha }\IeC {\textvarsigma } (\IeC {\textkappa }\IeC {\ensuregreek {\acctonos \textepsilon }}\IeC {\textnu }\IeC {\texttau }\IeC {\textrho }\IeC {\textomicron }) \IeC {\textkappa }\IeC {\textalpha }\IeC {\textiota } \IeC {\textkappa }\IeC {\textalpha }\IeC {\textkappa }\IeC {\ensuregreek {\acctonos \texteta }}\IeC {\textvarsigma } (\IeC {\textdelta }\IeC {\textepsilon }\IeC {\textxi }\IeC {\textiota }\IeC {\ensuregreek {\acctonos \textalpha }}) \IeC {\textlambda }\IeC {\ensuregreek {\acctonos \texteta }}\IeC {\textpsi }\IeC {\texteta }\IeC {\textvarsigma }.\relax }}{59}}
\newlabel{im:nao_grasping_position}{{6.2}{59}}
\@writefile{toc}{\contentsline {section}{\numberline {6.4}\IeC {\textEpsilon }\IeC {\textpi }\IeC {\textiota }\IeC {\textlambda }\IeC {\textomicron }\IeC {\textgamma }\IeC {\ensuregreek {\acctonos \texteta }} \IeC {\textChi }\IeC {\textalpha }\IeC {\textrho }\IeC {\textalpha }\IeC {\textkappa }\IeC {\texttau }\IeC {\texteta }\IeC {\textrho }\IeC {\textiota }\IeC {\textsigma }\IeC {\texttau }\IeC {\textiota }\IeC {\textkappa }\IeC {\ensuregreek {\acctonos \textomega }}\IeC {\textnu }}{59}}
\select@language{greek}
\@writefile{toc}{\select@language{greek}}
\@writefile{lof}{\select@language{greek}}
\@writefile{lot}{\select@language{greek}}
\select@language{greek}
\@writefile{toc}{\select@language{greek}}
\@writefile{lof}{\select@language{greek}}
\@writefile{lot}{\select@language{greek}}
\@writefile{toc}{\contentsline {subsection}{\numberline {6.4.1}\IeC {\textMu }\IeC {\textomicron }\IeC {\textnu }\IeC {\texttau }\IeC {\ensuregreek {\acctonos \textepsilon }}\IeC {\textlambda }\IeC {\textomicron } \IeC {\textKappa }\IeC {\ensuregreek {\acctonos \textalpha }}\IeC {\textmu }\IeC {\textepsilon }\IeC {\textrho }\IeC {\textalpha }\IeC {\textvarsigma } \IeC {\textOmicron }\IeC {\textpi }\IeC {\ensuregreek {\acctonos \texteta }}\IeC {\textvarsigma }}{60}}
\@writefile{lof}{\contentsline {figure}{\numberline {6.3}{\ignorespaces \IeC {\textMu }\IeC {\textomicron }\IeC {\textnu }\IeC {\texttau }\IeC {\ensuregreek {\acctonos \textepsilon }}\IeC {\textlambda }\IeC {\textomicron } \IeC {\textkappa }\IeC {\ensuregreek {\acctonos \textalpha }}\IeC {\textmu }\IeC {\textepsilon }\IeC {\textrho }\IeC {\textalpha }\IeC {\textvarsigma } \IeC {\textomicron }\IeC {\textpi }\IeC {\ensuregreek {\acctonos \texteta }}\IeC {\textvarsigma }.\relax }}{60}}
\newlabel{im:pinhole_camera_projection}{{6.3}{60}}
\newlabel{eq:pinhole_equations}{{6.2}{61}}
\@writefile{toc}{\contentsline {subsubsection}{\IeC {\textKappa }\IeC {\textepsilon }\IeC {\textnu }\IeC {\texttau }\IeC {\textrho }\IeC {\textomicron }\IeC {\textepsilon }\IeC {\textiota }\IeC {\textdelta }\IeC {\ensuregreek {\acctonos \textepsilon }}\IeC {\textvarsigma }}{61}}
\@writefile{lof}{\contentsline {figure}{\numberline {6.4}{\ignorespaces \IeC {\textOmicron }\IeC {\textrho }\IeC {\texttheta }\IeC {\ensuregreek {\acctonos \texteta }} \IeC {\textkappa }\IeC {\textalpha }\IeC {\textiota } \IeC {\textlambda }\IeC {\textalpha }\IeC {\textnu }\IeC {\texttheta }\IeC {\textalpha }\IeC {\textsigma }\IeC {\textmu }\IeC {\ensuregreek {\acctonos \textepsilon }}\IeC {\textnu }\IeC {\texteta } \IeC {\texttheta }\IeC {\ensuregreek {\acctonos \textepsilon }}\IeC {\textsigma }\IeC {\texteta } \IeC {\textalpha }\IeC {\textnu }\IeC {\texttau }\IeC {\textiota }\IeC {\textkappa }\IeC {\textepsilon }\IeC {\textiota }\IeC {\textmu }\IeC {\ensuregreek {\acctonos \textepsilon }}\IeC {\textnu }\IeC {\textomicron }\IeC {\textupsilon } \IeC {\textgamma }\IeC {\textiota }\IeC {\textalpha } \IeC {\textlambda }\IeC {\textalpha }\IeC {\textbeta }\IeC {\ensuregreek {\acctonos \texteta }}.\relax }}{61}}
\newlabel{im:nao_grasping_camera_centroid}{{6.4}{61}}
\@writefile{toc}{\contentsline {subsubsection}{\IeC {\textMu }\IeC {\ensuregreek {\acctonos \texteta }}\IeC {\textkappa }\IeC {\textomicron }\IeC {\textvarsigma } \IeC {\textkappa }\IeC {\textalpha }\IeC {\textiota } \IeC {\textPi }\IeC {\textlambda }\IeC {\ensuregreek {\acctonos \textalpha }}\IeC {\texttau }\IeC {\textomicron }\IeC {\textvarsigma }}{61}}
\select@language{greek}
\@writefile{toc}{\select@language{greek}}
\@writefile{lof}{\select@language{greek}}
\@writefile{lot}{\select@language{greek}}
\select@language{greek}
\@writefile{toc}{\select@language{greek}}
\@writefile{lof}{\select@language{greek}}
\@writefile{lot}{\select@language{greek}}
\@writefile{lof}{\contentsline {figure}{\numberline {6.5}{\ignorespaces \IeC {\textTau }\IeC {\textomicron } \IeC {\textpi }\IeC {\textepsilon }\IeC {\textrho }\IeC {\ensuregreek {\acctonos \textiota }}\IeC {\textgamma }\IeC {\textrho }\IeC {\textalpha }\IeC {\textmu }\IeC {\textmu }\IeC {\textalpha } \IeC {\texttau }\IeC {\textomicron }\IeC {\textupsilon } \IeC {\textalpha }\IeC {\textnu }\IeC {\texttau }\IeC {\textiota }\IeC {\textkappa }\IeC {\textepsilon }\IeC {\textiota }\IeC {\textmu }\IeC {\ensuregreek {\acctonos \textepsilon }}\IeC {\textnu }\IeC {\textomicron }\IeC {\textupsilon }.\relax }}{62}}
\newlabel{im:object_width}{{6.5}{62}}
\@writefile{toc}{\contentsline {subsubsection}{\IeC {\textPi }\IeC {\textrho }\IeC {\textomicron }\IeC {\textsigma }\IeC {\textalpha }\IeC {\textnu }\IeC {\textalpha }\IeC {\texttau }\IeC {\textomicron }\IeC {\textlambda }\IeC {\textiota }\IeC {\textsigma }\IeC {\textmu }\IeC {\ensuregreek {\acctonos \textomicron }}\IeC {\textvarsigma }}{62}}
\@writefile{toc}{\contentsline {subsubsection}{\IeC {\textDelta }\IeC {\textiota }\IeC {\ensuregreek {\acctonos \textalpha }}\IeC {\textnu }\IeC {\textupsilon }\IeC {\textsigma }\IeC {\textmu }\IeC {\textalpha } \IeC {\textchi }\IeC {\textalpha }\IeC {\textrho }\IeC {\textalpha }\IeC {\textkappa }\IeC {\texttau }\IeC {\texteta }\IeC {\textrho }\IeC {\textiota }\IeC {\textsigma }\IeC {\texttau }\IeC {\textiota }\IeC {\textkappa }\IeC {\ensuregreek {\acctonos \textomega }}\IeC {\textnu }}{62}}
\@writefile{lof}{\contentsline {figure}{\numberline {6.6}{\ignorespaces \IeC {\textTau }\IeC {\textomicron } \IeC {\textalpha }\IeC {\textnu }\IeC {\texttau }\IeC {\textiota }\IeC {\textkappa }\IeC {\textepsilon }\IeC {\ensuregreek {\acctonos \textiota }}\IeC {\textmu }\IeC {\textepsilon }\IeC {\textnu }\IeC {\textomicron } \IeC {\textsigma }\IeC {\textepsilon } \IeC {\textdelta }\IeC {\textiota }\IeC {\ensuregreek {\acctonos \textalpha }}\IeC {\textphi }\IeC {\textomicron }\IeC {\textrho }\IeC {\textomicron }\IeC {\textupsilon }\IeC {\textvarsigma } \IeC {\textpi }\IeC {\textrho }\IeC {\textomicron }\IeC {\textsigma }\IeC {\textalpha }\IeC {\textnu }\IeC {\textalpha }\IeC {\texttau }\IeC {\textomicron }\IeC {\textlambda }\IeC {\textiota }\IeC {\textsigma }\IeC {\textmu }\IeC {\textomicron }\IeC {\ensuregreek {\acctonos \textupsilon }}\IeC {\textvarsigma }.\relax }}{63}}
\newlabel{im:nao_orientation_grasping}{{6.6}{63}}
\@writefile{toc}{\contentsline {section}{\numberline {6.5}\IeC {\textEpsilon }\IeC {\textkappa }\IeC {\textpi }\IeC {\textalpha }\IeC {\ensuregreek {\acctonos \textiota }}\IeC {\textdelta }\IeC {\textepsilon }\IeC {\textupsilon }\IeC {\textsigma }\IeC {\texteta } \IeC {\textkappa }\IeC {\textalpha }\IeC {\textiota } \IeC {\textAlpha }\IeC {\textxi }\IeC {\textiota }\IeC {\textomicron }\IeC {\textlambda }\IeC {\ensuregreek {\acctonos \textomicron }}\IeC {\textgamma }\IeC {\texteta }\IeC {\textsigma }\IeC {\texteta } \IeC {\textTau }\IeC {\textalpha }\IeC {\textxi }\IeC {\textiota }\IeC {\textnu }\IeC {\textomicron }\IeC {\textmu }\IeC {\texteta }\IeC {\texttau }\IeC {\ensuregreek {\acctonos \texteta }}}{63}}
\@writefile{toc}{\contentsline {section}{\numberline {6.6}\IeC {\textKappa }\IeC {\textalpha }\IeC {\texttheta }\IeC {\textomicron }\IeC {\textdelta }\IeC {\ensuregreek {\acctonos \texteta }}\IeC {\textgamma }\IeC {\texteta }\IeC {\textsigma }\IeC {\texteta } \IeC {\textalpha }\IeC {\textnu }\IeC {\texttheta }\IeC {\textrho }\IeC {\ensuregreek {\acctonos \textomega }}\IeC {\textpi }\IeC {\textomicron }\IeC {\textupsilon } \IeC {\textalpha }\IeC {\textpi }\IeC {\ensuregreek {\acctonos \textomicron }} \IeC {\textrho }\IeC {\textomicron }\IeC {\textmu }\IeC {\textpi }\IeC {\ensuregreek {\acctonos \textomicron }}\IeC {\texttau }}{63}}
\select@language{greek}
\@writefile{toc}{\select@language{greek}}
\@writefile{lof}{\select@language{greek}}
\@writefile{lot}{\select@language{greek}}
\select@language{greek}
\@writefile{toc}{\select@language{greek}}
\@writefile{lof}{\select@language{greek}}
\@writefile{lot}{\select@language{greek}}
\@writefile{lof}{\contentsline {figure}{\numberline {6.7}{\ignorespaces \IeC {\textEpsilon }\IeC {\textpi }\IeC {\ensuregreek {\acctonos \textiota }}\IeC {\textdelta }\IeC {\textomicron }\IeC {\textsigma }\IeC {\texteta } \IeC {\texttau }\IeC {\textalpha }\IeC {\textxi }\IeC {\textiota }\IeC {\textnu }\IeC {\ensuregreek {\acctonos \textomicron }}\IeC {\textmu }\IeC {\texteta }\IeC {\textsigma }\IeC {\texteta }\IeC {\textvarsigma } \IeC {\textgamma }\IeC {\textiota }\IeC {\textalpha } \IeC {\textdelta }\IeC {\textiota }\IeC {\textalpha }\IeC {\textphi }\IeC {\textomicron }\IeC {\textrho }\IeC {\textepsilon }\IeC {\texttau }\IeC {\textiota }\IeC {\textkappa }\IeC {\ensuregreek {\acctonos \textepsilon }}\IeC {\textvarsigma } \IeC {\texttau }\IeC {\textiota }\IeC {\textmu }\IeC {\ensuregreek {\acctonos \textepsilon }}\IeC {\textvarsigma } \IeC {\texttau }\IeC {\textomega }\IeC {\textnu } \IeC {\textpi }\IeC {\textalpha }\IeC {\textrho }\IeC {\textalpha }\IeC {\textmu }\IeC {\ensuregreek {\acctonos \textepsilon }}\IeC {\texttau }\IeC {\textrho }\IeC {\textomega }\IeC {\textnu } $C$ \IeC {\textkappa }\IeC {\textalpha }\IeC {\textiota } $\gamma $.\relax }}{64}}
\newlabel{im:svm_heatmap}{{6.7}{64}}
\@setckpt{chapter_handover_experiment}{
\setcounter{page}{65}
\setcounter{equation}{5}
\setcounter{enumi}{5}
\setcounter{enumii}{0}
\setcounter{enumiii}{0}
\setcounter{enumiv}{0}
\setcounter{footnote}{0}
\setcounter{mpfootnote}{0}
\setcounter{parentequation}{0}
\setcounter{part}{0}
\setcounter{chapter}{6}
\setcounter{section}{6}
\setcounter{subsection}{0}
\setcounter{subsubsection}{0}
\setcounter{paragraph}{0}
\setcounter{subparagraph}{0}
\setcounter{figure}{7}
\setcounter{table}{0}
\setcounter{ContinuedFloat}{0}
\setcounter{subfigure}{0}
\setcounter{subtable}{0}
\setcounter{float@type}{8}
\setcounter{algorithm}{1}
\setcounter{ALC@unique}{8}
\setcounter{ALC@line}{8}
\setcounter{ALC@rem}{0}
\setcounter{ALC@depth}{0}
\setcounter{definition}{0}
\setcounter{proposition}{0}
\setcounter{theorem}{0}
\setcounter{corollary}{0}
\setcounter{lemma}{0}
\setcounter{example}{0}
\setcounter{remark}{0}
\setcounter{notation}{0}
\setcounter{law}{0}
}
