\relax 
\newlabel{glossary}{{8.2}{47}}
\@writefile{toc}{\contentsline {chapter}{\IeC {\textGamma }\IeC {\textlambda }\IeC {\textomega }\IeC {\textsigma }\IeC {\textsigma }\IeC {\ensuregreek {\acctonos \textalpha }}\IeC {\textrho }\IeC {\textiota }\IeC {\textomicron }}{47}}
\@setckpt{glossary}{
\setcounter{page}{48}
\setcounter{equation}{0}
\setcounter{enumi}{4}
\setcounter{enumii}{0}
\setcounter{enumiii}{0}
\setcounter{enumiv}{9}
\setcounter{footnote}{0}
\setcounter{mpfootnote}{0}
\setcounter{parentequation}{0}
\setcounter{part}{0}
\setcounter{chapter}{8}
\setcounter{section}{2}
\setcounter{subsection}{0}
\setcounter{subsubsection}{0}
\setcounter{paragraph}{0}
\setcounter{subparagraph}{0}
\setcounter{figure}{0}
\setcounter{table}{0}
\setcounter{ContinuedFloat}{0}
\setcounter{subfigure}{0}
\setcounter{subtable}{0}
\setcounter{float@type}{8}
\setcounter{algorithm}{0}
\setcounter{ALC@unique}{0}
\setcounter{ALC@line}{0}
\setcounter{ALC@rem}{0}
\setcounter{ALC@depth}{0}
\setcounter{definition}{0}
\setcounter{proposition}{0}
\setcounter{theorem}{0}
\setcounter{corollary}{0}
\setcounter{lemma}{0}
\setcounter{example}{0}
\setcounter{remark}{0}
\setcounter{notation}{0}
\setcounter{law}{0}
}
