%!PS-Adobe-3.0 EPSF-3.0
%%Creator: (MATLAB, The Mathworks, Inc. Version 8.5.0.197613 \(R2015a\). Operating System: Linux)
%%Title: /home/theodore/Documents/ECE/diplomatiki/Engagement_Estimation/2paramStep/results/engagement_step_change.eps
%%CreationDate: 2017-05-13T14:42:17
%%Pages: (atend)
%%BoundingBox: 0 0 518 319
%%LanguageLevel: 2
%%EndComments
%%BeginProlog
%%BeginResource: procset (Apache XML Graphics Std ProcSet) 1.2 0
%%Version: 1.2 0
%%Copyright: (Copyright 2001-2003,2010 The Apache Software Foundation. License terms: http://www.apache.org/licenses/LICENSE-2.0)
/bd{bind def}bind def
/ld{load def}bd
/GR/grestore ld
/M/moveto ld
/LJ/setlinejoin ld
/C/curveto ld
/f/fill ld
/LW/setlinewidth ld
/GC/setgray ld
/t/show ld
/N/newpath ld
/CT/concat ld
/cp/closepath ld
/S/stroke ld
/L/lineto ld
/CC/setcmykcolor ld
/A/ashow ld
/GS/gsave ld
/RC/setrgbcolor ld
/RM/rmoveto ld
/ML/setmiterlimit ld
/re {4 2 roll M
1 index 0 rlineto
0 exch rlineto
neg 0 rlineto
cp } bd
/_ctm matrix def
/_tm matrix def
/BT { _ctm currentmatrix pop matrix _tm copy pop 0 0 moveto } bd
/ET { _ctm setmatrix } bd
/iTm { _ctm setmatrix _tm concat } bd
/Tm { _tm astore pop iTm 0 0 moveto } bd
/ux 0.0 def
/uy 0.0 def
/F {
  /Tp exch def
  /Tf exch def
  Tf findfont Tp scalefont setfont
  /cf Tf def  /cs Tp def
} bd
/ULS {currentpoint /uy exch def /ux exch def} bd
/ULE {
  /Tcx currentpoint pop def
  gsave
  newpath
  cf findfont cs scalefont dup
  /FontMatrix get 0 get /Ts exch def /FontInfo get dup
  /UnderlinePosition get Ts mul /To exch def
  /UnderlineThickness get Ts mul /Tt exch def
  ux uy To add moveto  Tcx uy To add lineto
  Tt setlinewidth stroke
  grestore
} bd
/OLE {
  /Tcx currentpoint pop def
  gsave
  newpath
  cf findfont cs scalefont dup
  /FontMatrix get 0 get /Ts exch def /FontInfo get dup
  /UnderlinePosition get Ts mul /To exch def
  /UnderlineThickness get Ts mul /Tt exch def
  ux uy To add cs add moveto Tcx uy To add cs add lineto
  Tt setlinewidth stroke
  grestore
} bd
/SOE {
  /Tcx currentpoint pop def
  gsave
  newpath
  cf findfont cs scalefont dup
  /FontMatrix get 0 get /Ts exch def /FontInfo get dup
  /UnderlinePosition get Ts mul /To exch def
  /UnderlineThickness get Ts mul /Tt exch def
  ux uy To add cs 10 mul 26 idiv add moveto Tcx uy To add cs 10 mul 26 idiv add lineto
  Tt setlinewidth stroke
  grestore
} bd
/QT {
/Y22 exch store
/X22 exch store
/Y21 exch store
/X21 exch store
currentpoint
/Y21 load 2 mul add 3 div exch
/X21 load 2 mul add 3 div exch
/X21 load 2 mul /X22 load add 3 div
/Y21 load 2 mul /Y22 load add 3 div
/X22 load /Y22 load curveto
} bd
/SSPD {
dup length /d exch dict def
{
/v exch def
/k exch def
currentpagedevice k known {
/cpdv currentpagedevice k get def
v cpdv ne {
/upd false def
/nullv v type /nulltype eq def
/nullcpdv cpdv type /nulltype eq def
nullv nullcpdv or
{
/upd true def
} {
/sametype v type cpdv type eq def
sametype {
v type /arraytype eq {
/vlen v length def
/cpdvlen cpdv length def
vlen cpdvlen eq {
0 1 vlen 1 sub {
/i exch def
/obj v i get def
/cpdobj cpdv i get def
obj cpdobj ne {
/upd true def
exit
} if
} for
} {
/upd true def
} ifelse
} {
v type /dicttype eq {
v {
/dv exch def
/dk exch def
/cpddv cpdv dk get def
dv cpddv ne {
/upd true def
exit
} if
} forall
} {
/upd true def
} ifelse
} ifelse
} if
} ifelse
upd true eq {
d k v put
} if
} if
} if
} forall
d length 0 gt {
d setpagedevice
} if
} bd
%%EndResource
%%BeginResource: procset (Apache XML Graphics EPS ProcSet) 1.0 0
%%Version: 1.0 0
%%Copyright: (Copyright 2002-2003 The Apache Software Foundation. License terms: http://www.apache.org/licenses/LICENSE-2.0)
/BeginEPSF { %def
/b4_Inc_state save def         % Save state for cleanup
/dict_count countdictstack def % Count objects on dict stack
/op_count count 1 sub def      % Count objects on operand stack
userdict begin                 % Push userdict on dict stack
/showpage { } def              % Redefine showpage, { } = null proc
0 setgray 0 setlinecap         % Prepare graphics state
1 setlinewidth 0 setlinejoin
10 setmiterlimit [ ] 0 setdash newpath
/languagelevel where           % If level not equal to 1 then
{pop languagelevel             % set strokeadjust and
1 ne                           % overprint to their defaults.
{false setstrokeadjust false setoverprint
} if
} if
} bd
/EndEPSF { %def
count op_count sub {pop} repeat            % Clean up stacks
countdictstack dict_count sub {end} repeat
b4_Inc_state restore
} bd
%%EndResource
%FOPBeginFontDict
%%IncludeResource: font Courier-Bold
%%IncludeResource: font Helvetica
%%IncludeResource: font Courier-BoldOblique
%%IncludeResource: font Courier-Oblique
%%IncludeResource: font Times-Roman
%%IncludeResource: font Helvetica-BoldOblique
%%IncludeResource: font Helvetica-Bold
%%IncludeResource: font Helvetica-Oblique
%%IncludeResource: font Times-BoldItalic
%%IncludeResource: font Courier
%%IncludeResource: font Times-Italic
%%IncludeResource: font Times-Bold
%%IncludeResource: font Symbol
%%IncludeResource: font ZapfDingbats
%FOPEndFontDict
%%BeginResource: encoding WinAnsiEncoding
/WinAnsiEncoding [
/.notdef /.notdef /.notdef /.notdef /.notdef
/.notdef /.notdef /.notdef /.notdef /.notdef
/.notdef /.notdef /.notdef /.notdef /.notdef
/.notdef /.notdef /.notdef /.notdef /.notdef
/.notdef /.notdef /.notdef /.notdef /.notdef
/.notdef /.notdef /.notdef /.notdef /.notdef
/.notdef /.notdef /space /exclam /quotedbl
/numbersign /dollar /percent /ampersand /quotesingle
/parenleft /parenright /asterisk /plus /comma
/hyphen /period /slash /zero /one
/two /three /four /five /six
/seven /eight /nine /colon /semicolon
/less /equal /greater /question /at
/A /B /C /D /E
/F /G /H /I /J
/K /L /M /N /O
/P /Q /R /S /T
/U /V /W /X /Y
/Z /bracketleft /backslash /bracketright /asciicircum
/underscore /quoteleft /a /b /c
/d /e /f /g /h
/i /j /k /l /m
/n /o /p /q /r
/s /t /u /v /w
/x /y /z /braceleft /bar
/braceright /asciitilde /bullet /Euro /bullet
/quotesinglbase /florin /quotedblbase /ellipsis /dagger
/daggerdbl /circumflex /perthousand /Scaron /guilsinglleft
/OE /bullet /Zcaron /bullet /bullet
/quoteleft /quoteright /quotedblleft /quotedblright /bullet
/endash /emdash /asciitilde /trademark /scaron
/guilsinglright /oe /bullet /zcaron /Ydieresis
/space /exclamdown /cent /sterling /currency
/yen /brokenbar /section /dieresis /copyright
/ordfeminine /guillemotleft /logicalnot /sfthyphen /registered
/macron /degree /plusminus /twosuperior /threesuperior
/acute /mu /paragraph /middot /cedilla
/onesuperior /ordmasculine /guillemotright /onequarter /onehalf
/threequarters /questiondown /Agrave /Aacute /Acircumflex
/Atilde /Adieresis /Aring /AE /Ccedilla
/Egrave /Eacute /Ecircumflex /Edieresis /Igrave
/Iacute /Icircumflex /Idieresis /Eth /Ntilde
/Ograve /Oacute /Ocircumflex /Otilde /Odieresis
/multiply /Oslash /Ugrave /Uacute /Ucircumflex
/Udieresis /Yacute /Thorn /germandbls /agrave
/aacute /acircumflex /atilde /adieresis /aring
/ae /ccedilla /egrave /eacute /ecircumflex
/edieresis /igrave /iacute /icircumflex /idieresis
/eth /ntilde /ograve /oacute /ocircumflex
/otilde /odieresis /divide /oslash /ugrave
/uacute /ucircumflex /udieresis /yacute /thorn
/ydieresis
] def
%%EndResource
%FOPBeginFontReencode
/Courier-Bold findfont
dup length dict begin
  {1 index /FID ne {def} {pop pop} ifelse} forall
  /Encoding WinAnsiEncoding def
  currentdict
end
/Courier-Bold exch definefont pop
/Helvetica findfont
dup length dict begin
  {1 index /FID ne {def} {pop pop} ifelse} forall
  /Encoding WinAnsiEncoding def
  currentdict
end
/Helvetica exch definefont pop
/Courier-BoldOblique findfont
dup length dict begin
  {1 index /FID ne {def} {pop pop} ifelse} forall
  /Encoding WinAnsiEncoding def
  currentdict
end
/Courier-BoldOblique exch definefont pop
/Courier-Oblique findfont
dup length dict begin
  {1 index /FID ne {def} {pop pop} ifelse} forall
  /Encoding WinAnsiEncoding def
  currentdict
end
/Courier-Oblique exch definefont pop
/Times-Roman findfont
dup length dict begin
  {1 index /FID ne {def} {pop pop} ifelse} forall
  /Encoding WinAnsiEncoding def
  currentdict
end
/Times-Roman exch definefont pop
/Helvetica-BoldOblique findfont
dup length dict begin
  {1 index /FID ne {def} {pop pop} ifelse} forall
  /Encoding WinAnsiEncoding def
  currentdict
end
/Helvetica-BoldOblique exch definefont pop
/Helvetica-Bold findfont
dup length dict begin
  {1 index /FID ne {def} {pop pop} ifelse} forall
  /Encoding WinAnsiEncoding def
  currentdict
end
/Helvetica-Bold exch definefont pop
/Helvetica-Oblique findfont
dup length dict begin
  {1 index /FID ne {def} {pop pop} ifelse} forall
  /Encoding WinAnsiEncoding def
  currentdict
end
/Helvetica-Oblique exch definefont pop
/Times-BoldItalic findfont
dup length dict begin
  {1 index /FID ne {def} {pop pop} ifelse} forall
  /Encoding WinAnsiEncoding def
  currentdict
end
/Times-BoldItalic exch definefont pop
/Courier findfont
dup length dict begin
  {1 index /FID ne {def} {pop pop} ifelse} forall
  /Encoding WinAnsiEncoding def
  currentdict
end
/Courier exch definefont pop
/Times-Italic findfont
dup length dict begin
  {1 index /FID ne {def} {pop pop} ifelse} forall
  /Encoding WinAnsiEncoding def
  currentdict
end
/Times-Italic exch definefont pop
/Times-Bold findfont
dup length dict begin
  {1 index /FID ne {def} {pop pop} ifelse} forall
  /Encoding WinAnsiEncoding def
  currentdict
end
/Times-Bold exch definefont pop
%FOPEndFontReencode
%%EndProlog
%%Page: 1 1
%%PageBoundingBox: 0 0 518 319
%%BeginPageSetup
[1 0 0 -1 0 319] CT
%%EndPageSetup
GS
[0.75 0 0 0.75 0 0.25] CT
1 GC
N
0 0 691 425 re
f
GR
GS
[0.75 0 0 0.75 0 0.25] CT
1 GC
N
0 0 691 425 re
f
GR
GS
[0.75 0 0 0.75 0 0.25] CT
1 GC
N
90 378 M
625 378 L
625 32 L
90 32 L
cp
f
GR
GS
[0.75 0 0 0.75 268.12518 301.49999] CT
0.149 GC
/Helvetica 15 F
GS
[1 0 0 1 0 0] CT
-19 14 moveto 
1 -1 scale
(trials) t 
GR
GR
GS
[0.75 0 0 0.75 0 0.25] CT
0.149 GC
2 setlinecap
10.0 ML
N
90 378 M
625 378 L
S
GR
GS
[0.75 0 0 0.75 0 0.25] CT
0.149 GC
2 setlinecap
10.0 ML
N
90 32 M
625 32 L
S
GR
GS
[0.75 0 0 0.75 0 0.25] CT
0.149 GC
2 setlinecap
10.0 ML
N
90 378 M
90 372.65 L
S
GR
GS
[0.75 0 0 0.75 0 0.25] CT
0.149 GC
2 setlinecap
10.0 ML
N
179.167 378 M
179.167 372.65 L
S
GR
GS
[0.75 0 0 0.75 0 0.25] CT
0.149 GC
2 setlinecap
10.0 ML
N
268.333 378 M
268.333 372.65 L
S
GR
GS
[0.75 0 0 0.75 0 0.25] CT
0.149 GC
2 setlinecap
10.0 ML
N
357.5 378 M
357.5 372.65 L
S
GR
GS
[0.75 0 0 0.75 0 0.25] CT
0.149 GC
2 setlinecap
10.0 ML
N
446.667 378 M
446.667 372.65 L
S
GR
GS
[0.75 0 0 0.75 0 0.25] CT
0.149 GC
2 setlinecap
10.0 ML
N
535.833 378 M
535.833 372.65 L
S
GR
GS
[0.75 0 0 0.75 0 0.25] CT
0.149 GC
2 setlinecap
10.0 ML
N
625 378 M
625 372.65 L
S
GR
GS
[0.75 0 0 0.75 0 0.25] CT
0.149 GC
2 setlinecap
10.0 ML
N
90 32 M
90 37.35 L
S
GR
GS
[0.75 0 0 0.75 0 0.25] CT
0.149 GC
2 setlinecap
10.0 ML
N
179.167 32 M
179.167 37.35 L
S
GR
GS
[0.75 0 0 0.75 0 0.25] CT
0.149 GC
2 setlinecap
10.0 ML
N
268.333 32 M
268.333 37.35 L
S
GR
GS
[0.75 0 0 0.75 0 0.25] CT
0.149 GC
2 setlinecap
10.0 ML
N
357.5 32 M
357.5 37.35 L
S
GR
GS
[0.75 0 0 0.75 0 0.25] CT
0.149 GC
2 setlinecap
10.0 ML
N
446.667 32 M
446.667 37.35 L
S
GR
GS
[0.75 0 0 0.75 0 0.25] CT
0.149 GC
2 setlinecap
10.0 ML
N
535.833 32 M
535.833 37.35 L
S
GR
GS
[0.75 0 0 0.75 0 0.25] CT
0.149 GC
2 setlinecap
10.0 ML
N
625 32 M
625 37.35 L
S
GR
GS
[0.75 0 0 0.75 67.5 287.75001] CT
0.149 GC
/Helvetica 13 F
GS
[1 0 0 1 0 0] CT
-4.5 13 moveto 
1 -1 scale
(0) t 
GR
GR
GS
[0.75 0 0 0.75 134.375 287.75001] CT
0.149 GC
/Helvetica 13 F
GS
[1 0 0 1 0 0] CT
-8.5 13 moveto 
1 -1 scale
(50) t 
GR
GR
GS
[0.75 0 0 0.75 201.25001 287.75001] CT
0.149 GC
/Helvetica 13 F
GS
[1 0 0 1 0 0] CT
-12.5 13 moveto 
1 -1 scale
(100) t 
GR
GR
GS
[0.75 0 0 0.75 268.125 287.75001] CT
0.149 GC
/Helvetica 13 F
GS
[1 0 0 1 0 0] CT
-12.5 13 moveto 
1 -1 scale
(150) t 
GR
GR
GS
[0.75 0 0 0.75 334.99999 287.75001] CT
0.149 GC
/Helvetica 13 F
GS
[1 0 0 1 0 0] CT
-12.5 13 moveto 
1 -1 scale
(200) t 
GR
GR
GS
[0.75 0 0 0.75 401.87498 287.75001] CT
0.149 GC
/Helvetica 13 F
GS
[1 0 0 1 0 0] CT
-12.5 13 moveto 
1 -1 scale
(250) t 
GR
GR
GS
[0.75 0 0 0.75 468.75 287.75001] CT
0.149 GC
/Helvetica 13 F
GS
[1 0 0 1 0 0] CT
-12.5 13 moveto 
1 -1 scale
(300) t 
GR
GR
GS
[0 -0.75 0.75 0 47.75 153.99987] CT
0.149 GC
/Helvetica 15 F
GS
[1 0 0 1 0 0] CT
-48 -4 moveto 
1 -1 scale
(engagement) t 
GR
GR
GS
[0.75 0 0 0.75 0 0.25] CT
0.149 GC
2 setlinecap
10.0 ML
N
90 378 M
90 32 L
S
GR
GS
[0.75 0 0 0.75 0 0.25] CT
0.149 GC
2 setlinecap
10.0 ML
N
625 378 M
625 32 L
S
GR
GS
[0.75 0 0 0.75 0 0.25] CT
0.149 GC
2 setlinecap
10.0 ML
N
90 378 M
95.35 378 L
S
GR
GS
[0.75 0 0 0.75 0 0.25] CT
0.149 GC
2 setlinecap
10.0 ML
N
90 334.75 M
95.35 334.75 L
S
GR
GS
[0.75 0 0 0.75 0 0.25] CT
0.149 GC
2 setlinecap
10.0 ML
N
90 291.5 M
95.35 291.5 L
S
GR
GS
[0.75 0 0 0.75 0 0.25] CT
0.149 GC
2 setlinecap
10.0 ML
N
90 248.25 M
95.35 248.25 L
S
GR
GS
[0.75 0 0 0.75 0 0.25] CT
0.149 GC
2 setlinecap
10.0 ML
N
90 205 M
95.35 205 L
S
GR
GS
[0.75 0 0 0.75 0 0.25] CT
0.149 GC
2 setlinecap
10.0 ML
N
90 161.75 M
95.35 161.75 L
S
GR
GS
[0.75 0 0 0.75 0 0.25] CT
0.149 GC
2 setlinecap
10.0 ML
N
90 118.5 M
95.35 118.5 L
S
GR
GS
[0.75 0 0 0.75 0 0.25] CT
0.149 GC
2 setlinecap
10.0 ML
N
90 75.25 M
95.35 75.25 L
S
GR
GS
[0.75 0 0 0.75 0 0.25] CT
0.149 GC
2 setlinecap
10.0 ML
N
90 32 M
95.35 32 L
S
GR
GS
[0.75 0 0 0.75 0 0.25] CT
0.149 GC
2 setlinecap
10.0 ML
N
625 378 M
619.65 378 L
S
GR
GS
[0.75 0 0 0.75 0 0.25] CT
0.149 GC
2 setlinecap
10.0 ML
N
625 334.75 M
619.65 334.75 L
S
GR
GS
[0.75 0 0 0.75 0 0.25] CT
0.149 GC
2 setlinecap
10.0 ML
N
625 291.5 M
619.65 291.5 L
S
GR
GS
[0.75 0 0 0.75 0 0.25] CT
0.149 GC
2 setlinecap
10.0 ML
N
625 248.25 M
619.65 248.25 L
S
GR
GS
[0.75 0 0 0.75 0 0.25] CT
0.149 GC
2 setlinecap
10.0 ML
N
625 205 M
619.65 205 L
S
GR
GS
[0.75 0 0 0.75 0 0.25] CT
0.149 GC
2 setlinecap
10.0 ML
N
625 161.75 M
619.65 161.75 L
S
GR
GS
[0.75 0 0 0.75 0 0.25] CT
0.149 GC
2 setlinecap
10.0 ML
N
625 118.5 M
619.65 118.5 L
S
GR
GS
[0.75 0 0 0.75 0 0.25] CT
0.149 GC
2 setlinecap
10.0 ML
N
625 75.25 M
619.65 75.25 L
S
GR
GS
[0.75 0 0 0.75 0 0.25] CT
0.149 GC
2 setlinecap
10.0 ML
N
625 32 M
619.65 32 L
S
GR
GS
[0.75 0 0 0.75 63.5 283.75] CT
0.149 GC
/Helvetica 13 F
GS
[1 0 0 1 0 0] CT
-9 4.5 moveto 
1 -1 scale
(2) t 
GR
GR
GS
[0.75 0 0 0.75 63.5 251.3125] CT
0.149 GC
/Helvetica 13 F
GS
[1 0 0 1 0 0] CT
-9 4.5 moveto 
1 -1 scale
(3) t 
GR
GR
GS
[0.75 0 0 0.75 63.5 218.875] CT
0.149 GC
/Helvetica 13 F
GS
[1 0 0 1 0 0] CT
-9 4.5 moveto 
1 -1 scale
(4) t 
GR
GR
GS
[0.75 0 0 0.75 63.5 186.4375] CT
0.149 GC
/Helvetica 13 F
GS
[1 0 0 1 0 0] CT
-9 4.5 moveto 
1 -1 scale
(5) t 
GR
GR
GS
[0.75 0 0 0.75 63.5 154] CT
0.149 GC
/Helvetica 13 F
GS
[1 0 0 1 0 0] CT
-9 4.5 moveto 
1 -1 scale
(6) t 
GR
GR
GS
[0.75 0 0 0.75 63.5 121.5625] CT
0.149 GC
/Helvetica 13 F
GS
[1 0 0 1 0 0] CT
-9 4.5 moveto 
1 -1 scale
(7) t 
GR
GR
GS
[0.75 0 0 0.75 63.5 89.125] CT
0.149 GC
/Helvetica 13 F
GS
[1 0 0 1 0 0] CT
-9 4.5 moveto 
1 -1 scale
(8) t 
GR
GR
GS
[0.75 0 0 0.75 63.5 56.6875] CT
0.149 GC
/Helvetica 13 F
GS
[1 0 0 1 0 0] CT
-9 4.5 moveto 
1 -1 scale
(9) t 
GR
GR
GS
[0.75 0 0 0.75 63.5 24.25] CT
0.149 GC
/Helvetica 13 F
GS
[1 0 0 1 0 0] CT
-17 4.5 moveto 
1 -1 scale
(10) t 
GR
GR
GS
[0.75 0 0 0.75 0 0.25] CT
0.678 0.686 0.698 RC
N
111.4 123.576 M
111.4 169.223 L
113.183 151.91 L
cp
f
GR
GS
[0.75 0 0 0.75 0 0.25] CT
0.678 0.686 0.698 RC
N
139.933 44.838 M
138.15 50.337 L
139.933 61.025 L
cp
f
GR
GS
[0.75 0 0 0.75 0 0.25] CT
0.678 0.686 0.698 RC
N
498.383 34.446 M
500.167 33.831 L
498.383 33.062 L
cp
f
GR
GS
[0.75 0 0 0.75 0 0.25] CT
0.678 0.686 0.698 RC
N
330.75 32.281 M
332.533 32.542 L
332.533 32.213 L
cp
f
GR
GS
[0.75 0 0 0.75 0 0.25] CT
0.678 0.686 0.698 RC
N
168.467 32.122 M
170.25 32.039 L
168.467 32.033 L
cp
f
GR
GS
[0.75 0 0 0.75 0 0.25] CT
0.678 0.686 0.698 RC
N
296.867 136.969 M
298.65 126.473 L
296.867 97.915 L
cp
f
GR
GS
[0.75 0 0 0.75 0 0.25] CT
0.678 0.686 0.698 RC
N
118.533 117.95 M
120.317 109.414 L
118.533 80.219 L
cp
f
GR
GS
[0.75 0 0 0.75 0 0.25] CT
0.678 0.686 0.698 RC
N
113.183 151.91 M
113.183 108.283 L
111.4 123.576 L
cp
f
GR
GS
[0.75 0 0 0.75 0 0.25] CT
0.678 0.686 0.698 RC
N
114.967 98.367 M
114.967 140.284 L
116.75 127.104 L
cp
f
GR
GS
[0.75 0 0 0.75 0 0.25] CT
0.678 0.686 0.698 RC
N
109.617 141.473 M
111.4 169.223 L
111.4 123.576 L
cp
f
GR
GS
[0.75 0 0 0.75 0 0.25] CT
0.678 0.686 0.698 RC
N
134.583 78.794 M
136.367 76.041 L
134.583 53.316 L
cp
f
GR
GS
[0.75 0 0 0.75 0 0.25] CT
0.678 0.686 0.698 RC
N
141.717 45.863 M
141.717 38.581 L
139.933 44.838 L
cp
f
GR
GS
[0.75 0 0 0.75 0 0.25] CT
0.678 0.686 0.698 RC
N
145.283 35.663 M
147.067 38.929 L
147.067 35.267 L
cp
f
GR
GS
[0.75 0 0 0.75 0 0.25] CT
0.678 0.686 0.698 RC
N
98.917 193.778 M
100.7 230.208 L
100.7 190.393 L
cp
f
GR
GS
[0.75 0 0 0.75 0 0.25] CT
0.678 0.686 0.698 RC
N
143.5 40.695 M
145.283 39.47 L
143.5 35.926 L
cp
f
GR
GS
[0.75 0 0 0.75 0 0.25] CT
0.678 0.686 0.698 RC
N
298.65 126.473 M
300.433 116.866 L
298.65 88.446 L
cp
f
GR
GS
[0.75 0 0 0.75 0 0.25] CT
0.678 0.686 0.698 RC
N
293.3 144.26 M
295.083 142.823 L
293.3 105.341 L
cp
f
GR
GS
[0.75 0 0 0.75 0 0.25] CT
0.678 0.686 0.698 RC
N
494.817 36.92 M
493.033 35.327 L
493.033 39.106 L
cp
f
GR
GS
[0.75 0 0 0.75 0 0.25] CT
0.678 0.686 0.698 RC
N
289.733 113.495 M
289.733 150.331 L
291.517 145.353 L
cp
f
GR
GS
[0.75 0 0 0.75 0 0.25] CT
0.678 0.686 0.698 RC
N
100.7 190.393 M
102.483 227.14 L
102.483 185.633 L
cp
f
GR
GS
[0.75 0 0 0.75 0 0.25] CT
0.678 0.686 0.698 RC
N
104.267 176.334 M
104.267 219.649 L
106.05 204.806 L
cp
f
GR
GS
[0.75 0 0 0.75 0 0.25] CT
0.678 0.686 0.698 RC
N
107.833 148.744 M
109.617 188.298 L
109.617 141.473 L
cp
f
GR
GS
[0.75 0 0 0.75 0 0.25] CT
0.678 0.686 0.698 RC
N
114.967 140.284 M
114.967 98.367 L
113.183 108.283 L
cp
f
GR
GS
[0.75 0 0 0.75 0 0.25] CT
0.678 0.686 0.698 RC
N
286.167 167.59 M
287.95 161.862 L
286.167 134.158 L
cp
f
GR
GS
[0.75 0 0 0.75 0 0.25] CT
0.678 0.686 0.698 RC
N
302.217 111.24 M
300.433 80.288 L
300.433 116.866 L
cp
f
GR
GS
[0.75 0 0 0.75 0 0.25] CT
0.678 0.686 0.698 RC
N
116.75 127.104 M
116.75 87.013 L
114.967 98.367 L
cp
f
GR
GS
[0.75 0 0 0.75 0 0.25] CT
0.678 0.686 0.698 RC
N
287.95 126.69 M
287.95 161.862 L
289.733 150.331 L
cp
f
GR
GS
[0.75 0 0 0.75 0 0.25] CT
0.678 0.686 0.698 RC
N
291.517 145.353 M
291.517 107.39 L
289.733 113.495 L
cp
f
GR
GS
[0.75 0 0 0.75 0 0.25] CT
0.678 0.686 0.698 RC
N
271.9 88.06 M
273.683 115.981 L
273.683 109.222 L
cp
f
GR
GS
[0.75 0 0 0.75 0 0.25] CT
0.678 0.686 0.698 RC
N
275.467 140.58 M
277.25 153.809 L
277.25 140.265 L
cp
f
GR
GS
[0.75 0 0 0.75 0 0.25] CT
0.678 0.686 0.698 RC
N
293.3 105.341 M
291.517 107.39 L
293.3 144.26 L
cp
f
GR
GS
[0.75 0 0 0.75 0 0.25] CT
0.678 0.686 0.698 RC
N
312.917 37.64 M
314.7 38.698 L
314.7 35.297 L
cp
f
GR
GS
[0.75 0 0 0.75 0 0.25] CT
0.678 0.686 0.698 RC
N
305.783 95.219 M
304 74.065 L
304 106.975 L
cp
f
GR
GS
[0.75 0 0 0.75 0 0.25] CT
0.678 0.686 0.698 RC
N
148.85 34.795 M
150.633 38.076 L
150.633 34.748 L
cp
f
GR
GS
[0.75 0 0 0.75 0 0.25] CT
0.678 0.686 0.698 RC
N
147.067 35.267 M
148.85 38.324 L
148.85 34.795 L
cp
f
GR
GS
[0.75 0 0 0.75 0 0.25] CT
0.678 0.686 0.698 RC
N
141.717 45.863 M
143.5 40.695 L
141.717 38.581 L
cp
f
GR
GS
[0.75 0 0 0.75 0 0.25] CT
0.678 0.686 0.698 RC
N
97.133 206.75 M
95.35 222.277 L
97.133 238.37 L
cp
f
GR
GS
[0.75 0 0 0.75 0 0.25] CT
0.678 0.686 0.698 RC
N
138.15 73.818 M
136.367 51.784 L
136.367 76.041 L
cp
f
GR
GS
[0.75 0 0 0.75 0 0.25] CT
0.678 0.686 0.698 RC
N
138.15 50.337 M
136.367 51.784 L
138.15 73.818 L
cp
f
GR
GS
[0.75 0 0 0.75 0 0.25] CT
0.678 0.686 0.698 RC
N
109.617 188.298 M
111.4 169.223 L
109.617 141.473 L
cp
f
GR
GS
[0.75 0 0 0.75 0 0.25] CT
0.678 0.686 0.698 RC
N
150.633 38.076 M
152.417 37.819 L
150.633 34.748 L
cp
f
GR
GS
[0.75 0 0 0.75 0 0.25] CT
0.678 0.686 0.698 RC
N
155.983 35.171 M
157.767 34.879 L
155.983 33.359 L
cp
f
GR
GS
[0.75 0 0 0.75 0 0.25] CT
0.678 0.686 0.698 RC
N
172.033 32.014 M
173.817 32.006 L
172.033 32.004 L
cp
f
GR
GS
[0.75 0 0 0.75 0 0.25] CT
0.678 0.686 0.698 RC
N
337.883 32.033 M
337.883 32.01 L
336.1 32.029 L
cp
f
GR
GS
[0.75 0 0 0.75 0 0.25] CT
0.678 0.686 0.698 RC
N
327.183 32.553 M
327.183 33.349 L
328.967 33.022 L
cp
f
GR
GS
[0.75 0 0 0.75 0 0.25] CT
0.678 0.686 0.698 RC
N
320.05 33.478 M
321.833 34.738 L
321.833 33.147 L
cp
f
GR
GS
[0.75 0 0 0.75 0 0.25] CT
0.678 0.686 0.698 RC
N
334.317 32.095 M
334.317 32.288 L
336.1 32.097 L
cp
f
GR
GS
[0.75 0 0 0.75 0 0.25] CT
0.678 0.686 0.698 RC
N
336.1 32.029 M
334.317 32.095 L
336.1 32.097 L
cp
f
GR
GS
[0.75 0 0 0.75 0 0.25] CT
0.678 0.686 0.698 RC
N
341.45 32.004 M
343.233 32.001 L
341.45 32.001 L
cp
f
GR
GS
[0.75 0 0 0.75 0 0.25] CT
0.678 0.686 0.698 RC
N
521.567 32 M
521.567 32 L
519.783 32 L
cp
f
GR
GS
[0.75 0 0 0.75 0 0.25] CT
0.678 0.686 0.698 RC
N
464.5 126.956 M
464.5 99.41 L
462.717 110.624 L
cp
f
GR
GS
[0.75 0 0 0.75 0 0.25] CT
0.678 0.686 0.698 RC
N
503.733 32.73 M
503.733 32.25 L
501.95 32.479 L
cp
f
GR
GS
[0.75 0 0 0.75 0 0.25] CT
0.678 0.686 0.698 RC
N
516.217 32.003 M
516.217 32.001 L
514.433 32.003 L
cp
f
GR
GS
[0.75 0 0 0.75 0 0.25] CT
0.678 0.686 0.698 RC
N
475.2 94.516 M
476.983 90.101 L
475.2 66.606 L
cp
f
GR
GS
[0.75 0 0 0.75 0 0.25] CT
0.678 0.686 0.698 RC
N
523.35 32 M
523.35 32 L
521.567 32 L
cp
f
GR
GS
[0.75 0 0 0.75 0 0.25] CT
0.678 0.686 0.698 RC
N
518 32.001 M
516.217 32.001 L
516.217 32.003 L
cp
f
GR
GS
[0.75 0 0 0.75 0 0.25] CT
0.678 0.686 0.698 RC
N
343.233 32 M
343.233 32.001 L
345.017 32 L
cp
f
GR
GS
[0.75 0 0 0.75 0 0.25] CT
0.678 0.686 0.698 RC
N
345.017 32 M
343.233 32 L
345.017 32 L
cp
f
GR
GS
[0.75 0 0 0.75 0 0.25] CT
0.678 0.686 0.698 RC
N
496.6 33.201 M
494.817 34.17 L
496.6 34.959 L
cp
f
GR
GS
[0.75 0 0 0.75 0 0.25] CT
0.678 0.686 0.698 RC
N
498.383 33.062 M
496.6 33.201 L
498.383 34.446 L
cp
f
GR
GS
[0.75 0 0 0.75 0 0.25] CT
0.678 0.686 0.698 RC
N
469.85 87.969 M
471.633 113.597 L
471.633 84.15 L
cp
f
GR
GS
[0.75 0 0 0.75 0 0.25] CT
0.678 0.686 0.698 RC
N
510.867 32.013 M
510.867 32.043 L
512.65 32.022 L
cp
f
GR
GS
[0.75 0 0 0.75 0 0.25] CT
0.678 0.686 0.698 RC
N
469.85 87.969 M
469.85 117.15 L
471.633 113.597 L
cp
f
GR
GS
[0.75 0 0 0.75 0 0.25] CT
0.678 0.686 0.698 RC
N
471.633 84.15 M
471.633 113.597 L
473.417 103.968 L
cp
f
GR
GS
[0.75 0 0 0.75 0 0.25] CT
0.678 0.686 0.698 RC
N
491.25 40.698 M
493.033 39.106 L
491.25 35.858 L
cp
f
GR
GS
[0.75 0 0 0.75 0 0.25] CT
0.678 0.686 0.698 RC
N
485.9 43.934 M
485.9 61.143 L
487.683 47.076 L
cp
f
GR
GS
[0.75 0 0 0.75 0 0.25] CT
0.678 0.686 0.698 RC
N
480.55 55.813 M
478.767 58.806 L
480.55 80.56 L
cp
f
GR
GS
[0.75 0 0 0.75 0 0.25] CT
0.678 0.686 0.698 RC
N
482.333 76.521 M
480.55 55.813 L
480.55 80.56 L
cp
f
GR
GS
[0.75 0 0 0.75 0 0.25] CT
0.678 0.686 0.698 RC
N
480.55 55.813 M
482.333 76.521 L
482.333 52.78 L
cp
f
GR
GS
[0.75 0 0 0.75 0 0.25] CT
0.678 0.686 0.698 RC
N
494.817 36.92 M
494.817 34.17 L
493.033 35.327 L
cp
f
GR
GS
[0.75 0 0 0.75 0 0.25] CT
0.678 0.686 0.698 RC
N
93.567 248.377 M
95.35 247.594 L
93.567 232.164 L
cp
f
GR
GS
[0.75 0 0 0.75 0 0.25] CT
0.678 0.686 0.698 RC
N
91.783 350.893 M
93.567 248.377 L
93.567 232.164 L
cp
f
GR
GS
[0.75 0 0 0.75 0 0.25] CT
0.678 0.686 0.698 RC
N
95.35 247.594 M
97.133 238.37 L
95.35 222.277 L
cp
f
GR
GS
[0.75 0 0 0.75 0 0.25] CT
0.678 0.686 0.698 RC
N
95.35 247.594 M
95.35 222.277 L
93.567 232.164 L
cp
f
GR
GS
[0.75 0 0 0.75 0 0.25] CT
0.678 0.686 0.698 RC
N
97.133 238.37 M
98.917 230.464 L
97.133 206.75 L
cp
f
GR
GS
[0.75 0 0 0.75 0 0.25] CT
0.678 0.686 0.698 RC
N
98.917 193.778 M
98.917 230.464 L
100.7 230.208 L
cp
f
GR
GS
[0.75 0 0 0.75 0 0.25] CT
0.678 0.686 0.698 RC
N
97.133 206.75 M
98.917 230.464 L
98.917 193.778 L
cp
f
GR
GS
[0.75 0 0 0.75 0 0.25] CT
0.678 0.686 0.698 RC
N
102.483 185.633 M
102.483 227.14 L
104.267 219.649 L
cp
f
GR
GS
[0.75 0 0 0.75 0 0.25] CT
0.678 0.686 0.698 RC
N
107.833 195.038 M
107.833 148.744 L
106.05 159.98 L
cp
f
GR
GS
[0.75 0 0 0.75 0 0.25] CT
0.678 0.686 0.698 RC
N
122.1 96.033 M
122.1 65.233 L
120.317 74.324 L
cp
f
GR
GS
[0.75 0 0 0.75 0 0.25] CT
0.678 0.686 0.698 RC
N
114.967 140.284 M
113.183 108.283 L
113.183 151.91 L
cp
f
GR
GS
[0.75 0 0 0.75 0 0.25] CT
0.678 0.686 0.698 RC
N
118.533 117.95 M
116.75 87.013 L
116.75 127.104 L
cp
f
GR
GS
[0.75 0 0 0.75 0 0.25] CT
0.678 0.686 0.698 RC
N
107.833 148.744 M
107.833 195.038 L
109.617 188.298 L
cp
f
GR
GS
[0.75 0 0 0.75 0 0.25] CT
0.678 0.686 0.698 RC
N
104.267 176.334 M
102.483 185.633 L
104.267 219.649 L
cp
f
GR
GS
[0.75 0 0 0.75 0 0.25] CT
0.678 0.686 0.698 RC
N
102.483 227.14 M
100.7 190.393 L
100.7 230.208 L
cp
f
GR
GS
[0.75 0 0 0.75 0 0.25] CT
0.678 0.686 0.698 RC
N
106.05 204.806 M
106.05 159.98 L
104.267 176.334 L
cp
f
GR
GS
[0.75 0 0 0.75 0 0.25] CT
0.678 0.686 0.698 RC
N
107.833 195.038 M
106.05 159.98 L
106.05 204.806 L
cp
f
GR
GS
[0.75 0 0 0.75 0 0.25] CT
0.678 0.686 0.698 RC
N
275.467 130.84 M
273.683 109.222 L
273.683 115.981 L
cp
f
GR
GS
[0.75 0 0 0.75 0 0.25] CT
0.678 0.686 0.698 RC
N
279.033 158.783 M
279.033 140.108 L
277.25 153.809 L
cp
f
GR
GS
[0.75 0 0 0.75 0 0.25] CT
0.678 0.686 0.698 RC
N
284.383 134.915 M
282.6 164.277 L
284.383 166.665 L
cp
f
GR
GS
[0.75 0 0 0.75 0 0.25] CT
0.678 0.686 0.698 RC
N
280.817 137.919 M
279.033 158.783 L
280.817 161.477 L
cp
f
GR
GS
[0.75 0 0 0.75 0 0.25] CT
0.678 0.686 0.698 RC
N
286.167 167.59 M
286.167 134.158 L
284.383 166.665 L
cp
f
GR
GS
[0.75 0 0 0.75 0 0.25] CT
0.678 0.686 0.698 RC
N
295.083 103.531 M
296.867 136.969 L
296.867 97.915 L
cp
f
GR
GS
[0.75 0 0 0.75 0 0.25] CT
0.678 0.686 0.698 RC
N
293.3 144.26 M
291.517 107.39 L
291.517 145.353 L
cp
f
GR
GS
[0.75 0 0 0.75 0 0.25] CT
0.678 0.686 0.698 RC
N
282.6 136.634 M
282.6 164.277 L
284.383 134.915 L
cp
f
GR
GS
[0.75 0 0 0.75 0 0.25] CT
0.678 0.686 0.698 RC
N
284.383 134.915 M
284.383 166.665 L
286.167 134.158 L
cp
f
GR
GS
[0.75 0 0 0.75 0 0.25] CT
0.678 0.686 0.698 RC
N
339.667 32.013 M
339.667 32.004 L
337.883 32.01 L
cp
f
GR
GS
[0.75 0 0 0.75 0 0.25] CT
0.678 0.686 0.698 RC
N
289.733 113.495 M
287.95 126.69 L
289.733 150.331 L
cp
f
GR
GS
[0.75 0 0 0.75 0 0.25] CT
0.678 0.686 0.698 RC
N
286.167 134.158 M
287.95 161.862 L
287.95 126.69 L
cp
f
GR
GS
[0.75 0 0 0.75 0 0.25] CT
0.678 0.686 0.698 RC
N
282.6 136.634 M
280.817 161.477 L
282.6 164.277 L
cp
f
GR
GS
[0.75 0 0 0.75 0 0.25] CT
0.678 0.686 0.698 RC
N
279.033 140.108 M
279.033 158.783 L
280.817 137.919 L
cp
f
GR
GS
[0.75 0 0 0.75 0 0.25] CT
0.678 0.686 0.698 RC
N
280.817 137.919 M
280.817 161.477 L
282.6 136.634 L
cp
f
GR
GS
[0.75 0 0 0.75 0 0.25] CT
0.678 0.686 0.698 RC
N
277.25 140.265 M
277.25 153.809 L
279.033 140.108 L
cp
f
GR
GS
[0.75 0 0 0.75 0 0.25] CT
0.678 0.686 0.698 RC
N
273.683 115.981 M
275.467 140.58 L
275.467 130.84 L
cp
f
GR
GS
[0.75 0 0 0.75 0 0.25] CT
0.678 0.686 0.698 RC
N
277.25 140.265 M
275.467 130.84 L
275.467 140.58 L
cp
f
GR
GS
[0.75 0 0 0.75 0 0.25] CT
0.678 0.686 0.698 RC
N
271.9 88.06 M
271.9 82.613 L
270.117 53.36 L
cp
f
GR
GS
[0.75 0 0 0.75 0 0.25] CT
0.678 0.686 0.698 RC
N
271.9 88.06 M
273.683 109.222 L
271.9 82.613 L
cp
f
GR
GS
[0.75 0 0 0.75 0 0.25] CT
0.678 0.686 0.698 RC
N
304 106.975 M
302.217 76.288 L
302.217 111.24 L
cp
f
GR
GS
[0.75 0 0 0.75 0 0.25] CT
0.678 0.686 0.698 RC
N
295.083 103.531 M
293.3 105.341 L
295.083 142.823 L
cp
f
GR
GS
[0.75 0 0 0.75 0 0.25] CT
0.678 0.686 0.698 RC
N
296.867 136.969 M
295.083 103.531 L
295.083 142.823 L
cp
f
GR
GS
[0.75 0 0 0.75 0 0.25] CT
0.678 0.686 0.698 RC
N
298.65 126.473 M
298.65 88.446 L
296.867 97.915 L
cp
f
GR
GS
[0.75 0 0 0.75 0 0.25] CT
0.678 0.686 0.698 RC
N
309.35 51.385 M
307.567 57.215 L
309.35 70.946 L
cp
f
GR
GS
[0.75 0 0 0.75 0 0.25] CT
0.678 0.686 0.698 RC
N
307.567 57.215 M
305.783 65.303 L
307.567 82.597 L
cp
f
GR
GS
[0.75 0 0 0.75 0 0.25] CT
0.678 0.686 0.698 RC
N
300.433 116.866 M
300.433 80.288 L
298.65 88.446 L
cp
f
GR
GS
[0.75 0 0 0.75 0 0.25] CT
0.678 0.686 0.698 RC
N
309.35 70.946 M
307.567 57.215 L
307.567 82.597 L
cp
f
GR
GS
[0.75 0 0 0.75 0 0.25] CT
0.678 0.686 0.698 RC
N
300.433 80.288 M
302.217 111.24 L
302.217 76.288 L
cp
f
GR
GS
[0.75 0 0 0.75 0 0.25] CT
0.678 0.686 0.698 RC
N
309.35 51.385 M
309.35 70.946 L
311.133 55.645 L
cp
f
GR
GS
[0.75 0 0 0.75 0 0.25] CT
0.678 0.686 0.698 RC
N
312.917 37.64 M
312.917 43.473 L
314.7 38.698 L
cp
f
GR
GS
[0.75 0 0 0.75 0 0.25] CT
0.678 0.686 0.698 RC
N
311.133 43.464 M
311.133 55.645 L
312.917 43.473 L
cp
f
GR
GS
[0.75 0 0 0.75 0 0.25] CT
0.678 0.686 0.698 RC
N
311.133 43.464 M
309.35 51.385 L
311.133 55.645 L
cp
f
GR
GS
[0.75 0 0 0.75 0 0.25] CT
0.678 0.686 0.698 RC
N
312.917 37.64 M
311.133 43.464 L
312.917 43.473 L
cp
f
GR
GS
[0.75 0 0 0.75 0 0.25] CT
0.678 0.686 0.698 RC
N
305.783 65.303 M
305.783 95.219 L
307.567 82.597 L
cp
f
GR
GS
[0.75 0 0 0.75 0 0.25] CT
0.678 0.686 0.698 RC
N
305.783 65.303 M
304 74.065 L
305.783 95.219 L
cp
f
GR
GS
[0.75 0 0 0.75 0 0.25] CT
0.678 0.686 0.698 RC
N
302.217 76.288 M
304 106.975 L
304 74.065 L
cp
f
GR
GS
[0.75 0 0 0.75 0 0.25] CT
0.678 0.686 0.698 RC
N
270.117 53.36 M
270.117 50.945 L
268.333 32 L
cp
f
GR
GS
[0.75 0 0 0.75 0 0.25] CT
0.678 0.686 0.698 RC
N
270.117 53.36 M
271.9 82.613 L
270.117 50.945 L
cp
f
GR
GS
[0.75 0 0 0.75 0 0.25] CT
0.678 0.686 0.698 RC
N
148.85 34.795 M
148.85 38.324 L
150.633 38.076 L
cp
f
GR
GS
[0.75 0 0 0.75 0 0.25] CT
0.678 0.686 0.698 RC
N
139.933 61.025 M
138.15 50.337 L
138.15 73.818 L
cp
f
GR
GS
[0.75 0 0 0.75 0 0.25] CT
0.678 0.686 0.698 RC
N
154.2 34.003 M
152.417 34.69 L
154.2 36.569 L
cp
f
GR
GS
[0.75 0 0 0.75 0 0.25] CT
0.678 0.686 0.698 RC
N
147.067 38.929 M
148.85 38.324 L
147.067 35.267 L
cp
f
GR
GS
[0.75 0 0 0.75 0 0.25] CT
0.678 0.686 0.698 RC
N
145.283 35.663 M
145.283 39.47 L
147.067 38.929 L
cp
f
GR
GS
[0.75 0 0 0.75 0 0.25] CT
0.678 0.686 0.698 RC
N
136.367 76.041 M
136.367 51.784 L
134.583 53.316 L
cp
f
GR
GS
[0.75 0 0 0.75 0 0.25] CT
0.678 0.686 0.698 RC
N
141.717 45.863 M
139.933 44.838 L
139.933 61.025 L
cp
f
GR
GS
[0.75 0 0 0.75 0 0.25] CT
0.678 0.686 0.698 RC
N
132.8 55.795 M
134.583 78.794 L
134.583 53.316 L
cp
f
GR
GS
[0.75 0 0 0.75 0 0.25] CT
0.678 0.686 0.698 RC
N
125.667 86.424 M
127.45 85.437 L
125.667 59.79 L
cp
f
GR
GS
[0.75 0 0 0.75 0 0.25] CT
0.678 0.686 0.698 RC
N
131.017 82.833 M
132.8 81.773 L
131.017 56.803 L
cp
f
GR
GS
[0.75 0 0 0.75 0 0.25] CT
0.678 0.686 0.698 RC
N
132.8 81.773 M
132.8 55.795 L
131.017 56.803 L
cp
f
GR
GS
[0.75 0 0 0.75 0 0.25] CT
0.678 0.686 0.698 RC
N
132.8 81.773 M
134.583 78.794 L
132.8 55.795 L
cp
f
GR
GS
[0.75 0 0 0.75 0 0.25] CT
0.678 0.686 0.698 RC
N
131.017 82.833 M
131.017 56.803 L
129.233 57.97 L
cp
f
GR
GS
[0.75 0 0 0.75 0 0.25] CT
0.678 0.686 0.698 RC
N
129.233 84.34 M
131.017 82.833 L
129.233 57.97 L
cp
f
GR
GS
[0.75 0 0 0.75 0 0.25] CT
0.678 0.686 0.698 RC
N
123.883 87.599 M
122.1 65.233 L
122.1 96.033 L
cp
f
GR
GS
[0.75 0 0 0.75 0 0.25] CT
0.678 0.686 0.698 RC
N
125.667 86.424 M
123.883 60.127 L
123.883 87.599 L
cp
f
GR
GS
[0.75 0 0 0.75 0 0.25] CT
0.678 0.686 0.698 RC
N
118.533 117.95 M
118.533 80.219 L
116.75 87.013 L
cp
f
GR
GS
[0.75 0 0 0.75 0 0.25] CT
0.678 0.686 0.698 RC
N
120.317 109.414 M
120.317 74.324 L
118.533 80.219 L
cp
f
GR
GS
[0.75 0 0 0.75 0 0.25] CT
0.678 0.686 0.698 RC
N
120.317 109.414 M
122.1 96.033 L
120.317 74.324 L
cp
f
GR
GS
[0.75 0 0 0.75 0 0.25] CT
0.678 0.686 0.698 RC
N
123.883 87.599 M
123.883 60.127 L
122.1 65.233 L
cp
f
GR
GS
[0.75 0 0 0.75 0 0.25] CT
0.678 0.686 0.698 RC
N
127.45 58.997 M
129.233 84.34 L
129.233 57.97 L
cp
f
GR
GS
[0.75 0 0 0.75 0 0.25] CT
0.678 0.686 0.698 RC
N
125.667 86.424 M
125.667 59.79 L
123.883 60.127 L
cp
f
GR
GS
[0.75 0 0 0.75 0 0.25] CT
0.678 0.686 0.698 RC
N
127.45 85.437 M
127.45 58.997 L
125.667 59.79 L
cp
f
GR
GS
[0.75 0 0 0.75 0 0.25] CT
0.678 0.686 0.698 RC
N
127.45 85.437 M
129.233 84.34 L
127.45 58.997 L
cp
f
GR
GS
[0.75 0 0 0.75 0 0.25] CT
0.678 0.686 0.698 RC
N
141.717 38.581 M
143.5 40.695 L
143.5 35.926 L
cp
f
GR
GS
[0.75 0 0 0.75 0 0.25] CT
0.678 0.686 0.698 RC
N
143.5 35.926 M
145.283 39.47 L
145.283 35.663 L
cp
f
GR
GS
[0.75 0 0 0.75 0 0.25] CT
0.678 0.686 0.698 RC
N
152.417 34.69 M
152.417 37.819 L
154.2 36.569 L
cp
f
GR
GS
[0.75 0 0 0.75 0 0.25] CT
0.678 0.686 0.698 RC
N
150.633 34.748 M
152.417 37.819 L
152.417 34.69 L
cp
f
GR
GS
[0.75 0 0 0.75 0 0.25] CT
0.678 0.686 0.698 RC
N
154.2 34.003 M
154.2 36.569 L
155.983 35.171 L
cp
f
GR
GS
[0.75 0 0 0.75 0 0.25] CT
0.678 0.686 0.698 RC
N
154.2 34.003 M
155.983 35.171 L
155.983 33.359 L
cp
f
GR
GS
[0.75 0 0 0.75 0 0.25] CT
0.678 0.686 0.698 RC
N
157.767 33.213 M
157.767 34.879 L
159.55 34.393 L
cp
f
GR
GS
[0.75 0 0 0.75 0 0.25] CT
0.678 0.686 0.698 RC
N
168.467 32.033 M
170.25 32.039 L
170.25 32.01 L
cp
f
GR
GS
[0.75 0 0 0.75 0 0.25] CT
0.678 0.686 0.698 RC
N
159.55 32.982 M
159.55 34.393 L
161.333 34.04 L
cp
f
GR
GS
[0.75 0 0 0.75 0 0.25] CT
0.678 0.686 0.698 RC
N
159.55 32.982 M
157.767 33.213 L
159.55 34.393 L
cp
f
GR
GS
[0.75 0 0 0.75 0 0.25] CT
0.678 0.686 0.698 RC
N
163.117 32.605 M
161.333 32.832 L
163.117 33.563 L
cp
f
GR
GS
[0.75 0 0 0.75 0 0.25] CT
0.678 0.686 0.698 RC
N
164.9 32.922 M
166.683 32.366 L
164.9 32.303 L
cp
f
GR
GS
[0.75 0 0 0.75 0 0.25] CT
0.678 0.686 0.698 RC
N
172.033 32.014 M
170.25 32.01 L
170.25 32.039 L
cp
f
GR
GS
[0.75 0 0 0.75 0 0.25] CT
0.678 0.686 0.698 RC
N
166.683 32.366 M
166.683 32.107 L
164.9 32.303 L
cp
f
GR
GS
[0.75 0 0 0.75 0 0.25] CT
0.678 0.686 0.698 RC
N
166.683 32.366 M
168.467 32.122 L
166.683 32.107 L
cp
f
GR
GS
[0.75 0 0 0.75 0 0.25] CT
0.678 0.686 0.698 RC
N
161.333 32.832 M
161.333 34.04 L
163.117 33.563 L
cp
f
GR
GS
[0.75 0 0 0.75 0 0.25] CT
0.678 0.686 0.698 RC
N
163.117 32.605 M
164.9 32.922 L
164.9 32.303 L
cp
f
GR
GS
[0.75 0 0 0.75 0 0.25] CT
0.678 0.686 0.698 RC
N
163.117 32.605 M
163.117 33.563 L
164.9 32.922 L
cp
f
GR
GS
[0.75 0 0 0.75 0 0.25] CT
0.678 0.686 0.698 RC
N
155.983 33.359 M
157.767 34.879 L
157.767 33.213 L
cp
f
GR
GS
[0.75 0 0 0.75 0 0.25] CT
0.678 0.686 0.698 RC
N
159.55 32.982 M
161.333 34.04 L
161.333 32.832 L
cp
f
GR
GS
[0.75 0 0 0.75 0 0.25] CT
0.678 0.686 0.698 RC
N
168.467 32.122 M
168.467 32.033 L
166.683 32.107 L
cp
f
GR
GS
[0.75 0 0 0.75 0 0.25] CT
0.678 0.686 0.698 RC
N
173.817 32.006 M
173.817 32.002 L
172.033 32.004 L
cp
f
GR
GS
[0.75 0 0 0.75 0 0.25] CT
0.678 0.686 0.698 RC
N
175.6 32.002 M
177.383 32.001 L
175.6 32 L
cp
f
GR
GS
[0.75 0 0 0.75 0 0.25] CT
0.678 0.686 0.698 RC
N
172.033 32.014 M
172.033 32.004 L
170.25 32.01 L
cp
f
GR
GS
[0.75 0 0 0.75 0 0.25] CT
0.678 0.686 0.698 RC
N
173.817 32.006 M
175.6 32.002 L
173.817 32.002 L
cp
f
GR
GS
[0.75 0 0 0.75 0 0.25] CT
0.678 0.686 0.698 RC
N
175.6 32.002 M
175.6 32 L
173.817 32.002 L
cp
f
GR
GS
[0.75 0 0 0.75 0 0.25] CT
0.678 0.686 0.698 RC
N
177.383 32.001 M
179.167 32 L
177.383 32 L
cp
f
GR
GS
[0.75 0 0 0.75 0 0.25] CT
0.678 0.686 0.698 RC
N
177.383 32.001 M
177.383 32 L
175.6 32 L
cp
f
GR
GS
[0.75 0 0 0.75 0 0.25] CT
0.678 0.686 0.698 RC
N
179.167 32 M
180.95 32 L
179.167 32 L
cp
f
GR
GS
[0.75 0 0 0.75 0 0.25] CT
0.678 0.686 0.698 RC
N
179.167 32 M
179.167 32 L
177.383 32 L
cp
f
GR
GS
[0.75 0 0 0.75 0 0.25] CT
0.678 0.686 0.698 RC
N
180.95 32 M
180.95 32 L
182.733 32 L
cp
f
GR
GS
[0.75 0 0 0.75 0 0.25] CT
0.678 0.686 0.698 RC
N
180.95 32 M
179.167 32 L
180.95 32 L
cp
f
GR
GS
[0.75 0 0 0.75 0 0.25] CT
0.678 0.686 0.698 RC
N
182.733 32 M
182.733 32 L
180.95 32 L
cp
f
GR
GS
[0.75 0 0 0.75 0 0.25] CT
0.678 0.686 0.698 RC
N
182.733 32 M
184.517 32 L
182.733 32 L
cp
f
GR
GS
[0.75 0 0 0.75 0 0.25] CT
0.678 0.686 0.698 RC
N
325.4 32.668 M
327.183 33.349 L
327.183 32.553 L
cp
f
GR
GS
[0.75 0 0 0.75 0 0.25] CT
0.678 0.686 0.698 RC
N
318.267 36.583 M
318.267 34.098 L
316.483 34.696 L
cp
f
GR
GS
[0.75 0 0 0.75 0 0.25] CT
0.678 0.686 0.698 RC
N
316.483 34.696 M
314.7 35.297 L
316.483 37.57 L
cp
f
GR
GS
[0.75 0 0 0.75 0 0.25] CT
0.678 0.686 0.698 RC
N
314.7 35.297 M
314.7 38.698 L
316.483 37.57 L
cp
f
GR
GS
[0.75 0 0 0.75 0 0.25] CT
0.678 0.686 0.698 RC
N
318.267 36.583 M
316.483 34.696 L
316.483 37.57 L
cp
f
GR
GS
[0.75 0 0 0.75 0 0.25] CT
0.678 0.686 0.698 RC
N
320.05 35.494 M
318.267 34.098 L
318.267 36.583 L
cp
f
GR
GS
[0.75 0 0 0.75 0 0.25] CT
0.678 0.686 0.698 RC
N
318.267 34.098 M
320.05 35.494 L
320.05 33.478 L
cp
f
GR
GS
[0.75 0 0 0.75 0 0.25] CT
0.678 0.686 0.698 RC
N
320.05 33.478 M
320.05 35.494 L
321.833 34.738 L
cp
f
GR
GS
[0.75 0 0 0.75 0 0.25] CT
0.678 0.686 0.698 RC
N
325.4 32.668 M
325.4 33.665 L
327.183 33.349 L
cp
f
GR
GS
[0.75 0 0 0.75 0 0.25] CT
0.678 0.686 0.698 RC
N
325.4 32.668 M
323.617 32.88 L
325.4 33.665 L
cp
f
GR
GS
[0.75 0 0 0.75 0 0.25] CT
0.678 0.686 0.698 RC
N
323.617 34.142 M
321.833 33.147 L
321.833 34.738 L
cp
f
GR
GS
[0.75 0 0 0.75 0 0.25] CT
0.678 0.686 0.698 RC
N
323.617 32.88 M
323.617 34.142 L
325.4 33.665 L
cp
f
GR
GS
[0.75 0 0 0.75 0 0.25] CT
0.678 0.686 0.698 RC
N
323.617 32.88 M
321.833 33.147 L
323.617 34.142 L
cp
f
GR
GS
[0.75 0 0 0.75 0 0.25] CT
0.678 0.686 0.698 RC
N
526.917 32 M
528.7 32 L
526.917 32 L
cp
f
GR
GS
[0.75 0 0 0.75 0 0.25] CT
0.678 0.686 0.698 RC
N
525.133 32 M
526.917 32 L
525.133 32 L
cp
f
GR
GS
[0.75 0 0 0.75 0 0.25] CT
0.678 0.686 0.698 RC
N
525.133 32 M
526.917 32 L
526.917 32 L
cp
f
GR
GS
[0.75 0 0 0.75 0 0.25] CT
0.678 0.686 0.698 RC
N
525.133 32 M
523.35 32 L
523.35 32 L
cp
f
GR
GS
[0.75 0 0 0.75 0 0.25] CT
0.678 0.686 0.698 RC
N
519.783 32.001 M
521.567 32 L
519.783 32 L
cp
f
GR
GS
[0.75 0 0 0.75 0 0.25] CT
0.678 0.686 0.698 RC
N
523.35 32 M
525.133 32 L
525.133 32 L
cp
f
GR
GS
[0.75 0 0 0.75 0 0.25] CT
0.678 0.686 0.698 RC
N
523.35 32 M
521.567 32 L
521.567 32 L
cp
f
GR
GS
[0.75 0 0 0.75 0 0.25] CT
0.678 0.686 0.698 RC
N
518 32 M
519.783 32.001 L
519.783 32 L
cp
f
GR
GS
[0.75 0 0 0.75 0 0.25] CT
0.678 0.686 0.698 RC
N
519.783 32.001 M
518 32 L
518 32.001 L
cp
f
GR
GS
[0.75 0 0 0.75 0 0.25] CT
0.678 0.686 0.698 RC
N
518 32.001 M
518 32 L
516.217 32.001 L
cp
f
GR
GS
[0.75 0 0 0.75 0 0.25] CT
0.678 0.686 0.698 RC
N
507.3 32.166 M
509.083 32.089 L
507.3 32.054 L
cp
f
GR
GS
[0.75 0 0 0.75 0 0.25] CT
0.678 0.686 0.698 RC
N
505.517 32.337 M
507.3 32.166 L
505.517 32.109 L
cp
f
GR
GS
[0.75 0 0 0.75 0 0.25] CT
0.678 0.686 0.698 RC
N
505.517 32.337 M
503.733 32.25 L
503.733 32.73 L
cp
f
GR
GS
[0.75 0 0 0.75 0 0.25] CT
0.678 0.686 0.698 RC
N
500.167 33.831 M
501.95 33.203 L
500.167 32.804 L
cp
f
GR
GS
[0.75 0 0 0.75 0 0.25] CT
0.678 0.686 0.698 RC
N
505.517 32.337 M
505.517 32.109 L
503.733 32.25 L
cp
f
GR
GS
[0.75 0 0 0.75 0 0.25] CT
0.678 0.686 0.698 RC
N
510.867 32.013 M
512.65 32.022 L
512.65 32.007 L
cp
f
GR
GS
[0.75 0 0 0.75 0 0.25] CT
0.678 0.686 0.698 RC
N
507.3 32.166 M
507.3 32.054 L
505.517 32.109 L
cp
f
GR
GS
[0.75 0 0 0.75 0 0.25] CT
0.678 0.686 0.698 RC
N
509.083 32.089 M
509.083 32.029 L
507.3 32.054 L
cp
f
GR
GS
[0.75 0 0 0.75 0 0.25] CT
0.678 0.686 0.698 RC
N
509.083 32.089 M
510.867 32.043 L
509.083 32.029 L
cp
f
GR
GS
[0.75 0 0 0.75 0 0.25] CT
0.678 0.686 0.698 RC
N
512.65 32.022 M
514.433 32.009 L
512.65 32.007 L
cp
f
GR
GS
[0.75 0 0 0.75 0 0.25] CT
0.678 0.686 0.698 RC
N
510.867 32.043 M
510.867 32.013 L
509.083 32.029 L
cp
f
GR
GS
[0.75 0 0 0.75 0 0.25] CT
0.678 0.686 0.698 RC
N
514.433 32.003 M
514.433 32.009 L
516.217 32.003 L
cp
f
GR
GS
[0.75 0 0 0.75 0 0.25] CT
0.678 0.686 0.698 RC
N
514.433 32.003 M
512.65 32.007 L
514.433 32.009 L
cp
f
GR
GS
[0.75 0 0 0.75 0 0.25] CT
0.678 0.686 0.698 RC
N
350.367 32 M
350.367 32 L
352.15 32 L
cp
f
GR
GS
[0.75 0 0 0.75 0 0.25] CT
0.678 0.686 0.698 RC
N
350.367 32 M
348.583 32 L
350.367 32 L
cp
f
GR
GS
[0.75 0 0 0.75 0 0.25] CT
0.678 0.686 0.698 RC
N
348.583 32 M
348.583 32 L
350.367 32 L
cp
f
GR
GS
[0.75 0 0 0.75 0 0.25] CT
0.678 0.686 0.698 RC
N
348.583 32 M
346.8 32 L
348.583 32 L
cp
f
GR
GS
[0.75 0 0 0.75 0 0.25] CT
0.678 0.686 0.698 RC
N
345.017 32 M
346.8 32 L
345.017 32 L
cp
f
GR
GS
[0.75 0 0 0.75 0 0.25] CT
0.678 0.686 0.698 RC
N
346.8 32 M
348.583 32 L
346.8 32 L
cp
f
GR
GS
[0.75 0 0 0.75 0 0.25] CT
0.678 0.686 0.698 RC
N
345.017 32 M
346.8 32 L
346.8 32 L
cp
f
GR
GS
[0.75 0 0 0.75 0 0.25] CT
0.678 0.686 0.698 RC
N
341.45 32.001 M
343.233 32.001 L
343.233 32 L
cp
f
GR
GS
[0.75 0 0 0.75 0 0.25] CT
0.678 0.686 0.698 RC
N
339.667 32.004 M
341.45 32.004 L
341.45 32.001 L
cp
f
GR
GS
[0.75 0 0 0.75 0 0.25] CT
0.678 0.686 0.698 RC
N
334.317 32.095 M
332.533 32.213 L
334.317 32.288 L
cp
f
GR
GS
[0.75 0 0 0.75 0 0.25] CT
0.678 0.686 0.698 RC
N
336.1 32.029 M
336.1 32.097 L
337.883 32.033 L
cp
f
GR
GS
[0.75 0 0 0.75 0 0.25] CT
0.678 0.686 0.698 RC
N
341.45 32.004 M
339.667 32.004 L
339.667 32.013 L
cp
f
GR
GS
[0.75 0 0 0.75 0 0.25] CT
0.678 0.686 0.698 RC
N
330.75 32.281 M
328.967 32.383 L
330.75 32.73 L
cp
f
GR
GS
[0.75 0 0 0.75 0 0.25] CT
0.678 0.686 0.698 RC
N
328.967 32.383 M
327.183 32.553 L
328.967 33.022 L
cp
f
GR
GS
[0.75 0 0 0.75 0 0.25] CT
0.678 0.686 0.698 RC
N
330.75 32.73 M
328.967 32.383 L
328.967 33.022 L
cp
f
GR
GS
[0.75 0 0 0.75 0 0.25] CT
0.678 0.686 0.698 RC
N
332.533 32.542 M
330.75 32.281 L
330.75 32.73 L
cp
f
GR
GS
[0.75 0 0 0.75 0 0.25] CT
0.678 0.686 0.698 RC
N
334.317 32.288 M
332.533 32.213 L
332.533 32.542 L
cp
f
GR
GS
[0.75 0 0 0.75 0 0.25] CT
0.678 0.686 0.698 RC
N
339.667 32.013 M
337.883 32.01 L
337.883 32.033 L
cp
f
GR
GS
[0.75 0 0 0.75 0 0.25] CT
0.678 0.686 0.698 RC
N
496.6 33.201 M
496.6 34.959 L
498.383 34.446 L
cp
f
GR
GS
[0.75 0 0 0.75 0 0.25] CT
0.678 0.686 0.698 RC
N
498.383 33.062 M
500.167 33.831 L
500.167 32.804 L
cp
f
GR
GS
[0.75 0 0 0.75 0 0.25] CT
0.678 0.686 0.698 RC
N
501.95 32.479 M
501.95 33.203 L
503.733 32.73 L
cp
f
GR
GS
[0.75 0 0 0.75 0 0.25] CT
0.678 0.686 0.698 RC
N
501.95 32.479 M
500.167 32.804 L
501.95 33.203 L
cp
f
GR
GS
[0.75 0 0 0.75 0 0.25] CT
0.678 0.686 0.698 RC
N
468.067 90.772 M
469.85 117.15 L
469.85 87.969 L
cp
f
GR
GS
[0.75 0 0 0.75 0 0.25] CT
0.678 0.686 0.698 RC
N
466.283 93.103 M
466.283 121.15 L
468.067 119.371 L
cp
f
GR
GS
[0.75 0 0 0.75 0 0.25] CT
0.678 0.686 0.698 RC
N
462.717 110.624 M
462.717 137.449 L
464.5 126.956 L
cp
f
GR
GS
[0.75 0 0 0.75 0 0.25] CT
0.678 0.686 0.698 RC
N
464.5 99.41 M
466.283 121.15 L
466.283 93.103 L
cp
f
GR
GS
[0.75 0 0 0.75 0 0.25] CT
0.678 0.686 0.698 RC
N
468.067 119.371 M
468.067 90.772 L
466.283 93.103 L
cp
f
GR
GS
[0.75 0 0 0.75 0 0.25] CT
0.678 0.686 0.698 RC
N
468.067 119.371 M
469.85 117.15 L
468.067 90.772 L
cp
f
GR
GS
[0.75 0 0 0.75 0 0.25] CT
0.678 0.686 0.698 RC
N
450.233 87.088 M
450.233 80.957 L
448.45 52.82 L
cp
f
GR
GS
[0.75 0 0 0.75 0 0.25] CT
0.678 0.686 0.698 RC
N
450.233 80.957 M
448.45 50.382 L
448.45 52.82 L
cp
f
GR
GS
[0.75 0 0 0.75 0 0.25] CT
0.678 0.686 0.698 RC
N
448.45 50.382 M
446.667 32 L
448.45 52.82 L
cp
f
GR
GS
[0.75 0 0 0.75 0 0.25] CT
0.678 0.686 0.698 RC
N
452.017 103.709 M
450.233 80.957 L
450.233 87.088 L
cp
f
GR
GS
[0.75 0 0 0.75 0 0.25] CT
0.678 0.686 0.698 RC
N
453.8 130.66 M
453.8 118.801 L
452.017 112.844 L
cp
f
GR
GS
[0.75 0 0 0.75 0 0.25] CT
0.678 0.686 0.698 RC
N
457.367 116.982 M
455.583 117.983 L
455.583 133.732 L
cp
f
GR
GS
[0.75 0 0 0.75 0 0.25] CT
0.678 0.686 0.698 RC
N
453.8 118.801 M
452.017 103.709 L
452.017 112.844 L
cp
f
GR
GS
[0.75 0 0 0.75 0 0.25] CT
0.678 0.686 0.698 RC
N
452.017 103.709 M
450.233 87.088 L
452.017 112.844 L
cp
f
GR
GS
[0.75 0 0 0.75 0 0.25] CT
0.678 0.686 0.698 RC
N
455.583 117.983 M
453.8 130.66 L
455.583 133.732 L
cp
f
GR
GS
[0.75 0 0 0.75 0 0.25] CT
0.678 0.686 0.698 RC
N
455.583 117.983 M
453.8 118.801 L
453.8 130.66 L
cp
f
GR
GS
[0.75 0 0 0.75 0 0.25] CT
0.678 0.686 0.698 RC
N
457.367 136.089 M
457.367 116.982 L
455.583 133.732 L
cp
f
GR
GS
[0.75 0 0 0.75 0 0.25] CT
0.678 0.686 0.698 RC
N
460.933 113.882 M
460.933 138.495 L
462.717 137.449 L
cp
f
GR
GS
[0.75 0 0 0.75 0 0.25] CT
0.678 0.686 0.698 RC
N
460.933 113.882 M
459.15 115.953 L
460.933 138.495 L
cp
f
GR
GS
[0.75 0 0 0.75 0 0.25] CT
0.678 0.686 0.698 RC
N
457.367 116.982 M
457.367 136.089 L
459.15 137.117 L
cp
f
GR
GS
[0.75 0 0 0.75 0 0.25] CT
0.678 0.686 0.698 RC
N
459.15 137.117 M
459.15 115.953 L
457.367 116.982 L
cp
f
GR
GS
[0.75 0 0 0.75 0 0.25] CT
0.678 0.686 0.698 RC
N
459.15 137.117 M
460.933 138.495 L
459.15 115.953 L
cp
f
GR
GS
[0.75 0 0 0.75 0 0.25] CT
0.678 0.686 0.698 RC
N
460.933 113.882 M
462.717 137.449 L
462.717 110.624 L
cp
f
GR
GS
[0.75 0 0 0.75 0 0.25] CT
0.678 0.686 0.698 RC
N
466.283 121.15 M
464.5 99.41 L
464.5 126.956 L
cp
f
GR
GS
[0.75 0 0 0.75 0 0.25] CT
0.678 0.686 0.698 RC
N
471.633 84.15 M
473.417 103.968 L
473.417 74.78 L
cp
f
GR
GS
[0.75 0 0 0.75 0 0.25] CT
0.678 0.686 0.698 RC
N
473.417 103.968 M
475.2 94.516 L
473.417 74.78 L
cp
f
GR
GS
[0.75 0 0 0.75 0 0.25] CT
0.678 0.686 0.698 RC
N
476.983 90.101 M
478.767 84.813 L
476.983 63.224 L
cp
f
GR
GS
[0.75 0 0 0.75 0 0.25] CT
0.678 0.686 0.698 RC
N
473.417 74.78 M
475.2 94.516 L
475.2 66.606 L
cp
f
GR
GS
[0.75 0 0 0.75 0 0.25] CT
0.678 0.686 0.698 RC
N
480.55 80.56 M
478.767 58.806 L
478.767 84.813 L
cp
f
GR
GS
[0.75 0 0 0.75 0 0.25] CT
0.678 0.686 0.698 RC
N
475.2 66.606 M
476.983 90.101 L
476.983 63.224 L
cp
f
GR
GS
[0.75 0 0 0.75 0 0.25] CT
0.678 0.686 0.698 RC
N
478.767 58.806 M
476.983 63.224 L
478.767 84.813 L
cp
f
GR
GS
[0.75 0 0 0.75 0 0.25] CT
0.678 0.686 0.698 RC
N
484.117 74.266 M
484.117 50.934 L
482.333 52.78 L
cp
f
GR
GS
[0.75 0 0 0.75 0 0.25] CT
0.678 0.686 0.698 RC
N
487.683 47.076 M
489.467 43.717 L
487.683 37.778 L
cp
f
GR
GS
[0.75 0 0 0.75 0 0.25] CT
0.678 0.686 0.698 RC
N
493.033 39.106 M
493.033 35.327 L
491.25 35.858 L
cp
f
GR
GS
[0.75 0 0 0.75 0 0.25] CT
0.678 0.686 0.698 RC
N
496.6 34.959 M
494.817 34.17 L
494.817 36.92 L
cp
f
GR
GS
[0.75 0 0 0.75 0 0.25] CT
0.678 0.686 0.698 RC
N
485.9 61.143 M
484.117 50.934 L
484.117 74.266 L
cp
f
GR
GS
[0.75 0 0 0.75 0 0.25] CT
0.678 0.686 0.698 RC
N
489.467 37.232 M
491.25 40.698 L
491.25 35.858 L
cp
f
GR
GS
[0.75 0 0 0.75 0 0.25] CT
0.678 0.686 0.698 RC
N
484.117 50.934 M
485.9 61.143 L
485.9 43.934 L
cp
f
GR
GS
[0.75 0 0 0.75 0 0.25] CT
0.678 0.686 0.698 RC
N
489.467 37.232 M
489.467 43.717 L
491.25 40.698 L
cp
f
GR
GS
[0.75 0 0 0.75 0 0.25] CT
0.678 0.686 0.698 RC
N
489.467 37.232 M
487.683 37.778 L
489.467 43.717 L
cp
f
GR
GS
[0.75 0 0 0.75 0 0.25] CT
0.678 0.686 0.698 RC
N
482.333 52.78 M
482.333 76.521 L
484.117 74.266 L
cp
f
GR
GS
[0.75 0 0 0.75 0 0.25] CT
0.678 0.686 0.698 RC
N
485.9 43.934 M
487.683 47.076 L
487.683 37.778 L
cp
f
GR
GS
[0.75 0 0 0.75 0 0.25] CT
0.678 0.686 0.698 RC
N
91.783 356.375 M
93.567 248.377 L
91.783 350.893 L
cp
f
GR
GS
[0.75 0 0 0.75 0 0.25] CT
2 LJ
N
91.783 350.893 M
93.567 232.164 L
95.35 222.277 L
97.133 206.75 L
98.917 193.778 L
100.7 190.393 L
102.483 185.633 L
104.267 176.334 L
106.05 159.98 L
107.833 148.744 L
109.617 141.473 L
111.4 123.576 L
113.183 108.283 L
114.967 98.367 L
116.75 87.013 L
118.533 80.219 L
120.317 74.324 L
122.1 65.233 L
123.883 60.127 L
125.667 59.79 L
127.45 58.997 L
129.233 57.97 L
131.017 56.803 L
132.8 55.795 L
134.583 53.316 L
136.367 51.784 L
138.15 50.337 L
139.933 44.838 L
141.717 38.581 L
143.5 35.926 L
145.283 35.663 L
147.067 35.267 L
148.85 34.795 L
150.633 34.748 L
152.417 34.69 L
154.2 34.003 L
155.983 33.359 L
157.767 33.213 L
159.55 32.982 L
161.333 32.832 L
163.117 32.605 L
164.9 32.303 L
166.683 32.107 L
168.467 32.033 L
170.25 32.01 L
172.033 32.004 L
173.817 32.002 L
175.6 32 L
177.383 32 L
179.167 32 L
S
GR
GS
[0.75 0 0 0.75 0 0.25] CT
2 LJ
N
179.167 32 M
180.95 32 L
182.733 32 L
184.517 32 L
186.3 32 L
188.083 32 L
189.867 32 L
191.65 32 L
193.433 32 L
195.217 32 L
197 32 L
198.783 32 L
200.567 32 L
202.35 32 L
204.133 32 L
205.917 32 L
207.7 32 L
209.483 32 L
211.267 32 L
213.05 32 L
214.833 32 L
216.617 32 L
218.4 32 L
220.183 32 L
221.967 32 L
223.75 32 L
225.533 32 L
227.317 32 L
229.1 32 L
230.883 32 L
232.667 32 L
234.45 32 L
236.233 32 L
238.017 32 L
239.8 32 L
241.583 32 L
243.367 32 L
245.15 32 L
246.933 32 L
248.717 32 L
250.5 32 L
252.283 32 L
254.067 32 L
255.85 32 L
257.633 32 L
259.417 32 L
261.2 32 L
262.983 32 L
264.767 32 L
266.55 32 L
S
GR
GS
[0.75 0 0 0.75 0 0.25] CT
2 LJ
N
266.55 32 M
268.333 32 L
270.117 50.945 L
271.9 82.613 L
273.683 109.222 L
275.467 130.84 L
277.25 140.265 L
279.033 140.108 L
280.817 137.919 L
282.6 136.634 L
284.383 134.915 L
286.167 134.158 L
287.95 126.69 L
289.733 113.495 L
291.517 107.39 L
293.3 105.341 L
295.083 103.531 L
296.867 97.915 L
298.65 88.446 L
300.433 80.288 L
302.217 76.288 L
304 74.065 L
305.783 65.303 L
307.567 57.215 L
309.35 51.385 L
311.133 43.464 L
312.917 37.64 L
314.7 35.297 L
316.483 34.696 L
318.267 34.098 L
320.05 33.478 L
321.833 33.147 L
323.617 32.88 L
325.4 32.668 L
327.183 32.553 L
328.967 32.383 L
330.75 32.281 L
332.533 32.213 L
334.317 32.095 L
336.1 32.029 L
337.883 32.01 L
339.667 32.004 L
341.45 32.001 L
343.233 32 L
345.017 32 L
346.8 32 L
348.583 32 L
350.367 32 L
352.15 32 L
353.933 32 L
S
GR
GS
[0.75 0 0 0.75 0 0.25] CT
2 LJ
N
353.933 32 M
355.717 32 L
357.5 32 L
359.283 32 L
361.067 32 L
362.85 32 L
364.633 32 L
366.417 32 L
368.2 32 L
369.983 32 L
371.767 32 L
373.55 32 L
375.333 32 L
377.117 32 L
378.9 32 L
380.683 32 L
382.467 32 L
384.25 32 L
386.033 32 L
387.817 32 L
389.6 32 L
391.383 32 L
393.167 32 L
394.95 32 L
396.733 32 L
398.517 32 L
400.3 32 L
402.083 32 L
403.867 32 L
405.65 32 L
407.433 32 L
409.217 32 L
411 32 L
412.783 32 L
414.567 32 L
416.35 32 L
418.133 32 L
419.917 32 L
421.7 32 L
423.483 32 L
425.267 32 L
427.05 32 L
428.833 32 L
430.617 32 L
432.4 32 L
434.183 32 L
435.967 32 L
437.75 32 L
439.533 32 L
441.317 32 L
S
GR
GS
[0.75 0 0 0.75 0 0.25] CT
2 LJ
N
441.317 32 M
443.1 32 L
444.883 32 L
446.667 32 L
448.45 50.382 L
450.233 80.957 L
452.017 103.709 L
453.8 118.801 L
455.583 117.983 L
457.367 116.982 L
459.15 115.953 L
460.933 113.882 L
462.717 110.624 L
464.5 99.41 L
466.283 93.103 L
468.067 90.772 L
469.85 87.969 L
471.633 84.15 L
473.417 74.78 L
475.2 66.606 L
476.983 63.224 L
478.767 58.806 L
480.55 55.813 L
482.333 52.78 L
484.117 50.934 L
485.9 43.934 L
487.683 37.778 L
489.467 37.232 L
491.25 35.858 L
493.033 35.327 L
494.817 34.17 L
496.6 33.201 L
498.383 33.062 L
500.167 32.804 L
501.95 32.479 L
503.733 32.25 L
505.517 32.109 L
507.3 32.054 L
509.083 32.029 L
510.867 32.013 L
512.65 32.007 L
514.433 32.003 L
516.217 32.001 L
518 32 L
519.783 32 L
521.567 32 L
523.35 32 L
525.133 32 L
526.917 32 L
528.7 32 L
S
GR
GS
[0.75 0 0 0.75 0 0.25] CT
2 LJ
N
528.7 32 M
530.483 32 L
532.267 32 L
534.05 32 L
535.833 32 L
537.617 32 L
539.4 32 L
541.183 32 L
542.967 32 L
544.75 32 L
546.533 32 L
548.317 32 L
550.1 32 L
551.883 32 L
553.667 32 L
555.45 32 L
557.233 32 L
559.017 32 L
560.8 32 L
562.583 32 L
564.367 32 L
566.15 32 L
567.933 32 L
569.717 32 L
571.5 32 L
573.283 32 L
575.067 32 L
576.85 32 L
578.633 32 L
580.417 32 L
582.2 32 L
583.983 32 L
585.767 32 L
587.55 32 L
589.333 32 L
591.117 32 L
592.9 32 L
594.683 32 L
596.467 32 L
598.25 32 L
600.033 32 L
601.817 32 L
603.6 32 L
605.383 32 L
607.167 32 L
608.95 32 L
610.733 32 L
612.517 32 L
614.3 32 L
616.083 32 L
S
GR
GS
[0.75 0 0 0.75 0 0.25] CT
2 LJ
N
616.083 32 M
617.867 32 L
619.65 32 L
621.433 32 L
623.217 32 L
625 32 L
625 32 L
623.217 32 L
621.433 32 L
619.65 32 L
617.867 32 L
616.083 32 L
614.3 32 L
612.517 32 L
610.733 32 L
608.95 32 L
607.167 32 L
605.383 32 L
603.6 32 L
601.817 32 L
600.033 32 L
598.25 32 L
596.467 32 L
594.683 32 L
592.9 32 L
591.117 32 L
589.333 32 L
587.55 32 L
585.767 32 L
583.983 32 L
582.2 32 L
580.417 32 L
578.633 32 L
576.85 32 L
575.067 32 L
573.283 32 L
571.5 32 L
569.717 32 L
567.933 32 L
566.15 32 L
564.367 32 L
562.583 32 L
560.8 32 L
559.017 32 L
557.233 32 L
555.45 32 L
553.667 32 L
551.883 32 L
550.1 32 L
548.317 32 L
S
GR
GS
[0.75 0 0 0.75 0 0.25] CT
2 LJ
N
548.317 32 M
546.533 32 L
544.75 32 L
542.967 32 L
541.183 32 L
539.4 32 L
537.617 32 L
535.833 32 L
534.05 32 L
532.267 32 L
530.483 32 L
528.7 32 L
526.917 32 L
525.133 32 L
523.35 32 L
521.567 32 L
519.783 32.001 L
518 32.001 L
516.217 32.003 L
514.433 32.009 L
512.65 32.022 L
510.867 32.043 L
509.083 32.089 L
507.3 32.166 L
505.517 32.337 L
503.733 32.73 L
501.95 33.203 L
500.167 33.831 L
498.383 34.446 L
496.6 34.959 L
494.817 36.92 L
493.033 39.106 L
491.25 40.698 L
489.467 43.717 L
487.683 47.076 L
485.9 61.143 L
484.117 74.266 L
482.333 76.521 L
480.55 80.56 L
478.767 84.813 L
476.983 90.101 L
475.2 94.516 L
473.417 103.968 L
471.633 113.597 L
469.85 117.15 L
468.067 119.371 L
466.283 121.15 L
464.5 126.956 L
462.717 137.449 L
460.933 138.495 L
S
GR
GS
[0.75 0 0 0.75 0 0.25] CT
2 LJ
N
460.933 138.495 M
459.15 137.117 L
457.367 136.089 L
455.583 133.732 L
453.8 130.66 L
452.017 112.844 L
450.233 87.088 L
448.45 52.82 L
446.667 32 L
444.883 32 L
443.1 32 L
441.317 32 L
439.533 32 L
437.75 32 L
435.967 32 L
434.183 32 L
432.4 32 L
430.617 32 L
428.833 32 L
427.05 32 L
425.267 32 L
423.483 32 L
421.7 32 L
419.917 32 L
418.133 32 L
416.35 32 L
414.567 32 L
412.783 32 L
411 32 L
409.217 32 L
407.433 32 L
405.65 32 L
403.867 32 L
402.083 32 L
400.3 32 L
398.517 32 L
396.733 32 L
394.95 32 L
393.167 32 L
391.383 32 L
389.6 32 L
387.817 32 L
386.033 32 L
384.25 32 L
382.467 32 L
380.683 32 L
378.9 32 L
377.117 32 L
375.333 32 L
373.55 32 L
S
GR
GS
[0.75 0 0 0.75 0 0.25] CT
2 LJ
N
373.55 32 M
371.767 32 L
369.983 32 L
368.2 32 L
366.417 32 L
364.633 32 L
362.85 32 L
361.067 32 L
359.283 32 L
357.5 32 L
355.717 32 L
353.933 32 L
352.15 32 L
350.367 32 L
348.583 32 L
346.8 32 L
345.017 32 L
343.233 32.001 L
341.45 32.004 L
339.667 32.013 L
337.883 32.033 L
336.1 32.097 L
334.317 32.288 L
332.533 32.542 L
330.75 32.73 L
328.967 33.022 L
327.183 33.349 L
325.4 33.665 L
323.617 34.142 L
321.833 34.738 L
320.05 35.494 L
318.267 36.583 L
316.483 37.57 L
314.7 38.698 L
312.917 43.473 L
311.133 55.645 L
309.35 70.946 L
307.567 82.597 L
305.783 95.219 L
304 106.975 L
302.217 111.24 L
300.433 116.866 L
298.65 126.473 L
296.867 136.969 L
295.083 142.823 L
293.3 144.26 L
291.517 145.353 L
289.733 150.331 L
287.95 161.862 L
286.167 167.59 L
S
GR
GS
[0.75 0 0 0.75 0 0.25] CT
2 LJ
N
286.167 167.59 M
284.383 166.665 L
282.6 164.277 L
280.817 161.477 L
279.033 158.783 L
277.25 153.809 L
275.467 140.58 L
273.683 115.981 L
271.9 88.06 L
270.117 53.36 L
268.333 32 L
266.55 32 L
264.767 32 L
262.983 32 L
261.2 32 L
259.417 32 L
257.633 32 L
255.85 32 L
254.067 32 L
252.283 32 L
250.5 32 L
248.717 32 L
246.933 32 L
245.15 32 L
243.367 32 L
241.583 32 L
239.8 32 L
238.017 32 L
236.233 32 L
234.45 32 L
232.667 32 L
230.883 32 L
229.1 32 L
227.317 32 L
225.533 32 L
223.75 32 L
221.967 32 L
220.183 32 L
218.4 32 L
216.617 32 L
214.833 32 L
213.05 32 L
211.267 32 L
209.483 32 L
207.7 32 L
205.917 32 L
204.133 32 L
202.35 32 L
200.567 32 L
198.783 32 L
S
GR
GS
[0.75 0 0 0.75 0 0.25] CT
2 LJ
N
198.783 32 M
197 32 L
195.217 32 L
193.433 32 L
191.65 32 L
189.867 32 L
188.083 32 L
186.3 32 L
184.517 32 L
182.733 32 L
180.95 32 L
179.167 32 L
177.383 32.001 L
175.6 32.002 L
173.817 32.006 L
172.033 32.014 L
170.25 32.039 L
168.467 32.122 L
166.683 32.366 L
164.9 32.922 L
163.117 33.563 L
161.333 34.04 L
159.55 34.393 L
157.767 34.879 L
155.983 35.171 L
154.2 36.569 L
152.417 37.819 L
150.633 38.076 L
148.85 38.324 L
147.067 38.929 L
145.283 39.47 L
143.5 40.695 L
141.717 45.863 L
139.933 61.025 L
138.15 73.818 L
136.367 76.041 L
134.583 78.794 L
132.8 81.773 L
131.017 82.833 L
129.233 84.34 L
127.45 85.437 L
125.667 86.424 L
123.883 87.599 L
122.1 96.033 L
120.317 109.414 L
118.533 117.95 L
116.75 127.104 L
114.967 140.284 L
113.183 151.91 L
111.4 169.223 L
S
GR
GS
[0.75 0 0 0.75 0 0.25] CT
2 LJ
N
111.4 169.223 M
109.617 188.298 L
107.833 195.038 L
106.05 204.806 L
104.267 219.649 L
102.483 227.14 L
100.7 230.208 L
98.917 230.464 L
97.133 238.37 L
95.35 247.594 L
93.567 248.377 L
91.783 356.375 L
91.783 350.893 L
S
GR
GS
[0.75 0 0 0.75 0 0.25] CT
0 0 1 RC
2 LJ
2.667 LW
N
91.783 356.375 M
93.567 246.097 L
95.35 241.11 L
97.133 227.654 L
98.917 215.499 L
100.7 212.184 L
102.483 207.329 L
104.267 198.029 L
106.05 181.675 L
107.833 170.44 L
109.617 163.168 L
111.4 143.732 L
113.183 126.418 L
114.967 114.792 L
116.75 101.612 L
118.533 93.022 L
120.317 85.651 L
122.1 74.767 L
123.883 68.003 L
125.667 66.839 L
127.45 65.852 L
129.233 64.754 L
131.017 63.489 L
132.8 62.429 L
134.583 59.708 L
136.367 57.746 L
138.15 55.914 L
139.933 49.507 L
141.717 41.651 L
143.5 37.673 L
145.283 36.871 L
147.067 36.33 L
148.85 35.74 L
150.633 35.617 L
152.417 35.541 L
154.2 34.758 L
155.983 33.92 L
157.767 33.637 L
159.55 33.337 L
161.333 33.129 L
163.117 32.845 L
164.9 32.463 L
166.683 32.187 L
168.467 32.063 L
170.25 32.02 L
172.033 32.007 L
173.817 32.003 L
175.6 32.001 L
177.383 32 L
179.167 32 L
S
GR
GS
[0.75 0 0 0.75 0 0.25] CT
0 0 1 RC
2 LJ
2.667 LW
N
179.167 32 M
180.95 32 L
182.733 32 L
184.517 32 L
186.3 32 L
188.083 32 L
189.867 32 L
191.65 32 L
193.433 32 L
195.217 32 L
197 32 L
198.783 32 L
200.567 32 L
202.35 32 L
204.133 32 L
205.917 32 L
207.7 32 L
209.483 32 L
211.267 32 L
213.05 32 L
214.833 32 L
216.617 32 L
218.4 32 L
220.183 32 L
221.967 32 L
223.75 32 L
225.533 32 L
227.317 32 L
229.1 32 L
230.883 32 L
232.667 32 L
234.45 32 L
236.233 32 L
238.017 32 L
239.8 32 L
241.583 32 L
243.367 32 L
245.15 32 L
246.933 32 L
248.717 32 L
250.5 32 L
252.283 32 L
254.067 32 L
255.85 32 L
257.633 32 L
259.417 32 L
261.2 32 L
262.983 32 L
264.767 32 L
266.55 32 L
S
GR
GS
[0.75 0 0 0.75 0 0.25] CT
0 0 1 RC
2 LJ
2.667 LW
N
266.55 32 M
268.333 32 L
270.117 50.945 L
271.9 83.104 L
273.683 110.727 L
275.467 134.694 L
277.25 146.982 L
279.033 149.848 L
280.817 149.848 L
282.6 149.848 L
284.383 149.848 L
286.167 149.848 L
287.95 142.54 L
289.733 129.345 L
291.517 123.241 L
293.3 121.192 L
295.083 119.382 L
296.867 113.527 L
298.65 103.031 L
300.433 93.424 L
302.217 88.171 L
304 85.179 L
305.783 75.333 L
307.567 65.17 L
309.35 57.455 L
311.133 47.788 L
312.917 40.18 L
314.7 36.674 L
316.483 35.598 L
318.267 34.813 L
320.05 34.031 L
321.833 33.566 L
323.617 33.207 L
325.4 32.92 L
327.183 32.754 L
328.967 32.54 L
330.75 32.395 L
332.533 32.298 L
334.317 32.15 L
336.1 32.054 L
337.883 32.019 L
339.667 32.007 L
341.45 32.002 L
343.233 32.001 L
345.017 32 L
346.8 32 L
348.583 32 L
350.367 32 L
352.15 32 L
353.933 32 L
S
GR
GS
[0.75 0 0 0.75 0 0.25] CT
0 0 1 RC
2 LJ
2.667 LW
N
353.933 32 M
355.717 32 L
357.5 32 L
359.283 32 L
361.067 32 L
362.85 32 L
364.633 32 L
366.417 32 L
368.2 32 L
369.983 32 L
371.767 32 L
373.55 32 L
375.333 32 L
377.117 32 L
378.9 32 L
380.683 32 L
382.467 32 L
384.25 32 L
386.033 32 L
387.817 32 L
389.6 32 L
391.383 32 L
393.167 32 L
394.95 32 L
396.733 32 L
398.517 32 L
400.3 32 L
402.083 32 L
403.867 32 L
405.65 32 L
407.433 32 L
409.217 32 L
411 32 L
412.783 32 L
414.567 32 L
416.35 32 L
418.133 32 L
419.917 32 L
421.7 32 L
423.483 32 L
425.267 32 L
427.05 32 L
428.833 32 L
430.617 32 L
432.4 32 L
434.183 32 L
435.967 32 L
437.75 32 L
439.533 32 L
441.317 32 L
S
GR
GS
[0.75 0 0 0.75 0 0.25] CT
0 0 1 RC
2 LJ
2.667 LW
N
441.317 32 M
443.1 32 L
444.883 32 L
446.667 32 L
448.45 50.382 L
450.233 82.131 L
452.017 107.22 L
453.8 123.554 L
455.583 123.554 L
457.367 123.554 L
459.15 123.554 L
460.933 123.554 L
462.717 121.768 L
464.5 110.642 L
466.283 104.335 L
468.067 102.003 L
469.85 99.201 L
471.633 95.381 L
473.417 85.349 L
475.2 75.596 L
476.983 70.985 L
478.767 65.894 L
480.55 62.096 L
482.333 58.572 L
484.117 56.317 L
485.9 48.29 L
487.683 40.52 L
489.467 38.931 L
491.25 37.212 L
493.033 36.43 L
494.817 35.032 L
496.6 33.76 L
498.383 33.437 L
500.167 33.105 L
501.95 32.693 L
503.733 32.377 L
505.517 32.175 L
507.3 32.085 L
509.083 32.045 L
510.867 32.021 L
512.65 32.011 L
514.433 32.005 L
516.217 32.002 L
518 32.001 L
519.783 32 L
521.567 32 L
523.35 32 L
525.133 32 L
526.917 32 L
528.7 32 L
S
GR
GS
[0.75 0 0 0.75 0 0.25] CT
0 0 1 RC
2 LJ
2.667 LW
N
528.7 32 M
530.483 32 L
532.267 32 L
534.05 32 L
535.833 32 L
537.617 32 L
539.4 32 L
541.183 32 L
542.967 32 L
544.75 32 L
546.533 32 L
548.317 32 L
550.1 32 L
551.883 32 L
553.667 32 L
555.45 32 L
557.233 32 L
559.017 32 L
560.8 32 L
562.583 32 L
564.367 32 L
566.15 32 L
567.933 32 L
569.717 32 L
571.5 32 L
573.283 32 L
575.067 32 L
576.85 32 L
578.633 32 L
580.417 32 L
582.2 32 L
583.983 32 L
585.767 32 L
587.55 32 L
589.333 32 L
591.117 32 L
592.9 32 L
594.683 32 L
596.467 32 L
598.25 32 L
600.033 32 L
601.817 32 L
603.6 32 L
605.383 32 L
607.167 32 L
608.95 32 L
610.733 32 L
612.517 32 L
614.3 32 L
616.083 32 L
S
GR
GS
[0.75 0 0 0.75 0 0.25] CT
0 0 1 RC
2 LJ
2.667 LW
N
616.083 32 M
617.867 32 L
619.65 32 L
621.433 32 L
623.217 32 L
625 32 L
S
GR
GS
[0.75 0 0 0.75 0 0.25] CT
2 LJ
1.333 LW
N
91.783 350.893 M
93.567 232.164 L
95.35 222.277 L
97.133 206.75 L
98.917 193.778 L
100.7 190.393 L
102.483 185.633 L
104.267 176.334 L
106.05 159.98 L
107.833 148.744 L
109.617 141.473 L
111.4 123.576 L
113.183 108.283 L
114.967 98.367 L
116.75 87.013 L
118.533 80.219 L
120.317 74.324 L
122.1 65.233 L
123.883 60.127 L
125.667 59.79 L
127.45 58.997 L
129.233 57.97 L
131.017 56.803 L
132.8 55.795 L
134.583 53.316 L
136.367 51.784 L
138.15 50.337 L
139.933 44.838 L
141.717 38.581 L
143.5 35.926 L
145.283 35.663 L
147.067 35.267 L
148.85 34.795 L
150.633 34.748 L
152.417 34.69 L
154.2 34.003 L
155.983 33.359 L
157.767 33.213 L
159.55 32.982 L
161.333 32.832 L
163.117 32.605 L
164.9 32.303 L
166.683 32.107 L
168.467 32.033 L
170.25 32.01 L
172.033 32.004 L
173.817 32.002 L
175.6 32 L
177.383 32 L
179.167 32 L
S
GR
GS
[0.75 0 0 0.75 0 0.25] CT
2 LJ
1.333 LW
N
179.167 32 M
180.95 32 L
182.733 32 L
184.517 32 L
186.3 32 L
188.083 32 L
189.867 32 L
191.65 32 L
193.433 32 L
195.217 32 L
197 32 L
198.783 32 L
200.567 32 L
202.35 32 L
204.133 32 L
205.917 32 L
207.7 32 L
209.483 32 L
211.267 32 L
213.05 32 L
214.833 32 L
216.617 32 L
218.4 32 L
220.183 32 L
221.967 32 L
223.75 32 L
225.533 32 L
227.317 32 L
229.1 32 L
230.883 32 L
232.667 32 L
234.45 32 L
236.233 32 L
238.017 32 L
239.8 32 L
241.583 32 L
243.367 32 L
245.15 32 L
246.933 32 L
248.717 32 L
250.5 32 L
252.283 32 L
254.067 32 L
255.85 32 L
257.633 32 L
259.417 32 L
261.2 32 L
262.983 32 L
264.767 32 L
266.55 32 L
S
GR
GS
[0.75 0 0 0.75 0 0.25] CT
2 LJ
1.333 LW
N
266.55 32 M
268.333 32 L
270.117 50.945 L
271.9 82.613 L
273.683 109.222 L
275.467 130.84 L
277.25 140.265 L
279.033 140.108 L
280.817 137.919 L
282.6 136.634 L
284.383 134.915 L
286.167 134.158 L
287.95 126.69 L
289.733 113.495 L
291.517 107.39 L
293.3 105.341 L
295.083 103.531 L
296.867 97.915 L
298.65 88.446 L
300.433 80.288 L
302.217 76.288 L
304 74.065 L
305.783 65.303 L
307.567 57.215 L
309.35 51.385 L
311.133 43.464 L
312.917 37.64 L
314.7 35.297 L
316.483 34.696 L
318.267 34.098 L
320.05 33.478 L
321.833 33.147 L
323.617 32.88 L
325.4 32.668 L
327.183 32.553 L
328.967 32.383 L
330.75 32.281 L
332.533 32.213 L
334.317 32.095 L
336.1 32.029 L
337.883 32.01 L
339.667 32.004 L
341.45 32.001 L
343.233 32 L
345.017 32 L
346.8 32 L
348.583 32 L
350.367 32 L
352.15 32 L
353.933 32 L
S
GR
GS
[0.75 0 0 0.75 0 0.25] CT
2 LJ
1.333 LW
N
353.933 32 M
355.717 32 L
357.5 32 L
359.283 32 L
361.067 32 L
362.85 32 L
364.633 32 L
366.417 32 L
368.2 32 L
369.983 32 L
371.767 32 L
373.55 32 L
375.333 32 L
377.117 32 L
378.9 32 L
380.683 32 L
382.467 32 L
384.25 32 L
386.033 32 L
387.817 32 L
389.6 32 L
391.383 32 L
393.167 32 L
394.95 32 L
396.733 32 L
398.517 32 L
400.3 32 L
402.083 32 L
403.867 32 L
405.65 32 L
407.433 32 L
409.217 32 L
411 32 L
412.783 32 L
414.567 32 L
416.35 32 L
418.133 32 L
419.917 32 L
421.7 32 L
423.483 32 L
425.267 32 L
427.05 32 L
428.833 32 L
430.617 32 L
432.4 32 L
434.183 32 L
435.967 32 L
437.75 32 L
439.533 32 L
441.317 32 L
S
GR
GS
[0.75 0 0 0.75 0 0.25] CT
2 LJ
1.333 LW
N
441.317 32 M
443.1 32 L
444.883 32 L
446.667 32 L
448.45 50.382 L
450.233 80.957 L
452.017 103.709 L
453.8 118.801 L
455.583 117.983 L
457.367 116.982 L
459.15 115.953 L
460.933 113.882 L
462.717 110.624 L
464.5 99.41 L
466.283 93.103 L
468.067 90.772 L
469.85 87.969 L
471.633 84.15 L
473.417 74.78 L
475.2 66.606 L
476.983 63.224 L
478.767 58.806 L
480.55 55.813 L
482.333 52.78 L
484.117 50.934 L
485.9 43.934 L
487.683 37.778 L
489.467 37.232 L
491.25 35.858 L
493.033 35.327 L
494.817 34.17 L
496.6 33.201 L
498.383 33.062 L
500.167 32.804 L
501.95 32.479 L
503.733 32.25 L
505.517 32.109 L
507.3 32.054 L
509.083 32.029 L
510.867 32.013 L
512.65 32.007 L
514.433 32.003 L
516.217 32.001 L
518 32 L
519.783 32 L
521.567 32 L
523.35 32 L
525.133 32 L
526.917 32 L
528.7 32 L
S
GR
GS
[0.75 0 0 0.75 0 0.25] CT
2 LJ
1.333 LW
N
528.7 32 M
530.483 32 L
532.267 32 L
534.05 32 L
535.833 32 L
537.617 32 L
539.4 32 L
541.183 32 L
542.967 32 L
544.75 32 L
546.533 32 L
548.317 32 L
550.1 32 L
551.883 32 L
553.667 32 L
555.45 32 L
557.233 32 L
559.017 32 L
560.8 32 L
562.583 32 L
564.367 32 L
566.15 32 L
567.933 32 L
569.717 32 L
571.5 32 L
573.283 32 L
575.067 32 L
576.85 32 L
578.633 32 L
580.417 32 L
582.2 32 L
583.983 32 L
585.767 32 L
587.55 32 L
589.333 32 L
591.117 32 L
592.9 32 L
594.683 32 L
596.467 32 L
598.25 32 L
600.033 32 L
601.817 32 L
603.6 32 L
605.383 32 L
607.167 32 L
608.95 32 L
610.733 32 L
612.517 32 L
614.3 32 L
616.083 32 L
S
GR
GS
[0.75 0 0 0.75 0 0.25] CT
2 LJ
1.333 LW
N
616.083 32 M
617.867 32 L
619.65 32 L
621.433 32 L
623.217 32 L
625 32 L
S
GR
GS
[0.75 0 0 0.75 0 0.25] CT
2 LJ
1.333 LW
N
91.783 356.375 M
93.567 248.377 L
95.35 247.594 L
97.133 238.37 L
98.917 230.464 L
100.7 230.208 L
102.483 227.14 L
104.267 219.649 L
106.05 204.806 L
107.833 195.038 L
109.617 188.298 L
111.4 169.223 L
113.183 151.91 L
114.967 140.284 L
116.75 127.104 L
118.533 117.95 L
120.317 109.414 L
122.1 96.033 L
123.883 87.599 L
125.667 86.424 L
127.45 85.437 L
129.233 84.34 L
131.017 82.833 L
132.8 81.773 L
134.583 78.794 L
136.367 76.041 L
138.15 73.818 L
139.933 61.025 L
141.717 45.863 L
143.5 40.695 L
145.283 39.47 L
147.067 38.929 L
148.85 38.324 L
150.633 38.076 L
152.417 37.819 L
154.2 36.569 L
155.983 35.171 L
157.767 34.879 L
159.55 34.393 L
161.333 34.04 L
163.117 33.563 L
164.9 32.922 L
166.683 32.366 L
168.467 32.122 L
170.25 32.039 L
172.033 32.014 L
173.817 32.006 L
175.6 32.002 L
177.383 32.001 L
179.167 32 L
S
GR
GS
[0.75 0 0 0.75 0 0.25] CT
2 LJ
1.333 LW
N
179.167 32 M
180.95 32 L
182.733 32 L
184.517 32 L
186.3 32 L
188.083 32 L
189.867 32 L
191.65 32 L
193.433 32 L
195.217 32 L
197 32 L
198.783 32 L
200.567 32 L
202.35 32 L
204.133 32 L
205.917 32 L
207.7 32 L
209.483 32 L
211.267 32 L
213.05 32 L
214.833 32 L
216.617 32 L
218.4 32 L
220.183 32 L
221.967 32 L
223.75 32 L
225.533 32 L
227.317 32 L
229.1 32 L
230.883 32 L
232.667 32 L
234.45 32 L
236.233 32 L
238.017 32 L
239.8 32 L
241.583 32 L
243.367 32 L
245.15 32 L
246.933 32 L
248.717 32 L
250.5 32 L
252.283 32 L
254.067 32 L
255.85 32 L
257.633 32 L
259.417 32 L
261.2 32 L
262.983 32 L
264.767 32 L
266.55 32 L
S
GR
GS
[0.75 0 0 0.75 0 0.25] CT
2 LJ
1.333 LW
N
266.55 32 M
268.333 32 L
270.117 53.36 L
271.9 88.06 L
273.683 115.981 L
275.467 140.58 L
277.25 153.809 L
279.033 158.783 L
280.817 161.477 L
282.6 164.277 L
284.383 166.665 L
286.167 167.59 L
287.95 161.862 L
289.733 150.331 L
291.517 145.353 L
293.3 144.26 L
295.083 142.823 L
296.867 136.969 L
298.65 126.473 L
300.433 116.866 L
302.217 111.24 L
304 106.975 L
305.783 95.219 L
307.567 82.597 L
309.35 70.946 L
311.133 55.645 L
312.917 43.473 L
314.7 38.698 L
316.483 37.57 L
318.267 36.583 L
320.05 35.494 L
321.833 34.738 L
323.617 34.142 L
325.4 33.665 L
327.183 33.349 L
328.967 33.022 L
330.75 32.73 L
332.533 32.542 L
334.317 32.288 L
336.1 32.097 L
337.883 32.033 L
339.667 32.013 L
341.45 32.004 L
343.233 32.001 L
345.017 32 L
346.8 32 L
348.583 32 L
350.367 32 L
352.15 32 L
353.933 32 L
S
GR
GS
[0.75 0 0 0.75 0 0.25] CT
2 LJ
1.333 LW
N
353.933 32 M
355.717 32 L
357.5 32 L
359.283 32 L
361.067 32 L
362.85 32 L
364.633 32 L
366.417 32 L
368.2 32 L
369.983 32 L
371.767 32 L
373.55 32 L
375.333 32 L
377.117 32 L
378.9 32 L
380.683 32 L
382.467 32 L
384.25 32 L
386.033 32 L
387.817 32 L
389.6 32 L
391.383 32 L
393.167 32 L
394.95 32 L
396.733 32 L
398.517 32 L
400.3 32 L
402.083 32 L
403.867 32 L
405.65 32 L
407.433 32 L
409.217 32 L
411 32 L
412.783 32 L
414.567 32 L
416.35 32 L
418.133 32 L
419.917 32 L
421.7 32 L
423.483 32 L
425.267 32 L
427.05 32 L
428.833 32 L
430.617 32 L
432.4 32 L
434.183 32 L
435.967 32 L
437.75 32 L
439.533 32 L
441.317 32 L
S
GR
GS
[0.75 0 0 0.75 0 0.25] CT
2 LJ
1.333 LW
N
441.317 32 M
443.1 32 L
444.883 32 L
446.667 32 L
448.45 52.82 L
450.233 87.088 L
452.017 112.844 L
453.8 130.66 L
455.583 133.732 L
457.367 136.089 L
459.15 137.117 L
460.933 138.495 L
462.717 137.449 L
464.5 126.956 L
466.283 121.15 L
468.067 119.371 L
469.85 117.15 L
471.633 113.597 L
473.417 103.968 L
475.2 94.516 L
476.983 90.101 L
478.767 84.813 L
480.55 80.56 L
482.333 76.521 L
484.117 74.266 L
485.9 61.143 L
487.683 47.076 L
489.467 43.717 L
491.25 40.698 L
493.033 39.106 L
494.817 36.92 L
496.6 34.959 L
498.383 34.446 L
500.167 33.831 L
501.95 33.203 L
503.733 32.73 L
505.517 32.337 L
507.3 32.166 L
509.083 32.089 L
510.867 32.043 L
512.65 32.022 L
514.433 32.009 L
516.217 32.003 L
518 32.001 L
519.783 32.001 L
521.567 32 L
523.35 32 L
525.133 32 L
526.917 32 L
528.7 32 L
S
GR
GS
[0.75 0 0 0.75 0 0.25] CT
2 LJ
1.333 LW
N
528.7 32 M
530.483 32 L
532.267 32 L
534.05 32 L
535.833 32 L
537.617 32 L
539.4 32 L
541.183 32 L
542.967 32 L
544.75 32 L
546.533 32 L
548.317 32 L
550.1 32 L
551.883 32 L
553.667 32 L
555.45 32 L
557.233 32 L
559.017 32 L
560.8 32 L
562.583 32 L
564.367 32 L
566.15 32 L
567.933 32 L
569.717 32 L
571.5 32 L
573.283 32 L
575.067 32 L
576.85 32 L
578.633 32 L
580.417 32 L
582.2 32 L
583.983 32 L
585.767 32 L
587.55 32 L
589.333 32 L
591.117 32 L
592.9 32 L
594.683 32 L
596.467 32 L
598.25 32 L
600.033 32 L
601.817 32 L
603.6 32 L
605.383 32 L
607.167 32 L
608.95 32 L
610.733 32 L
612.517 32 L
614.3 32 L
616.083 32 L
S
GR
GS
[0.75 0 0 0.75 0 0.25] CT
2 LJ
1.333 LW
N
616.083 32 M
617.867 32 L
619.65 32 L
621.433 32 L
623.217 32 L
625 32 L
S
GR
GS
[0.75 0 0 0.75 0 0.25] CT
1 GC
N
393 338 M
393 302 L
579 302 L
579 338 L
cp
f
GR
GS
[0.75 0 0 0.75 361.91668 234.37499] CT
/Helvetica 12 F
GS
[1 0 0 1 0 0] CT
0 4.5 moveto 
1 -1 scale
(mean) t 
GR
GR
GS
[0.75 0 0 0.75 0 0.25] CT
0 0 1 RC
2 setlinecap
10.0 ML
2.667 LW
N
406.778 312.167 M
475.667 312.167 L
S
GR
GS
[0.75 0 0 0.75 361.91668 246.12501] CT
/Helvetica 12 F
GS
[1 0 0 1 0 0] CT
0 4.5 moveto 
1 -1 scale
(variance) t 
GR
GR
GS
[0.75 0 0 0.75 0 0.25] CT
0.678 0.686 0.698 RC
N
406.778 333.5 M
406.778 322.167 L
475.667 322.167 L
475.667 333.5 L
cp
f
GR
GS
[0.75 0 0 0.75 0 0.25] CT
2 setlinecap
10.0 ML
N
406.778 333.5 M
406.778 322.167 L
475.667 322.167 L
475.667 333.5 L
406.778 333.5 L
S
GR
GS
[0.75 0 0 0.75 0 0.25] CT
0.149 GC
2 setlinecap
10.0 ML
N
393 338 M
393 302 L
579 302 L
579 338 L
393 338 L
S
GR
%%Trailer
%%Pages: 1
%%EOF
