%!PS-Adobe-3.0 EPSF-3.0
%%Creator: (MATLAB, The Mathworks, Inc. Version 8.5.0.197613 \(R2015a\). Operating System: Linux)
%%Title: /home/theodore/Documents/ECE/diplomatiki/Engagement_Estimation/2paramStep/results/eng2.eps
%%CreationDate: 2017-05-13T13:40:48
%%Pages: (atend)
%%BoundingBox: 0 0 504 314
%%LanguageLevel: 2
%%EndComments
%%BeginProlog
%%BeginResource: procset (Apache XML Graphics Std ProcSet) 1.2 0
%%Version: 1.2 0
%%Copyright: (Copyright 2001-2003,2010 The Apache Software Foundation. License terms: http://www.apache.org/licenses/LICENSE-2.0)
/bd{bind def}bind def
/ld{load def}bd
/GR/grestore ld
/M/moveto ld
/LJ/setlinejoin ld
/C/curveto ld
/f/fill ld
/LW/setlinewidth ld
/GC/setgray ld
/t/show ld
/N/newpath ld
/CT/concat ld
/cp/closepath ld
/S/stroke ld
/L/lineto ld
/CC/setcmykcolor ld
/A/ashow ld
/GS/gsave ld
/RC/setrgbcolor ld
/RM/rmoveto ld
/ML/setmiterlimit ld
/re {4 2 roll M
1 index 0 rlineto
0 exch rlineto
neg 0 rlineto
cp } bd
/_ctm matrix def
/_tm matrix def
/BT { _ctm currentmatrix pop matrix _tm copy pop 0 0 moveto } bd
/ET { _ctm setmatrix } bd
/iTm { _ctm setmatrix _tm concat } bd
/Tm { _tm astore pop iTm 0 0 moveto } bd
/ux 0.0 def
/uy 0.0 def
/F {
  /Tp exch def
  /Tf exch def
  Tf findfont Tp scalefont setfont
  /cf Tf def  /cs Tp def
} bd
/ULS {currentpoint /uy exch def /ux exch def} bd
/ULE {
  /Tcx currentpoint pop def
  gsave
  newpath
  cf findfont cs scalefont dup
  /FontMatrix get 0 get /Ts exch def /FontInfo get dup
  /UnderlinePosition get Ts mul /To exch def
  /UnderlineThickness get Ts mul /Tt exch def
  ux uy To add moveto  Tcx uy To add lineto
  Tt setlinewidth stroke
  grestore
} bd
/OLE {
  /Tcx currentpoint pop def
  gsave
  newpath
  cf findfont cs scalefont dup
  /FontMatrix get 0 get /Ts exch def /FontInfo get dup
  /UnderlinePosition get Ts mul /To exch def
  /UnderlineThickness get Ts mul /Tt exch def
  ux uy To add cs add moveto Tcx uy To add cs add lineto
  Tt setlinewidth stroke
  grestore
} bd
/SOE {
  /Tcx currentpoint pop def
  gsave
  newpath
  cf findfont cs scalefont dup
  /FontMatrix get 0 get /Ts exch def /FontInfo get dup
  /UnderlinePosition get Ts mul /To exch def
  /UnderlineThickness get Ts mul /Tt exch def
  ux uy To add cs 10 mul 26 idiv add moveto Tcx uy To add cs 10 mul 26 idiv add lineto
  Tt setlinewidth stroke
  grestore
} bd
/QT {
/Y22 exch store
/X22 exch store
/Y21 exch store
/X21 exch store
currentpoint
/Y21 load 2 mul add 3 div exch
/X21 load 2 mul add 3 div exch
/X21 load 2 mul /X22 load add 3 div
/Y21 load 2 mul /Y22 load add 3 div
/X22 load /Y22 load curveto
} bd
/SSPD {
dup length /d exch dict def
{
/v exch def
/k exch def
currentpagedevice k known {
/cpdv currentpagedevice k get def
v cpdv ne {
/upd false def
/nullv v type /nulltype eq def
/nullcpdv cpdv type /nulltype eq def
nullv nullcpdv or
{
/upd true def
} {
/sametype v type cpdv type eq def
sametype {
v type /arraytype eq {
/vlen v length def
/cpdvlen cpdv length def
vlen cpdvlen eq {
0 1 vlen 1 sub {
/i exch def
/obj v i get def
/cpdobj cpdv i get def
obj cpdobj ne {
/upd true def
exit
} if
} for
} {
/upd true def
} ifelse
} {
v type /dicttype eq {
v {
/dv exch def
/dk exch def
/cpddv cpdv dk get def
dv cpddv ne {
/upd true def
exit
} if
} forall
} {
/upd true def
} ifelse
} ifelse
} if
} ifelse
upd true eq {
d k v put
} if
} if
} if
} forall
d length 0 gt {
d setpagedevice
} if
} bd
%%EndResource
%%BeginResource: procset (Apache XML Graphics EPS ProcSet) 1.0 0
%%Version: 1.0 0
%%Copyright: (Copyright 2002-2003 The Apache Software Foundation. License terms: http://www.apache.org/licenses/LICENSE-2.0)
/BeginEPSF { %def
/b4_Inc_state save def         % Save state for cleanup
/dict_count countdictstack def % Count objects on dict stack
/op_count count 1 sub def      % Count objects on operand stack
userdict begin                 % Push userdict on dict stack
/showpage { } def              % Redefine showpage, { } = null proc
0 setgray 0 setlinecap         % Prepare graphics state
1 setlinewidth 0 setlinejoin
10 setmiterlimit [ ] 0 setdash newpath
/languagelevel where           % If level not equal to 1 then
{pop languagelevel             % set strokeadjust and
1 ne                           % overprint to their defaults.
{false setstrokeadjust false setoverprint
} if
} if
} bd
/EndEPSF { %def
count op_count sub {pop} repeat            % Clean up stacks
countdictstack dict_count sub {end} repeat
b4_Inc_state restore
} bd
%%EndResource
%FOPBeginFontDict
%%IncludeResource: font Courier-Bold
%%IncludeResource: font Helvetica
%%IncludeResource: font Courier-BoldOblique
%%IncludeResource: font Courier-Oblique
%%IncludeResource: font Times-Roman
%%IncludeResource: font Helvetica-BoldOblique
%%IncludeResource: font Helvetica-Bold
%%IncludeResource: font Helvetica-Oblique
%%IncludeResource: font Times-BoldItalic
%%IncludeResource: font Courier
%%IncludeResource: font Times-Italic
%%IncludeResource: font Times-Bold
%%IncludeResource: font Symbol
%%IncludeResource: font ZapfDingbats
%FOPEndFontDict
%%BeginResource: encoding WinAnsiEncoding
/WinAnsiEncoding [
/.notdef /.notdef /.notdef /.notdef /.notdef
/.notdef /.notdef /.notdef /.notdef /.notdef
/.notdef /.notdef /.notdef /.notdef /.notdef
/.notdef /.notdef /.notdef /.notdef /.notdef
/.notdef /.notdef /.notdef /.notdef /.notdef
/.notdef /.notdef /.notdef /.notdef /.notdef
/.notdef /.notdef /space /exclam /quotedbl
/numbersign /dollar /percent /ampersand /quotesingle
/parenleft /parenright /asterisk /plus /comma
/hyphen /period /slash /zero /one
/two /three /four /five /six
/seven /eight /nine /colon /semicolon
/less /equal /greater /question /at
/A /B /C /D /E
/F /G /H /I /J
/K /L /M /N /O
/P /Q /R /S /T
/U /V /W /X /Y
/Z /bracketleft /backslash /bracketright /asciicircum
/underscore /quoteleft /a /b /c
/d /e /f /g /h
/i /j /k /l /m
/n /o /p /q /r
/s /t /u /v /w
/x /y /z /braceleft /bar
/braceright /asciitilde /bullet /Euro /bullet
/quotesinglbase /florin /quotedblbase /ellipsis /dagger
/daggerdbl /circumflex /perthousand /Scaron /guilsinglleft
/OE /bullet /Zcaron /bullet /bullet
/quoteleft /quoteright /quotedblleft /quotedblright /bullet
/endash /emdash /asciitilde /trademark /scaron
/guilsinglright /oe /bullet /zcaron /Ydieresis
/space /exclamdown /cent /sterling /currency
/yen /brokenbar /section /dieresis /copyright
/ordfeminine /guillemotleft /logicalnot /sfthyphen /registered
/macron /degree /plusminus /twosuperior /threesuperior
/acute /mu /paragraph /middot /cedilla
/onesuperior /ordmasculine /guillemotright /onequarter /onehalf
/threequarters /questiondown /Agrave /Aacute /Acircumflex
/Atilde /Adieresis /Aring /AE /Ccedilla
/Egrave /Eacute /Ecircumflex /Edieresis /Igrave
/Iacute /Icircumflex /Idieresis /Eth /Ntilde
/Ograve /Oacute /Ocircumflex /Otilde /Odieresis
/multiply /Oslash /Ugrave /Uacute /Ucircumflex
/Udieresis /Yacute /Thorn /germandbls /agrave
/aacute /acircumflex /atilde /adieresis /aring
/ae /ccedilla /egrave /eacute /ecircumflex
/edieresis /igrave /iacute /icircumflex /idieresis
/eth /ntilde /ograve /oacute /ocircumflex
/otilde /odieresis /divide /oslash /ugrave
/uacute /ucircumflex /udieresis /yacute /thorn
/ydieresis
] def
%%EndResource
%FOPBeginFontReencode
/Courier-Bold findfont
dup length dict begin
  {1 index /FID ne {def} {pop pop} ifelse} forall
  /Encoding WinAnsiEncoding def
  currentdict
end
/Courier-Bold exch definefont pop
/Helvetica findfont
dup length dict begin
  {1 index /FID ne {def} {pop pop} ifelse} forall
  /Encoding WinAnsiEncoding def
  currentdict
end
/Helvetica exch definefont pop
/Courier-BoldOblique findfont
dup length dict begin
  {1 index /FID ne {def} {pop pop} ifelse} forall
  /Encoding WinAnsiEncoding def
  currentdict
end
/Courier-BoldOblique exch definefont pop
/Courier-Oblique findfont
dup length dict begin
  {1 index /FID ne {def} {pop pop} ifelse} forall
  /Encoding WinAnsiEncoding def
  currentdict
end
/Courier-Oblique exch definefont pop
/Times-Roman findfont
dup length dict begin
  {1 index /FID ne {def} {pop pop} ifelse} forall
  /Encoding WinAnsiEncoding def
  currentdict
end
/Times-Roman exch definefont pop
/Helvetica-BoldOblique findfont
dup length dict begin
  {1 index /FID ne {def} {pop pop} ifelse} forall
  /Encoding WinAnsiEncoding def
  currentdict
end
/Helvetica-BoldOblique exch definefont pop
/Helvetica-Bold findfont
dup length dict begin
  {1 index /FID ne {def} {pop pop} ifelse} forall
  /Encoding WinAnsiEncoding def
  currentdict
end
/Helvetica-Bold exch definefont pop
/Helvetica-Oblique findfont
dup length dict begin
  {1 index /FID ne {def} {pop pop} ifelse} forall
  /Encoding WinAnsiEncoding def
  currentdict
end
/Helvetica-Oblique exch definefont pop
/Times-BoldItalic findfont
dup length dict begin
  {1 index /FID ne {def} {pop pop} ifelse} forall
  /Encoding WinAnsiEncoding def
  currentdict
end
/Times-BoldItalic exch definefont pop
/Courier findfont
dup length dict begin
  {1 index /FID ne {def} {pop pop} ifelse} forall
  /Encoding WinAnsiEncoding def
  currentdict
end
/Courier exch definefont pop
/Times-Italic findfont
dup length dict begin
  {1 index /FID ne {def} {pop pop} ifelse} forall
  /Encoding WinAnsiEncoding def
  currentdict
end
/Times-Italic exch definefont pop
/Times-Bold findfont
dup length dict begin
  {1 index /FID ne {def} {pop pop} ifelse} forall
  /Encoding WinAnsiEncoding def
  currentdict
end
/Times-Bold exch definefont pop
%FOPEndFontReencode
%%EndProlog
%%Page: 1 1
%%PageBoundingBox: 0 0 504 314
%%BeginPageSetup
[1 0 0 -1 0 314] CT
%%EndPageSetup
GS
[0.75 0 0 0.75 0 0.5] CT
N
0 0 M
672 0 L
672 418 L
0 418 L
0 0 L
cp
clip
1 GC
N
0 0 672 418 re
f
GR
GS
[0.75 0 0 0.75 0 0.5] CT
1 GC
N
0 0 672 418 re
f
GR
GS
[0.75 0 0 0.75 0 0.5] CT
1 GC
N
87 372 M
608 372 L
608 31 L
87 31 L
cp
f
GR
GS
[0.75 0 0 0.75 260.62523 297.24999] CT
0.149 GC
/Helvetica 15 F
GS
[1 0 0 1 0 0] CT
-19 14 moveto 
1 -1 scale
(trials) t 
GR
GR
GS
[0.75 0 0 0.75 0 0.5] CT
0.149 GC
2 setlinecap
10.0 ML
N
87 372 M
608 372 L
S
GR
GS
[0.75 0 0 0.75 0 0.5] CT
0.149 GC
2 setlinecap
10.0 ML
N
87 31 M
608 31 L
S
GR
GS
[0.75 0 0 0.75 0 0.5] CT
0.149 GC
2 setlinecap
10.0 ML
N
159.433 372 M
159.433 366.79 L
S
GR
GS
[0.75 0 0 0.75 0 0.5] CT
0.149 GC
2 setlinecap
10.0 ML
N
237.176 372 M
237.176 366.79 L
S
GR
GS
[0.75 0 0 0.75 0 0.5] CT
0.149 GC
2 setlinecap
10.0 ML
N
314.919 372 M
314.919 366.79 L
S
GR
GS
[0.75 0 0 0.75 0 0.5] CT
0.149 GC
2 setlinecap
10.0 ML
N
392.662 372 M
392.662 366.79 L
S
GR
GS
[0.75 0 0 0.75 0 0.5] CT
0.149 GC
2 setlinecap
10.0 ML
N
470.405 372 M
470.405 366.79 L
S
GR
GS
[0.75 0 0 0.75 0 0.5] CT
0.149 GC
2 setlinecap
10.0 ML
N
548.148 372 M
548.148 366.79 L
S
GR
GS
[0.75 0 0 0.75 0 0.5] CT
0.149 GC
2 setlinecap
10.0 ML
N
159.433 31 M
159.433 36.21 L
S
GR
GS
[0.75 0 0 0.75 0 0.5] CT
0.149 GC
2 setlinecap
10.0 ML
N
237.176 31 M
237.176 36.21 L
S
GR
GS
[0.75 0 0 0.75 0 0.5] CT
0.149 GC
2 setlinecap
10.0 ML
N
314.919 31 M
314.919 36.21 L
S
GR
GS
[0.75 0 0 0.75 0 0.5] CT
0.149 GC
2 setlinecap
10.0 ML
N
392.662 31 M
392.662 36.21 L
S
GR
GS
[0.75 0 0 0.75 0 0.5] CT
0.149 GC
2 setlinecap
10.0 ML
N
470.405 31 M
470.405 36.21 L
S
GR
GS
[0.75 0 0 0.75 0 0.5] CT
0.149 GC
2 setlinecap
10.0 ML
N
548.148 31 M
548.148 36.21 L
S
GR
GS
[0.75 0 0 0.75 119.57449 283.49996] CT
0.149 GC
/Helvetica 13 F
GS
[1 0 0 1 0 0] CT
-12.5 13 moveto 
1 -1 scale
(100) t 
GR
GR
GS
[0.75 0 0 0.75 177.88177 283.49996] CT
0.149 GC
/Helvetica 13 F
GS
[1 0 0 1 0 0] CT
-12.5 13 moveto 
1 -1 scale
(105) t 
GR
GR
GS
[0.75 0 0 0.75 236.18905 283.49996] CT
0.149 GC
/Helvetica 13 F
GS
[1 0 0 1 0 0] CT
-12.5 13 moveto 
1 -1 scale
(110) t 
GR
GR
GS
[0.75 0 0 0.75 294.49631 283.49996] CT
0.149 GC
/Helvetica 13 F
GS
[1 0 0 1 0 0] CT
-12.5 13 moveto 
1 -1 scale
(115) t 
GR
GR
GS
[0.75 0 0 0.75 352.80359 283.49996] CT
0.149 GC
/Helvetica 13 F
GS
[1 0 0 1 0 0] CT
-12.5 13 moveto 
1 -1 scale
(120) t 
GR
GR
GS
[0.75 0 0 0.75 411.11087 283.49996] CT
0.149 GC
/Helvetica 13 F
GS
[1 0 0 1 0 0] CT
-12.5 13 moveto 
1 -1 scale
(125) t 
GR
GR
GS
[0 -0.75 0.75 0 42.50001 151.62486] CT
0.149 GC
/Helvetica 15 F
GS
[1 0 0 1 0 0] CT
-48 -4 moveto 
1 -1 scale
(engagement) t 
GR
GR
GS
[0.75 0 0 0.75 0 0.5] CT
0.149 GC
2 setlinecap
10.0 ML
N
87 372 M
87 31 L
S
GR
GS
[0.75 0 0 0.75 0 0.5] CT
0.149 GC
2 setlinecap
10.0 ML
N
608 372 M
608 31 L
S
GR
GS
[0.75 0 0 0.75 0 0.5] CT
0.149 GC
2 setlinecap
10.0 ML
N
87 326.829 M
92.21 326.829 L
S
GR
GS
[0.75 0 0 0.75 0 0.5] CT
0.149 GC
2 setlinecap
10.0 ML
N
87 270.548 M
92.21 270.548 L
S
GR
GS
[0.75 0 0 0.75 0 0.5] CT
0.149 GC
2 setlinecap
10.0 ML
N
87 214.266 M
92.21 214.266 L
S
GR
GS
[0.75 0 0 0.75 0 0.5] CT
0.149 GC
2 setlinecap
10.0 ML
N
87 157.984 M
92.21 157.984 L
S
GR
GS
[0.75 0 0 0.75 0 0.5] CT
0.149 GC
2 setlinecap
10.0 ML
N
87 101.702 M
92.21 101.702 L
S
GR
GS
[0.75 0 0 0.75 0 0.5] CT
0.149 GC
2 setlinecap
10.0 ML
N
87 45.42 M
92.21 45.42 L
S
GR
GS
[0.75 0 0 0.75 0 0.5] CT
0.149 GC
2 setlinecap
10.0 ML
N
608 326.829 M
602.79 326.829 L
S
GR
GS
[0.75 0 0 0.75 0 0.5] CT
0.149 GC
2 setlinecap
10.0 ML
N
608 270.548 M
602.79 270.548 L
S
GR
GS
[0.75 0 0 0.75 0 0.5] CT
0.149 GC
2 setlinecap
10.0 ML
N
608 214.266 M
602.79 214.266 L
S
GR
GS
[0.75 0 0 0.75 0 0.5] CT
0.149 GC
2 setlinecap
10.0 ML
N
608 157.984 M
602.79 157.984 L
S
GR
GS
[0.75 0 0 0.75 0 0.5] CT
0.149 GC
2 setlinecap
10.0 ML
N
608 101.702 M
602.79 101.702 L
S
GR
GS
[0.75 0 0 0.75 0 0.5] CT
0.149 GC
2 setlinecap
10.0 ML
N
608 45.42 M
602.79 45.42 L
S
GR
GS
[0.75 0 0 0.75 61.25004 245.62194] CT
0.149 GC
/Helvetica 13 F
GS
[1 0 0 1 0 0] CT
-21 4.5 moveto 
1 -1 scale
(7.5) t 
GR
GR
GS
[0.75 0 0 0.75 61.25004 203.41064] CT
0.149 GC
/Helvetica 13 F
GS
[1 0 0 1 0 0] CT
-9 4.5 moveto 
1 -1 scale
(8) t 
GR
GR
GS
[0.75 0 0 0.75 61.25004 161.19932] CT
0.149 GC
/Helvetica 13 F
GS
[1 0 0 1 0 0] CT
-21 4.5 moveto 
1 -1 scale
(8.5) t 
GR
GR
GS
[0.75 0 0 0.75 61.25004 118.98801] CT
0.149 GC
/Helvetica 13 F
GS
[1 0 0 1 0 0] CT
-9 4.5 moveto 
1 -1 scale
(9) t 
GR
GR
GS
[0.75 0 0 0.75 61.25004 76.77669] CT
0.149 GC
/Helvetica 13 F
GS
[1 0 0 1 0 0] CT
-21 4.5 moveto 
1 -1 scale
(9.5) t 
GR
GR
GS
[0.75 0 0 0.75 61.25004 34.56537] CT
0.149 GC
/Helvetica 13 F
GS
[1 0 0 1 0 0] CT
-17 4.5 moveto 
1 -1 scale
(10) t 
GR
GR
GS
[0.75 0 0 0.75 0 0.5] CT
2 setlinecap
10.0 ML
1.333 LW
N
86.948 45.42 M
97.238 45.42 L
112.787 45.42 L
128.335 45.42 L
143.884 45.42 L
159.433 45.42 L
174.981 151.714 L
190.53 253.286 L
206.078 108.985 L
221.627 76.249 L
237.176 178.787 L
252.724 243.846 L
268.273 332.215 L
283.822 220.972 L
299.37 177.391 L
314.919 214.2 L
330.467 96.412 L
346.016 179.369 L
361.565 85.705 L
377.113 81.021 L
392.662 125.416 L
408.21 78.747 L
423.759 69.113 L
439.308 84.442 L
454.856 58.201 L
470.405 49.717 L
485.953 46.898 L
501.502 46.019 L
517.051 45.622 L
532.599 45.487 L
548.148 45.442 L
563.696 45.428 L
579.245 45.423 L
594.794 45.421 L
608.052 45.421 L
S
GR
GS
[0.75 0 0 0.75 0 0.5] CT
2 setlinecap
10.0 ML
1.333 LW
N
97.5 50.832 M
101.5 45.5 L
97.5 40.168 L
93.5 45.5 L
97.5 50.832 L
S
GR
GS
[0.75 0 0 0.75 0 0.5] CT
2 setlinecap
10.0 ML
1.333 LW
N
112.5 50.832 M
116.5 45.5 L
112.5 40.168 L
108.5 45.5 L
112.5 50.832 L
S
GR
GS
[0.75 0 0 0.75 0 0.5] CT
2 setlinecap
10.0 ML
1.333 LW
N
128.5 50.832 M
132.5 45.5 L
128.5 40.168 L
124.5 45.5 L
128.5 50.832 L
S
GR
GS
[0.75 0 0 0.75 0 0.5] CT
2 setlinecap
10.0 ML
1.333 LW
N
143.5 50.832 M
147.5 45.5 L
143.5 40.168 L
139.5 45.5 L
143.5 50.832 L
S
GR
GS
[0.75 0 0 0.75 0 0.5] CT
2 setlinecap
10.0 ML
1.333 LW
N
159.5 50.832 M
163.5 45.5 L
159.5 40.168 L
155.5 45.5 L
159.5 50.832 L
S
GR
GS
[0.75 0 0 0.75 0 0.5] CT
2 setlinecap
10.0 ML
1.333 LW
N
174.5 156.832 M
178.5 151.5 L
174.5 146.168 L
170.5 151.5 L
174.5 156.832 L
S
GR
GS
[0.75 0 0 0.75 0 0.5] CT
2 setlinecap
10.0 ML
1.333 LW
N
190.5 258.832 M
194.5 253.5 L
190.5 248.168 L
186.5 253.5 L
190.5 258.832 L
S
GR
GS
[0.75 0 0 0.75 0 0.5] CT
2 setlinecap
10.0 ML
1.333 LW
N
206.5 113.832 M
210.5 108.5 L
206.5 103.168 L
202.5 108.5 L
206.5 113.832 L
S
GR
GS
[0.75 0 0 0.75 0 0.5] CT
2 setlinecap
10.0 ML
1.333 LW
N
221.5 81.832 M
225.5 76.5 L
221.5 71.168 L
217.5 76.5 L
221.5 81.832 L
S
GR
GS
[0.75 0 0 0.75 0 0.5] CT
2 setlinecap
10.0 ML
1.333 LW
N
237.5 183.832 M
241.5 178.5 L
237.5 173.168 L
233.5 178.5 L
237.5 183.832 L
S
GR
GS
[0.75 0 0 0.75 0 0.5] CT
2 setlinecap
10.0 ML
1.333 LW
N
252.5 248.832 M
256.5 243.5 L
252.5 238.168 L
248.5 243.5 L
252.5 248.832 L
S
GR
GS
[0.75 0 0 0.75 0 0.5] CT
2 setlinecap
10.0 ML
1.333 LW
N
268.5 337.832 M
272.5 332.5 L
268.5 327.168 L
264.5 332.5 L
268.5 337.832 L
S
GR
GS
[0.75 0 0 0.75 0 0.5] CT
2 setlinecap
10.0 ML
1.333 LW
N
283.5 225.832 M
287.5 220.5 L
283.5 215.168 L
279.5 220.5 L
283.5 225.832 L
S
GR
GS
[0.75 0 0 0.75 0 0.5] CT
2 setlinecap
10.0 ML
1.333 LW
N
299.5 182.832 M
303.5 177.5 L
299.5 172.168 L
295.5 177.5 L
299.5 182.832 L
S
GR
GS
[0.75 0 0 0.75 0 0.5] CT
2 setlinecap
10.0 ML
1.333 LW
N
314.5 219.832 M
318.5 214.5 L
314.5 209.168 L
310.5 214.5 L
314.5 219.832 L
S
GR
GS
[0.75 0 0 0.75 0 0.5] CT
2 setlinecap
10.0 ML
1.333 LW
N
330.5 101.832 M
334.5 96.5 L
330.5 91.168 L
326.5 96.5 L
330.5 101.832 L
S
GR
GS
[0.75 0 0 0.75 0 0.5] CT
2 setlinecap
10.0 ML
1.333 LW
N
346.5 184.832 M
350.5 179.5 L
346.5 174.168 L
342.5 179.5 L
346.5 184.832 L
S
GR
GS
[0.75 0 0 0.75 0 0.5] CT
2 setlinecap
10.0 ML
1.333 LW
N
361.5 90.832 M
365.5 85.5 L
361.5 80.168 L
357.5 85.5 L
361.5 90.832 L
S
GR
GS
[0.75 0 0 0.75 0 0.5] CT
2 setlinecap
10.0 ML
1.333 LW
N
377.5 86.832 M
381.5 81.5 L
377.5 76.168 L
373.5 81.5 L
377.5 86.832 L
S
GR
GS
[0.75 0 0 0.75 0 0.5] CT
2 setlinecap
10.0 ML
1.333 LW
N
392.5 130.832 M
396.5 125.5 L
392.5 120.168 L
388.5 125.5 L
392.5 130.832 L
S
GR
GS
[0.75 0 0 0.75 0 0.5] CT
2 setlinecap
10.0 ML
1.333 LW
N
408.5 83.832 M
412.5 78.5 L
408.5 73.168 L
404.5 78.5 L
408.5 83.832 L
S
GR
GS
[0.75 0 0 0.75 0 0.5] CT
2 setlinecap
10.0 ML
1.333 LW
N
423.5 74.832 M
427.5 69.5 L
423.5 64.168 L
419.5 69.5 L
423.5 74.832 L
S
GR
GS
[0.75 0 0 0.75 0 0.5] CT
2 setlinecap
10.0 ML
1.333 LW
N
439.5 89.832 M
443.5 84.5 L
439.5 79.168 L
435.5 84.5 L
439.5 89.832 L
S
GR
GS
[0.75 0 0 0.75 0 0.5] CT
2 setlinecap
10.0 ML
1.333 LW
N
454.5 63.832 M
458.5 58.5 L
454.5 53.168 L
450.5 58.5 L
454.5 63.832 L
S
GR
GS
[0.75 0 0 0.75 0 0.5] CT
2 setlinecap
10.0 ML
1.333 LW
N
470.5 54.832 M
474.5 49.5 L
470.5 44.168 L
466.5 49.5 L
470.5 54.832 L
S
GR
GS
[0.75 0 0 0.75 0 0.5] CT
2 setlinecap
10.0 ML
1.333 LW
N
485.5 51.832 M
489.5 46.5 L
485.5 41.168 L
481.5 46.5 L
485.5 51.832 L
S
GR
GS
[0.75 0 0 0.75 0 0.5] CT
2 setlinecap
10.0 ML
1.333 LW
N
501.5 51.832 M
505.5 46.5 L
501.5 41.168 L
497.5 46.5 L
501.5 51.832 L
S
GR
GS
[0.75 0 0 0.75 0 0.5] CT
2 setlinecap
10.0 ML
1.333 LW
N
517.5 50.832 M
521.5 45.5 L
517.5 40.168 L
513.5 45.5 L
517.5 50.832 L
S
GR
GS
[0.75 0 0 0.75 0 0.5] CT
2 setlinecap
10.0 ML
1.333 LW
N
532.5 50.832 M
536.5 45.5 L
532.5 40.168 L
528.5 45.5 L
532.5 50.832 L
S
GR
GS
[0.75 0 0 0.75 0 0.5] CT
2 setlinecap
10.0 ML
1.333 LW
N
548.5 50.832 M
552.5 45.5 L
548.5 40.168 L
544.5 45.5 L
548.5 50.832 L
S
GR
GS
[0.75 0 0 0.75 0 0.5] CT
2 setlinecap
10.0 ML
1.333 LW
N
563.5 50.832 M
567.5 45.5 L
563.5 40.168 L
559.5 45.5 L
563.5 50.832 L
S
GR
GS
[0.75 0 0 0.75 0 0.5] CT
2 setlinecap
10.0 ML
1.333 LW
N
579.5 50.832 M
583.5 45.5 L
579.5 40.168 L
575.5 45.5 L
579.5 50.832 L
S
GR
GS
[0.75 0 0 0.75 0 0.5] CT
2 setlinecap
10.0 ML
1.333 LW
N
594.5 50.832 M
598.5 45.5 L
594.5 40.168 L
590.5 45.5 L
594.5 50.832 L
S
GR
GS
[0.75 0 0 0.75 0 0.5] CT
[10 6] 0 setdash
2 LJ
1.333 LW
N
86.948 45.42 M
97.238 45.42 L
112.787 45.42 L
128.335 45.42 L
143.884 45.42 L
159.433 45.42 L
174.981 119.299 L
190.53 224.244 L
206.078 105.484 L
221.627 77.473 L
237.176 185.993 L
252.724 261.383 L
268.273 351.176 L
283.822 328.354 L
299.37 253.634 L
314.919 225.696 L
330.467 122.772 L
346.016 192.169 L
361.565 104.939 L
377.113 93.621 L
392.662 119.858 L
408.21 89.154 L
423.759 78.212 L
439.308 67.143 L
454.856 57.723 L
470.405 52.471 L
485.953 48.133 L
501.502 46.574 L
517.051 46.18 L
532.599 45.845 L
548.148 45.584 L
563.696 45.504 L
579.245 45.461 L
594.794 45.447 L
608.052 45.437 L
S
GR
GS
[0.75 0 0 0.75 0 0.5] CT
2 setlinecap
10.0 ML
1.333 LW
N
93.696 44.264 M
96.56 44.264 L
97.5 41.5 L
98.44 44.264 L
101.304 44.264 L
99.022 45.994 L
99.851 48.736 L
97.5 47.1 L
95.149 48.736 L
95.978 45.994 L
93.696 44.264 L
S
GR
GS
[0.75 0 0 0.75 0 0.5] CT
2 setlinecap
10.0 ML
1.333 LW
N
108.696 44.264 M
111.56 44.264 L
112.5 41.5 L
113.44 44.264 L
116.304 44.264 L
114.022 45.994 L
114.851 48.736 L
112.5 47.1 L
110.149 48.736 L
110.978 45.994 L
108.696 44.264 L
S
GR
GS
[0.75 0 0 0.75 0 0.5] CT
2 setlinecap
10.0 ML
1.333 LW
N
124.696 44.264 M
127.56 44.264 L
128.5 41.5 L
129.44 44.264 L
132.304 44.264 L
130.022 45.994 L
130.851 48.736 L
128.5 47.1 L
126.149 48.736 L
126.978 45.994 L
124.696 44.264 L
S
GR
GS
[0.75 0 0 0.75 0 0.5] CT
2 setlinecap
10.0 ML
1.333 LW
N
139.696 44.264 M
142.56 44.264 L
143.5 41.5 L
144.44 44.264 L
147.304 44.264 L
145.022 45.994 L
145.851 48.736 L
143.5 47.1 L
141.149 48.736 L
141.978 45.994 L
139.696 44.264 L
S
GR
GS
[0.75 0 0 0.75 0 0.5] CT
2 setlinecap
10.0 ML
1.333 LW
N
155.696 44.264 M
158.56 44.264 L
159.5 41.5 L
160.44 44.264 L
163.304 44.264 L
161.022 45.994 L
161.851 48.736 L
159.5 47.1 L
157.149 48.736 L
157.978 45.994 L
155.696 44.264 L
S
GR
GS
[0.75 0 0 0.75 0 0.5] CT
2 setlinecap
10.0 ML
1.333 LW
N
170.696 118.264 M
173.56 118.264 L
174.5 115.5 L
175.44 118.264 L
178.304 118.264 L
176.022 119.994 L
176.851 122.736 L
174.5 121.1 L
172.149 122.736 L
172.978 119.994 L
170.696 118.264 L
S
GR
GS
[0.75 0 0 0.75 0 0.5] CT
2 setlinecap
10.0 ML
1.333 LW
N
186.696 223.264 M
189.56 223.264 L
190.5 220.5 L
191.44 223.264 L
194.304 223.264 L
192.022 224.994 L
192.851 227.736 L
190.5 226.1 L
188.149 227.736 L
188.978 224.994 L
186.696 223.264 L
S
GR
GS
[0.75 0 0 0.75 0 0.5] CT
2 setlinecap
10.0 ML
1.333 LW
N
202.696 104.264 M
205.56 104.264 L
206.5 101.5 L
207.44 104.264 L
210.304 104.264 L
208.022 105.994 L
208.851 108.736 L
206.5 107.1 L
204.149 108.736 L
204.978 105.994 L
202.696 104.264 L
S
GR
GS
[0.75 0 0 0.75 0 0.5] CT
2 setlinecap
10.0 ML
1.333 LW
N
217.696 76.264 M
220.56 76.264 L
221.5 73.5 L
222.44 76.264 L
225.304 76.264 L
223.022 77.994 L
223.851 80.736 L
221.5 79.1 L
219.149 80.736 L
219.978 77.994 L
217.696 76.264 L
S
GR
GS
[0.75 0 0 0.75 0 0.5] CT
2 setlinecap
10.0 ML
1.333 LW
N
233.696 184.264 M
236.56 184.264 L
237.5 181.5 L
238.44 184.264 L
241.304 184.264 L
239.022 185.994 L
239.851 188.736 L
237.5 187.1 L
235.149 188.736 L
235.978 185.994 L
233.696 184.264 L
S
GR
GS
[0.75 0 0 0.75 0 0.5] CT
2 setlinecap
10.0 ML
1.333 LW
N
248.696 260.264 M
251.56 260.264 L
252.5 257.5 L
253.44 260.264 L
256.304 260.264 L
254.022 261.994 L
254.851 264.736 L
252.5 263.1 L
250.149 264.736 L
250.978 261.994 L
248.696 260.264 L
S
GR
GS
[0.75 0 0 0.75 0 0.5] CT
2 setlinecap
10.0 ML
1.333 LW
N
264.696 350.264 M
267.56 350.264 L
268.5 347.5 L
269.44 350.264 L
272.304 350.264 L
270.022 351.994 L
270.851 354.736 L
268.5 353.1 L
266.149 354.736 L
266.978 351.994 L
264.696 350.264 L
S
GR
GS
[0.75 0 0 0.75 0 0.5] CT
2 setlinecap
10.0 ML
1.333 LW
N
279.696 327.264 M
282.56 327.264 L
283.5 324.5 L
284.44 327.264 L
287.304 327.264 L
285.022 328.994 L
285.851 331.736 L
283.5 330.1 L
281.149 331.736 L
281.978 328.994 L
279.696 327.264 L
S
GR
GS
[0.75 0 0 0.75 0 0.5] CT
2 setlinecap
10.0 ML
1.333 LW
N
295.696 252.264 M
298.56 252.264 L
299.5 249.5 L
300.44 252.264 L
303.304 252.264 L
301.022 253.994 L
301.851 256.736 L
299.5 255.1 L
297.149 256.736 L
297.978 253.994 L
295.696 252.264 L
S
GR
GS
[0.75 0 0 0.75 0 0.5] CT
2 setlinecap
10.0 ML
1.333 LW
N
310.696 224.264 M
313.56 224.264 L
314.5 221.5 L
315.44 224.264 L
318.304 224.264 L
316.022 225.994 L
316.851 228.736 L
314.5 227.1 L
312.149 228.736 L
312.978 225.994 L
310.696 224.264 L
S
GR
GS
[0.75 0 0 0.75 0 0.5] CT
2 setlinecap
10.0 ML
1.333 LW
N
326.696 121.264 M
329.56 121.264 L
330.5 118.5 L
331.44 121.264 L
334.304 121.264 L
332.022 122.994 L
332.851 125.736 L
330.5 124.1 L
328.149 125.736 L
328.978 122.994 L
326.696 121.264 L
S
GR
GS
[0.75 0 0 0.75 0 0.5] CT
2 setlinecap
10.0 ML
1.333 LW
N
342.696 191.264 M
345.56 191.264 L
346.5 188.5 L
347.44 191.264 L
350.304 191.264 L
348.022 192.994 L
348.851 195.736 L
346.5 194.1 L
344.149 195.736 L
344.978 192.994 L
342.696 191.264 L
S
GR
GS
[0.75 0 0 0.75 0 0.5] CT
2 setlinecap
10.0 ML
1.333 LW
N
357.696 103.264 M
360.56 103.264 L
361.5 100.5 L
362.44 103.264 L
365.304 103.264 L
363.022 104.994 L
363.851 107.736 L
361.5 106.1 L
359.149 107.736 L
359.978 104.994 L
357.696 103.264 L
S
GR
GS
[0.75 0 0 0.75 0 0.5] CT
2 setlinecap
10.0 ML
1.333 LW
N
373.696 92.264 M
376.56 92.264 L
377.5 89.5 L
378.44 92.264 L
381.304 92.264 L
379.022 93.994 L
379.851 96.736 L
377.5 95.1 L
375.149 96.736 L
375.978 93.994 L
373.696 92.264 L
S
GR
GS
[0.75 0 0 0.75 0 0.5] CT
2 setlinecap
10.0 ML
1.333 LW
N
388.696 118.264 M
391.56 118.264 L
392.5 115.5 L
393.44 118.264 L
396.304 118.264 L
394.022 119.994 L
394.851 122.736 L
392.5 121.1 L
390.149 122.736 L
390.978 119.994 L
388.696 118.264 L
S
GR
GS
[0.75 0 0 0.75 0 0.5] CT
2 setlinecap
10.0 ML
1.333 LW
N
404.696 88.264 M
407.56 88.264 L
408.5 85.5 L
409.44 88.264 L
412.304 88.264 L
410.022 89.994 L
410.851 92.736 L
408.5 91.1 L
406.149 92.736 L
406.978 89.994 L
404.696 88.264 L
S
GR
GS
[0.75 0 0 0.75 0 0.5] CT
2 setlinecap
10.0 ML
1.333 LW
N
419.696 77.264 M
422.56 77.264 L
423.5 74.5 L
424.44 77.264 L
427.304 77.264 L
425.022 78.994 L
425.851 81.736 L
423.5 80.1 L
421.149 81.736 L
421.978 78.994 L
419.696 77.264 L
S
GR
GS
[0.75 0 0 0.75 0 0.5] CT
2 setlinecap
10.0 ML
1.333 LW
N
435.696 66.264 M
438.56 66.264 L
439.5 63.5 L
440.44 66.264 L
443.304 66.264 L
441.022 67.994 L
441.851 70.736 L
439.5 69.1 L
437.149 70.736 L
437.978 67.994 L
435.696 66.264 L
S
GR
GS
[0.75 0 0 0.75 0 0.5] CT
2 setlinecap
10.0 ML
1.333 LW
N
450.696 56.264 M
453.56 56.264 L
454.5 53.5 L
455.44 56.264 L
458.304 56.264 L
456.022 57.994 L
456.851 60.736 L
454.5 59.1 L
452.149 60.736 L
452.978 57.994 L
450.696 56.264 L
S
GR
GS
[0.75 0 0 0.75 0 0.5] CT
2 setlinecap
10.0 ML
1.333 LW
N
466.696 51.264 M
469.56 51.264 L
470.5 48.5 L
471.44 51.264 L
474.304 51.264 L
472.022 52.994 L
472.851 55.736 L
470.5 54.1 L
468.149 55.736 L
468.978 52.994 L
466.696 51.264 L
S
GR
GS
[0.75 0 0 0.75 0 0.5] CT
2 setlinecap
10.0 ML
1.333 LW
N
481.696 47.264 M
484.56 47.264 L
485.5 44.5 L
486.44 47.264 L
489.304 47.264 L
487.022 48.994 L
487.851 51.736 L
485.5 50.1 L
483.149 51.736 L
483.978 48.994 L
481.696 47.264 L
S
GR
GS
[0.75 0 0 0.75 0 0.5] CT
2 setlinecap
10.0 ML
1.333 LW
N
497.696 45.264 M
500.56 45.264 L
501.5 42.5 L
502.44 45.264 L
505.304 45.264 L
503.022 46.994 L
503.851 49.736 L
501.5 48.1 L
499.149 49.736 L
499.978 46.994 L
497.696 45.264 L
S
GR
GS
[0.75 0 0 0.75 0 0.5] CT
2 setlinecap
10.0 ML
1.333 LW
N
513.696 45.264 M
516.56 45.264 L
517.5 42.5 L
518.44 45.264 L
521.304 45.264 L
519.022 46.994 L
519.851 49.736 L
517.5 48.1 L
515.149 49.736 L
515.978 46.994 L
513.696 45.264 L
S
GR
GS
[0.75 0 0 0.75 0 0.5] CT
2 setlinecap
10.0 ML
1.333 LW
N
528.696 44.264 M
531.56 44.264 L
532.5 41.5 L
533.44 44.264 L
536.304 44.264 L
534.022 45.994 L
534.851 48.736 L
532.5 47.1 L
530.149 48.736 L
530.978 45.994 L
528.696 44.264 L
S
GR
GS
[0.75 0 0 0.75 0 0.5] CT
2 setlinecap
10.0 ML
1.333 LW
N
544.696 44.264 M
547.56 44.264 L
548.5 41.5 L
549.44 44.264 L
552.304 44.264 L
550.022 45.994 L
550.851 48.736 L
548.5 47.1 L
546.149 48.736 L
546.978 45.994 L
544.696 44.264 L
S
GR
GS
[0.75 0 0 0.75 0 0.5] CT
2 setlinecap
10.0 ML
1.333 LW
N
559.696 44.264 M
562.56 44.264 L
563.5 41.5 L
564.44 44.264 L
567.304 44.264 L
565.022 45.994 L
565.851 48.736 L
563.5 47.1 L
561.149 48.736 L
561.978 45.994 L
559.696 44.264 L
S
GR
GS
[0.75 0 0 0.75 0 0.5] CT
2 setlinecap
10.0 ML
1.333 LW
N
575.696 44.264 M
578.56 44.264 L
579.5 41.5 L
580.44 44.264 L
583.304 44.264 L
581.022 45.994 L
581.851 48.736 L
579.5 47.1 L
577.149 48.736 L
577.978 45.994 L
575.696 44.264 L
S
GR
GS
[0.75 0 0 0.75 0 0.5] CT
2 setlinecap
10.0 ML
1.333 LW
N
590.696 44.264 M
593.56 44.264 L
594.5 41.5 L
595.44 44.264 L
598.304 44.264 L
596.022 45.994 L
596.851 48.736 L
594.5 47.1 L
592.149 48.736 L
592.978 45.994 L
590.696 44.264 L
S
GR
GS
[0.75 0 0 0.75 0 0.5] CT
1 GC
N
463 335 M
463 299 L
580 299 L
580 335 L
cp
f
GR
GS
[0.75 0 0 0.75 386.25 232.37499] CT
/Helvetica 12 F
GS
[1 0 0 1 0 0] CT
0 4.5 moveto 
1 -1 scale
(real) t 
GR
GR
GS
[0.75 0 0 0.75 0 0.5] CT
2 setlinecap
10.0 ML
1.333 LW
N
471 309.167 M
511 309.167 L
S
GR
GS
[0.75 0 0 0.75 0 0.5] CT
2 setlinecap
10.0 ML
1.333 LW
N
491.5 314.832 M
495.5 309.5 L
491.5 304.168 L
487.5 309.5 L
491.5 314.832 L
S
GR
GS
[0.75 0 0 0.75 386.25 244.12501] CT
/Helvetica 12 F
GS
[1 0 0 1 0 0] CT
0 4.5 moveto 
1 -1 scale
(estimated) t 
GR
GR
GS
[0.75 0 0 0.75 0 0.5] CT
[10 6] 0 setdash
2 LJ
1.333 LW
N
471 324.833 M
511 324.833 L
S
GR
GS
[0.75 0 0 0.75 0 0.5] CT
2 setlinecap
10.0 ML
1.333 LW
N
487.696 323.264 M
490.56 323.264 L
491.5 320.5 L
492.44 323.264 L
495.304 323.264 L
493.022 324.994 L
493.851 327.736 L
491.5 326.1 L
489.149 327.736 L
489.978 324.994 L
487.696 323.264 L
S
GR
GS
[0.75 0 0 0.75 0 0.5] CT
0.149 GC
2 setlinecap
10.0 ML
N
463 335 M
463 299 L
580 299 L
580 335 L
463 335 L
S
GR
%%Trailer
%%Pages: 1
%%EOF
