%!PS-Adobe-3.0 EPSF-3.0
%%Creator: (MATLAB, The Mathworks, Inc. Version 8.5.0.197613 \(R2015a\). Operating System: Linux)
%%Title: /home/theodore/Documents/ECE/diplomatiki/Engagement_Estimation/4paramPerturbation_iterate_through_pert_length/results/boxplots/engagement_parameter_MAD_values.eps
%%CreationDate: 2017-05-14T17:54:21
%%Pages: (atend)
%%BoundingBox: 0 0 894 334
%%LanguageLevel: 2
%%EndComments
%%BeginProlog
%%BeginResource: procset (Apache XML Graphics Std ProcSet) 1.2 0
%%Version: 1.2 0
%%Copyright: (Copyright 2001-2003,2010 The Apache Software Foundation. License terms: http://www.apache.org/licenses/LICENSE-2.0)
/bd{bind def}bind def
/ld{load def}bd
/GR/grestore ld
/M/moveto ld
/LJ/setlinejoin ld
/C/curveto ld
/f/fill ld
/LW/setlinewidth ld
/GC/setgray ld
/t/show ld
/N/newpath ld
/CT/concat ld
/cp/closepath ld
/S/stroke ld
/L/lineto ld
/CC/setcmykcolor ld
/A/ashow ld
/GS/gsave ld
/RC/setrgbcolor ld
/RM/rmoveto ld
/ML/setmiterlimit ld
/re {4 2 roll M
1 index 0 rlineto
0 exch rlineto
neg 0 rlineto
cp } bd
/_ctm matrix def
/_tm matrix def
/BT { _ctm currentmatrix pop matrix _tm copy pop 0 0 moveto } bd
/ET { _ctm setmatrix } bd
/iTm { _ctm setmatrix _tm concat } bd
/Tm { _tm astore pop iTm 0 0 moveto } bd
/ux 0.0 def
/uy 0.0 def
/F {
  /Tp exch def
  /Tf exch def
  Tf findfont Tp scalefont setfont
  /cf Tf def  /cs Tp def
} bd
/ULS {currentpoint /uy exch def /ux exch def} bd
/ULE {
  /Tcx currentpoint pop def
  gsave
  newpath
  cf findfont cs scalefont dup
  /FontMatrix get 0 get /Ts exch def /FontInfo get dup
  /UnderlinePosition get Ts mul /To exch def
  /UnderlineThickness get Ts mul /Tt exch def
  ux uy To add moveto  Tcx uy To add lineto
  Tt setlinewidth stroke
  grestore
} bd
/OLE {
  /Tcx currentpoint pop def
  gsave
  newpath
  cf findfont cs scalefont dup
  /FontMatrix get 0 get /Ts exch def /FontInfo get dup
  /UnderlinePosition get Ts mul /To exch def
  /UnderlineThickness get Ts mul /Tt exch def
  ux uy To add cs add moveto Tcx uy To add cs add lineto
  Tt setlinewidth stroke
  grestore
} bd
/SOE {
  /Tcx currentpoint pop def
  gsave
  newpath
  cf findfont cs scalefont dup
  /FontMatrix get 0 get /Ts exch def /FontInfo get dup
  /UnderlinePosition get Ts mul /To exch def
  /UnderlineThickness get Ts mul /Tt exch def
  ux uy To add cs 10 mul 26 idiv add moveto Tcx uy To add cs 10 mul 26 idiv add lineto
  Tt setlinewidth stroke
  grestore
} bd
/QT {
/Y22 exch store
/X22 exch store
/Y21 exch store
/X21 exch store
currentpoint
/Y21 load 2 mul add 3 div exch
/X21 load 2 mul add 3 div exch
/X21 load 2 mul /X22 load add 3 div
/Y21 load 2 mul /Y22 load add 3 div
/X22 load /Y22 load curveto
} bd
/SSPD {
dup length /d exch dict def
{
/v exch def
/k exch def
currentpagedevice k known {
/cpdv currentpagedevice k get def
v cpdv ne {
/upd false def
/nullv v type /nulltype eq def
/nullcpdv cpdv type /nulltype eq def
nullv nullcpdv or
{
/upd true def
} {
/sametype v type cpdv type eq def
sametype {
v type /arraytype eq {
/vlen v length def
/cpdvlen cpdv length def
vlen cpdvlen eq {
0 1 vlen 1 sub {
/i exch def
/obj v i get def
/cpdobj cpdv i get def
obj cpdobj ne {
/upd true def
exit
} if
} for
} {
/upd true def
} ifelse
} {
v type /dicttype eq {
v {
/dv exch def
/dk exch def
/cpddv cpdv dk get def
dv cpddv ne {
/upd true def
exit
} if
} forall
} {
/upd true def
} ifelse
} ifelse
} if
} ifelse
upd true eq {
d k v put
} if
} if
} if
} forall
d length 0 gt {
d setpagedevice
} if
} bd
%%EndResource
%%BeginResource: procset (Apache XML Graphics EPS ProcSet) 1.0 0
%%Version: 1.0 0
%%Copyright: (Copyright 2002-2003 The Apache Software Foundation. License terms: http://www.apache.org/licenses/LICENSE-2.0)
/BeginEPSF { %def
/b4_Inc_state save def         % Save state for cleanup
/dict_count countdictstack def % Count objects on dict stack
/op_count count 1 sub def      % Count objects on operand stack
userdict begin                 % Push userdict on dict stack
/showpage { } def              % Redefine showpage, { } = null proc
0 setgray 0 setlinecap         % Prepare graphics state
1 setlinewidth 0 setlinejoin
10 setmiterlimit [ ] 0 setdash newpath
/languagelevel where           % If level not equal to 1 then
{pop languagelevel             % set strokeadjust and
1 ne                           % overprint to their defaults.
{false setstrokeadjust false setoverprint
} if
} if
} bd
/EndEPSF { %def
count op_count sub {pop} repeat            % Clean up stacks
countdictstack dict_count sub {end} repeat
b4_Inc_state restore
} bd
%%EndResource
%FOPBeginFontDict
%%IncludeResource: font Courier-Bold
%%IncludeResource: font Helvetica
%%IncludeResource: font Courier-BoldOblique
%%IncludeResource: font Courier-Oblique
%%IncludeResource: font Times-Roman
%%IncludeResource: font Helvetica-BoldOblique
%%IncludeResource: font Helvetica-Bold
%%IncludeResource: font Helvetica-Oblique
%%IncludeResource: font Times-BoldItalic
%%IncludeResource: font Courier
%%IncludeResource: font Times-Italic
%%IncludeResource: font Times-Bold
%%IncludeResource: font Symbol
%%IncludeResource: font ZapfDingbats
%FOPEndFontDict
%%BeginResource: encoding WinAnsiEncoding
/WinAnsiEncoding [
/.notdef /.notdef /.notdef /.notdef /.notdef
/.notdef /.notdef /.notdef /.notdef /.notdef
/.notdef /.notdef /.notdef /.notdef /.notdef
/.notdef /.notdef /.notdef /.notdef /.notdef
/.notdef /.notdef /.notdef /.notdef /.notdef
/.notdef /.notdef /.notdef /.notdef /.notdef
/.notdef /.notdef /space /exclam /quotedbl
/numbersign /dollar /percent /ampersand /quotesingle
/parenleft /parenright /asterisk /plus /comma
/hyphen /period /slash /zero /one
/two /three /four /five /six
/seven /eight /nine /colon /semicolon
/less /equal /greater /question /at
/A /B /C /D /E
/F /G /H /I /J
/K /L /M /N /O
/P /Q /R /S /T
/U /V /W /X /Y
/Z /bracketleft /backslash /bracketright /asciicircum
/underscore /quoteleft /a /b /c
/d /e /f /g /h
/i /j /k /l /m
/n /o /p /q /r
/s /t /u /v /w
/x /y /z /braceleft /bar
/braceright /asciitilde /bullet /Euro /bullet
/quotesinglbase /florin /quotedblbase /ellipsis /dagger
/daggerdbl /circumflex /perthousand /Scaron /guilsinglleft
/OE /bullet /Zcaron /bullet /bullet
/quoteleft /quoteright /quotedblleft /quotedblright /bullet
/endash /emdash /asciitilde /trademark /scaron
/guilsinglright /oe /bullet /zcaron /Ydieresis
/space /exclamdown /cent /sterling /currency
/yen /brokenbar /section /dieresis /copyright
/ordfeminine /guillemotleft /logicalnot /sfthyphen /registered
/macron /degree /plusminus /twosuperior /threesuperior
/acute /mu /paragraph /middot /cedilla
/onesuperior /ordmasculine /guillemotright /onequarter /onehalf
/threequarters /questiondown /Agrave /Aacute /Acircumflex
/Atilde /Adieresis /Aring /AE /Ccedilla
/Egrave /Eacute /Ecircumflex /Edieresis /Igrave
/Iacute /Icircumflex /Idieresis /Eth /Ntilde
/Ograve /Oacute /Ocircumflex /Otilde /Odieresis
/multiply /Oslash /Ugrave /Uacute /Ucircumflex
/Udieresis /Yacute /Thorn /germandbls /agrave
/aacute /acircumflex /atilde /adieresis /aring
/ae /ccedilla /egrave /eacute /ecircumflex
/edieresis /igrave /iacute /icircumflex /idieresis
/eth /ntilde /ograve /oacute /ocircumflex
/otilde /odieresis /divide /oslash /ugrave
/uacute /ucircumflex /udieresis /yacute /thorn
/ydieresis
] def
%%EndResource
%FOPBeginFontReencode
/Courier-Bold findfont
dup length dict begin
  {1 index /FID ne {def} {pop pop} ifelse} forall
  /Encoding WinAnsiEncoding def
  currentdict
end
/Courier-Bold exch definefont pop
/Helvetica findfont
dup length dict begin
  {1 index /FID ne {def} {pop pop} ifelse} forall
  /Encoding WinAnsiEncoding def
  currentdict
end
/Helvetica exch definefont pop
/Courier-BoldOblique findfont
dup length dict begin
  {1 index /FID ne {def} {pop pop} ifelse} forall
  /Encoding WinAnsiEncoding def
  currentdict
end
/Courier-BoldOblique exch definefont pop
/Courier-Oblique findfont
dup length dict begin
  {1 index /FID ne {def} {pop pop} ifelse} forall
  /Encoding WinAnsiEncoding def
  currentdict
end
/Courier-Oblique exch definefont pop
/Times-Roman findfont
dup length dict begin
  {1 index /FID ne {def} {pop pop} ifelse} forall
  /Encoding WinAnsiEncoding def
  currentdict
end
/Times-Roman exch definefont pop
/Helvetica-BoldOblique findfont
dup length dict begin
  {1 index /FID ne {def} {pop pop} ifelse} forall
  /Encoding WinAnsiEncoding def
  currentdict
end
/Helvetica-BoldOblique exch definefont pop
/Helvetica-Bold findfont
dup length dict begin
  {1 index /FID ne {def} {pop pop} ifelse} forall
  /Encoding WinAnsiEncoding def
  currentdict
end
/Helvetica-Bold exch definefont pop
/Helvetica-Oblique findfont
dup length dict begin
  {1 index /FID ne {def} {pop pop} ifelse} forall
  /Encoding WinAnsiEncoding def
  currentdict
end
/Helvetica-Oblique exch definefont pop
/Times-BoldItalic findfont
dup length dict begin
  {1 index /FID ne {def} {pop pop} ifelse} forall
  /Encoding WinAnsiEncoding def
  currentdict
end
/Times-BoldItalic exch definefont pop
/Courier findfont
dup length dict begin
  {1 index /FID ne {def} {pop pop} ifelse} forall
  /Encoding WinAnsiEncoding def
  currentdict
end
/Courier exch definefont pop
/Times-Italic findfont
dup length dict begin
  {1 index /FID ne {def} {pop pop} ifelse} forall
  /Encoding WinAnsiEncoding def
  currentdict
end
/Times-Italic exch definefont pop
/Times-Bold findfont
dup length dict begin
  {1 index /FID ne {def} {pop pop} ifelse} forall
  /Encoding WinAnsiEncoding def
  currentdict
end
/Times-Bold exch definefont pop
%FOPEndFontReencode
%%EndProlog
%%Page: 1 1
%%PageBoundingBox: 0 0 894 334
%%BeginPageSetup
[1 0 0 -1 0 334] CT
%%EndPageSetup
GS
[0.75 0 0 0.75 0 0.25] CT
1 GC
N
0 0 1192 445 re
f
GR
GS
[0.75 0 0 0.75 0 0.25] CT
1 GC
N
0 0 1192 445 re
f
GR
GS
[0.75 0 0 0.75 447 16.9375] CT
/Helvetica 19 F
GS
[1 0 0 1 0 0] CT
-56 6.5 moveto 
1 -1 scale
(MAD values) t 
GR
GR
GS
[0.75 0 0 0.75 0 0.25] CT
1 GC
N
198 399 M
553 399 L
553 47 L
198 47 L
cp
f
GR
GS
[0.75 0 0 0.75 281.62514 317.24999] CT
0.149 GC
/Helvetica 15 F
GS
[1 0 0 1 0 0] CT
-149.5 14 moveto 
1 -1 scale
(perturbation duration \(number of trials\)) t 
GR
GR
GS
[0.75 0 0 0.75 0 0.25] CT
0.149 GC
2 setlinecap
10.0 ML
N
198 399 M
553 399 L
S
GR
GS
[0.75 0 0 0.75 0 0.25] CT
0.149 GC
2 setlinecap
10.0 ML
N
198 47 M
553 47 L
S
GR
GS
[0.75 0 0 0.75 0 0.25] CT
0.149 GC
2 setlinecap
10.0 ML
N
215.75 399 M
215.75 395.45 L
S
GR
GS
[0.75 0 0 0.75 0 0.25] CT
0.149 GC
2 setlinecap
10.0 ML
N
251.25 399 M
251.25 395.45 L
S
GR
GS
[0.75 0 0 0.75 0 0.25] CT
0.149 GC
2 setlinecap
10.0 ML
N
286.75 399 M
286.75 395.45 L
S
GR
GS
[0.75 0 0 0.75 0 0.25] CT
0.149 GC
2 setlinecap
10.0 ML
N
322.25 399 M
322.25 395.45 L
S
GR
GS
[0.75 0 0 0.75 0 0.25] CT
0.149 GC
2 setlinecap
10.0 ML
N
357.75 399 M
357.75 395.45 L
S
GR
GS
[0.75 0 0 0.75 0 0.25] CT
0.149 GC
2 setlinecap
10.0 ML
N
393.25 399 M
393.25 395.45 L
S
GR
GS
[0.75 0 0 0.75 0 0.25] CT
0.149 GC
2 setlinecap
10.0 ML
N
428.75 399 M
428.75 395.45 L
S
GR
GS
[0.75 0 0 0.75 0 0.25] CT
0.149 GC
2 setlinecap
10.0 ML
N
464.25 399 M
464.25 395.45 L
S
GR
GS
[0.75 0 0 0.75 0 0.25] CT
0.149 GC
2 setlinecap
10.0 ML
N
499.75 399 M
499.75 395.45 L
S
GR
GS
[0.75 0 0 0.75 0 0.25] CT
0.149 GC
2 setlinecap
10.0 ML
N
535.25 399 M
535.25 395.45 L
S
GR
GS
[0.75 0 0 0.75 0 0.25] CT
0.149 GC
2 setlinecap
10.0 ML
N
215.75 47 M
215.75 50.55 L
S
GR
GS
[0.75 0 0 0.75 0 0.25] CT
0.149 GC
2 setlinecap
10.0 ML
N
251.25 47 M
251.25 50.55 L
S
GR
GS
[0.75 0 0 0.75 0 0.25] CT
0.149 GC
2 setlinecap
10.0 ML
N
286.75 47 M
286.75 50.55 L
S
GR
GS
[0.75 0 0 0.75 0 0.25] CT
0.149 GC
2 setlinecap
10.0 ML
N
322.25 47 M
322.25 50.55 L
S
GR
GS
[0.75 0 0 0.75 0 0.25] CT
0.149 GC
2 setlinecap
10.0 ML
N
357.75 47 M
357.75 50.55 L
S
GR
GS
[0.75 0 0 0.75 0 0.25] CT
0.149 GC
2 setlinecap
10.0 ML
N
393.25 47 M
393.25 50.55 L
S
GR
GS
[0.75 0 0 0.75 0 0.25] CT
0.149 GC
2 setlinecap
10.0 ML
N
428.75 47 M
428.75 50.55 L
S
GR
GS
[0.75 0 0 0.75 0 0.25] CT
0.149 GC
2 setlinecap
10.0 ML
N
464.25 47 M
464.25 50.55 L
S
GR
GS
[0.75 0 0 0.75 0 0.25] CT
0.149 GC
2 setlinecap
10.0 ML
N
499.75 47 M
499.75 50.55 L
S
GR
GS
[0.75 0 0 0.75 0 0.25] CT
0.149 GC
2 setlinecap
10.0 ML
N
535.25 47 M
535.25 50.55 L
S
GR
GS
[0.75 0 0 0.75 161.8125 303.50001] CT
0.149 GC
/Helvetica 13 F
GS
[1 0 0 1 0 0] CT
-4.5 13 moveto 
1 -1 scale
(1) t 
GR
GR
GS
[0.75 0 0 0.75 188.4375 303.50001] CT
0.149 GC
/Helvetica 13 F
GS
[1 0 0 1 0 0] CT
-4.5 13 moveto 
1 -1 scale
(2) t 
GR
GR
GS
[0.75 0 0 0.75 215.0625 303.50001] CT
0.149 GC
/Helvetica 13 F
GS
[1 0 0 1 0 0] CT
-4.5 13 moveto 
1 -1 scale
(3) t 
GR
GR
GS
[0.75 0 0 0.75 241.6875 303.50001] CT
0.149 GC
/Helvetica 13 F
GS
[1 0 0 1 0 0] CT
-4.5 13 moveto 
1 -1 scale
(4) t 
GR
GR
GS
[0.75 0 0 0.75 268.3125 303.50001] CT
0.149 GC
/Helvetica 13 F
GS
[1 0 0 1 0 0] CT
-4.5 13 moveto 
1 -1 scale
(5) t 
GR
GR
GS
[0.75 0 0 0.75 294.9375 303.50001] CT
0.149 GC
/Helvetica 13 F
GS
[1 0 0 1 0 0] CT
-4.5 13 moveto 
1 -1 scale
(6) t 
GR
GR
GS
[0.75 0 0 0.75 321.5625 303.50001] CT
0.149 GC
/Helvetica 13 F
GS
[1 0 0 1 0 0] CT
-4.5 13 moveto 
1 -1 scale
(7) t 
GR
GR
GS
[0.75 0 0 0.75 348.1875 303.50001] CT
0.149 GC
/Helvetica 13 F
GS
[1 0 0 1 0 0] CT
-4.5 13 moveto 
1 -1 scale
(8) t 
GR
GR
GS
[0.75 0 0 0.75 374.8125 303.50001] CT
0.149 GC
/Helvetica 13 F
GS
[1 0 0 1 0 0] CT
-4.5 13 moveto 
1 -1 scale
(9) t 
GR
GR
GS
[0.75 0 0 0.75 401.4375 303.50001] CT
0.149 GC
/Helvetica 13 F
GS
[1 0 0 1 0 0] CT
-8.5 13 moveto 
1 -1 scale
(10) t 
GR
GR
GS
[0 -0.75 0.75 0 125.75 167.49987] CT
0.149 GC
/Helvetica 15 F
GS
[1 0 0 1 0 0] CT
-48 -4 moveto 
1 -1 scale
(engagement) t 
GR
GR
GS
[0.75 0 0 0.75 0 0.25] CT
0.149 GC
2 setlinecap
10.0 ML
N
198 399 M
198 47 L
S
GR
GS
[0.75 0 0 0.75 0 0.25] CT
0.149 GC
2 setlinecap
10.0 ML
N
553 399 M
553 47 L
S
GR
GS
[0.75 0 0 0.75 0 0.25] CT
0.149 GC
2 setlinecap
10.0 ML
N
198 361.286 M
201.55 361.286 L
S
GR
GS
[0.75 0 0 0.75 0 0.25] CT
0.149 GC
2 setlinecap
10.0 ML
N
198 298.429 M
201.55 298.429 L
S
GR
GS
[0.75 0 0 0.75 0 0.25] CT
0.149 GC
2 setlinecap
10.0 ML
N
198 235.571 M
201.55 235.571 L
S
GR
GS
[0.75 0 0 0.75 0 0.25] CT
0.149 GC
2 setlinecap
10.0 ML
N
198 172.714 M
201.55 172.714 L
S
GR
GS
[0.75 0 0 0.75 0 0.25] CT
0.149 GC
2 setlinecap
10.0 ML
N
198 109.857 M
201.55 109.857 L
S
GR
GS
[0.75 0 0 0.75 0 0.25] CT
0.149 GC
2 setlinecap
10.0 ML
N
198 47 M
201.55 47 L
S
GR
GS
[0.75 0 0 0.75 0 0.25] CT
0.149 GC
2 setlinecap
10.0 ML
N
553 361.286 M
549.45 361.286 L
S
GR
GS
[0.75 0 0 0.75 0 0.25] CT
0.149 GC
2 setlinecap
10.0 ML
N
553 298.429 M
549.45 298.429 L
S
GR
GS
[0.75 0 0 0.75 0 0.25] CT
0.149 GC
2 setlinecap
10.0 ML
N
553 235.571 M
549.45 235.571 L
S
GR
GS
[0.75 0 0 0.75 0 0.25] CT
0.149 GC
2 setlinecap
10.0 ML
N
553 172.714 M
549.45 172.714 L
S
GR
GS
[0.75 0 0 0.75 0 0.25] CT
0.149 GC
2 setlinecap
10.0 ML
N
553 109.857 M
549.45 109.857 L
S
GR
GS
[0.75 0 0 0.75 0 0.25] CT
0.149 GC
2 setlinecap
10.0 ML
N
553 47 M
549.45 47 L
S
GR
GS
[0.75 0 0 0.75 144.5 271.21428] CT
0.149 GC
/Helvetica 13 F
GS
[1 0 0 1 0 0] CT
-21 4.5 moveto 
1 -1 scale
(0.5) t 
GR
GR
GS
[0.75 0 0 0.75 144.5 224.07142] CT
0.149 GC
/Helvetica 13 F
GS
[1 0 0 1 0 0] CT
-9 4.5 moveto 
1 -1 scale
(1) t 
GR
GR
GS
[0.75 0 0 0.75 144.5 176.92857] CT
0.149 GC
/Helvetica 13 F
GS
[1 0 0 1 0 0] CT
-21 4.5 moveto 
1 -1 scale
(1.5) t 
GR
GR
GS
[0.75 0 0 0.75 144.5 129.78571] CT
0.149 GC
/Helvetica 13 F
GS
[1 0 0 1 0 0] CT
-9 4.5 moveto 
1 -1 scale
(2) t 
GR
GR
GS
[0.75 0 0 0.75 144.5 82.64285] CT
0.149 GC
/Helvetica 13 F
GS
[1 0 0 1 0 0] CT
-21 4.5 moveto 
1 -1 scale
(2.5) t 
GR
GR
GS
[0.75 0 0 0.75 144.5 35.5] CT
0.149 GC
/Helvetica 13 F
GS
[1 0 0 1 0 0] CT
-9 4.5 moveto 
1 -1 scale
(3) t 
GR
GR
GS
[0.75 0 0 0.75 0 0.25] CT
[10 6] 0 setdash
2 LJ
N
215.75 367.052 M
215.75 327.568 L
S
GR
GS
[0.75 0 0 0.75 0 0.25] CT
[10 6] 0 setdash
2 LJ
N
251.25 347.592 M
251.25 316.772 L
S
GR
GS
[0.75 0 0 0.75 0 0.25] CT
[10 6] 0 setdash
2 LJ
N
286.75 326.119 M
286.75 282.845 L
S
GR
GS
[0.75 0 0 0.75 0 0.25] CT
[10 6] 0 setdash
2 LJ
N
322.25 299.491 M
322.25 274.421 L
S
GR
GS
[0.75 0 0 0.75 0 0.25] CT
[10 6] 0 setdash
2 LJ
N
357.75 277.597 M
357.75 210.997 L
S
GR
GS
[0.75 0 0 0.75 0 0.25] CT
[10 6] 0 setdash
2 LJ
N
393.25 253.854 M
393.25 189.714 L
S
GR
GS
[0.75 0 0 0.75 0 0.25] CT
[10 6] 0 setdash
2 LJ
N
428.75 241.665 M
428.75 175.552 L
S
GR
GS
[0.75 0 0 0.75 0 0.25] CT
[10 6] 0 setdash
2 LJ
N
464.25 233.343 M
464.25 162.501 L
S
GR
GS
[0.75 0 0 0.75 0 0.25] CT
[10 6] 0 setdash
2 LJ
N
499.75 221.591 M
499.75 160.953 L
S
GR
GS
[0.75 0 0 0.75 0 0.25] CT
[10 6] 0 setdash
2 LJ
N
535.25 208.219 M
535.25 123.964 L
S
GR
GS
[0.75 0 0 0.75 0 0.25] CT
[10 6] 0 setdash
2 LJ
N
215.75 399.035 M
215.75 394.987 L
S
GR
GS
[0.75 0 0 0.75 0 0.25] CT
[10 6] 0 setdash
2 LJ
N
251.25 393.461 M
251.25 368.51 L
S
GR
GS
[0.75 0 0 0.75 0 0.25] CT
[10 6] 0 setdash
2 LJ
N
286.75 395.932 M
286.75 356.364 L
S
GR
GS
[0.75 0 0 0.75 0 0.25] CT
[10 6] 0 setdash
2 LJ
N
322.25 347.5 M
322.25 327.019 L
S
GR
GS
[0.75 0 0 0.75 0 0.25] CT
[10 6] 0 setdash
2 LJ
N
357.75 382.728 M
357.75 322.186 L
S
GR
GS
[0.75 0 0 0.75 0 0.25] CT
[10 6] 0 setdash
2 LJ
N
393.25 351.346 M
393.25 299.408 L
S
GR
GS
[0.75 0 0 0.75 0 0.25] CT
[10 6] 0 setdash
2 LJ
N
428.75 375.215 M
428.75 302.262 L
S
GR
GS
[0.75 0 0 0.75 0 0.25] CT
[10 6] 0 setdash
2 LJ
N
464.25 354.058 M
464.25 297.626 L
S
GR
GS
[0.75 0 0 0.75 0 0.25] CT
[10 6] 0 setdash
2 LJ
N
499.75 344.394 M
499.75 293.901 L
S
GR
GS
[0.75 0 0 0.75 0 0.25] CT
[10 6] 0 setdash
2 LJ
N
535.25 375.012 M
535.25 284.683 L
S
GR
GS
[0.75 0 0 0.75 0 0.25] CT
2 setlinecap
10.0 ML
N
211.313 327.568 M
220.188 327.568 L
S
GR
GS
[0.75 0 0 0.75 0 0.25] CT
2 setlinecap
10.0 ML
N
246.813 316.772 M
255.688 316.772 L
S
GR
GS
[0.75 0 0 0.75 0 0.25] CT
2 setlinecap
10.0 ML
N
282.313 282.845 M
291.188 282.845 L
S
GR
GS
[0.75 0 0 0.75 0 0.25] CT
2 setlinecap
10.0 ML
N
317.813 274.421 M
326.688 274.421 L
S
GR
GS
[0.75 0 0 0.75 0 0.25] CT
2 setlinecap
10.0 ML
N
353.313 210.997 M
362.188 210.997 L
S
GR
GS
[0.75 0 0 0.75 0 0.25] CT
2 setlinecap
10.0 ML
N
388.813 189.714 M
397.688 189.714 L
S
GR
GS
[0.75 0 0 0.75 0 0.25] CT
2 setlinecap
10.0 ML
N
424.313 175.552 M
433.188 175.552 L
S
GR
GS
[0.75 0 0 0.75 0 0.25] CT
2 setlinecap
10.0 ML
N
459.813 162.501 M
468.688 162.501 L
S
GR
GS
[0.75 0 0 0.75 0 0.25] CT
2 setlinecap
10.0 ML
N
495.313 160.953 M
504.188 160.953 L
S
GR
GS
[0.75 0 0 0.75 0 0.25] CT
2 setlinecap
10.0 ML
N
530.813 123.964 M
539.688 123.964 L
S
GR
GS
[0.75 0 0 0.75 0 0.25] CT
2 setlinecap
10.0 ML
N
246.813 393.461 M
255.688 393.461 L
S
GR
GS
[0.75 0 0 0.75 0 0.25] CT
2 setlinecap
10.0 ML
N
282.313 395.932 M
291.188 395.932 L
S
GR
GS
[0.75 0 0 0.75 0 0.25] CT
2 setlinecap
10.0 ML
N
317.813 347.5 M
326.688 347.5 L
S
GR
GS
[0.75 0 0 0.75 0 0.25] CT
2 setlinecap
10.0 ML
N
353.313 382.728 M
362.188 382.728 L
S
GR
GS
[0.75 0 0 0.75 0 0.25] CT
2 setlinecap
10.0 ML
N
388.813 351.346 M
397.688 351.346 L
S
GR
GS
[0.75 0 0 0.75 0 0.25] CT
2 setlinecap
10.0 ML
N
424.313 375.215 M
433.188 375.215 L
S
GR
GS
[0.75 0 0 0.75 0 0.25] CT
2 setlinecap
10.0 ML
N
459.813 354.058 M
468.688 354.058 L
S
GR
GS
[0.75 0 0 0.75 0 0.25] CT
2 setlinecap
10.0 ML
N
495.313 344.394 M
504.188 344.394 L
S
GR
GS
[0.75 0 0 0.75 0 0.25] CT
2 setlinecap
10.0 ML
N
530.813 375.012 M
539.688 375.012 L
S
GR
GS
[0.75 0 0 0.75 0 0.25] CT
0 0 1 RC
2 setlinecap
10.0 ML
N
206.875 394.987 M
206.875 367.052 L
224.625 367.052 L
224.625 394.987 L
206.875 394.987 L
S
GR
GS
[0.75 0 0 0.75 0 0.25] CT
0 0 1 RC
2 setlinecap
10.0 ML
N
242.375 368.51 M
242.375 347.592 L
260.125 347.592 L
260.125 368.51 L
242.375 368.51 L
S
GR
GS
[0.75 0 0 0.75 0 0.25] CT
0 0 1 RC
2 setlinecap
10.0 ML
N
277.875 356.364 M
277.875 326.119 L
295.625 326.119 L
295.625 356.364 L
277.875 356.364 L
S
GR
GS
[0.75 0 0 0.75 0 0.25] CT
0 0 1 RC
2 setlinecap
10.0 ML
N
313.375 327.019 M
313.375 299.491 L
331.125 299.491 L
331.125 327.019 L
313.375 327.019 L
S
GR
GS
[0.75 0 0 0.75 0 0.25] CT
0 0 1 RC
2 setlinecap
10.0 ML
N
348.875 322.186 M
348.875 277.597 L
366.625 277.597 L
366.625 322.186 L
348.875 322.186 L
S
GR
GS
[0.75 0 0 0.75 0 0.25] CT
0 0 1 RC
2 setlinecap
10.0 ML
N
384.375 299.408 M
384.375 253.854 L
402.125 253.854 L
402.125 299.408 L
384.375 299.408 L
S
GR
GS
[0.75 0 0 0.75 0 0.25] CT
0 0 1 RC
2 setlinecap
10.0 ML
N
419.875 302.262 M
419.875 241.665 L
437.625 241.665 L
437.625 302.262 L
419.875 302.262 L
S
GR
GS
[0.75 0 0 0.75 0 0.25] CT
0 0 1 RC
2 setlinecap
10.0 ML
N
455.375 297.626 M
455.375 233.343 L
473.125 233.343 L
473.125 297.626 L
455.375 297.626 L
S
GR
GS
[0.75 0 0 0.75 0 0.25] CT
0 0 1 RC
2 setlinecap
10.0 ML
N
490.875 293.901 M
490.875 221.591 L
508.625 221.591 L
508.625 293.901 L
490.875 293.901 L
S
GR
GS
[0.75 0 0 0.75 0 0.25] CT
0 0 1 RC
2 setlinecap
10.0 ML
N
526.375 284.683 M
526.375 208.219 L
544.125 208.219 L
544.125 284.683 L
526.375 284.683 L
S
GR
GS
[0.75 0 0 0.75 0 0.25] CT
1 0 0 RC
2 setlinecap
10.0 ML
N
206.875 389.194 M
224.625 389.194 L
S
GR
GS
[0.75 0 0 0.75 0 0.25] CT
1 0 0 RC
2 setlinecap
10.0 ML
N
242.375 361.826 M
260.125 361.826 L
S
GR
GS
[0.75 0 0 0.75 0 0.25] CT
1 0 0 RC
2 setlinecap
10.0 ML
N
277.875 336.062 M
295.625 336.062 L
S
GR
GS
[0.75 0 0 0.75 0 0.25] CT
1 0 0 RC
2 setlinecap
10.0 ML
N
313.375 314.968 M
331.125 314.968 L
S
GR
GS
[0.75 0 0 0.75 0 0.25] CT
1 0 0 RC
2 setlinecap
10.0 ML
N
348.875 296.485 M
366.625 296.485 L
S
GR
GS
[0.75 0 0 0.75 0 0.25] CT
1 0 0 RC
2 setlinecap
10.0 ML
N
384.375 272.151 M
402.125 272.151 L
S
GR
GS
[0.75 0 0 0.75 0 0.25] CT
1 0 0 RC
2 setlinecap
10.0 ML
N
419.875 264.227 M
437.625 264.227 L
S
GR
GS
[0.75 0 0 0.75 0 0.25] CT
1 0 0 RC
2 setlinecap
10.0 ML
N
455.375 263.717 M
473.125 263.717 L
S
GR
GS
[0.75 0 0 0.75 0 0.25] CT
1 0 0 RC
2 setlinecap
10.0 ML
N
490.875 254.94 M
508.625 254.94 L
S
GR
GS
[0.75 0 0 0.75 0 0.25] CT
1 0 0 RC
2 setlinecap
10.0 ML
N
526.375 237.544 M
544.125 237.544 L
S
GR
GS
[0.75 0 0 0.75 0 0.25] CT
1 GC
N
679 396 M
1078 396 L
1078 43 L
679 43 L
cp
f
GR
GS
[0.75 0 0 0.75 658.87514 314.99999] CT
0.149 GC
/Helvetica 15 F
GS
[1 0 0 1 0 0] CT
-149.5 14 moveto 
1 -1 scale
(perturbation duration \(number of trials\)) t 
GR
GR
GS
[0.75 0 0 0.75 0 0.25] CT
0.149 GC
2 setlinecap
10.0 ML
N
679 396 M
1078 396 L
S
GR
GS
[0.75 0 0 0.75 0 0.25] CT
0.149 GC
2 setlinecap
10.0 ML
N
679 43 M
1078 43 L
S
GR
GS
[0.75 0 0 0.75 0 0.25] CT
0.149 GC
2 setlinecap
10.0 ML
N
698.95 396 M
698.95 392.01 L
S
GR
GS
[0.75 0 0 0.75 0 0.25] CT
0.149 GC
2 setlinecap
10.0 ML
N
738.85 396 M
738.85 392.01 L
S
GR
GS
[0.75 0 0 0.75 0 0.25] CT
0.149 GC
2 setlinecap
10.0 ML
N
778.75 396 M
778.75 392.01 L
S
GR
GS
[0.75 0 0 0.75 0 0.25] CT
0.149 GC
2 setlinecap
10.0 ML
N
818.65 396 M
818.65 392.01 L
S
GR
GS
[0.75 0 0 0.75 0 0.25] CT
0.149 GC
2 setlinecap
10.0 ML
N
858.55 396 M
858.55 392.01 L
S
GR
GS
[0.75 0 0 0.75 0 0.25] CT
0.149 GC
2 setlinecap
10.0 ML
N
898.45 396 M
898.45 392.01 L
S
GR
GS
[0.75 0 0 0.75 0 0.25] CT
0.149 GC
2 setlinecap
10.0 ML
N
938.35 396 M
938.35 392.01 L
S
GR
GS
[0.75 0 0 0.75 0 0.25] CT
0.149 GC
2 setlinecap
10.0 ML
N
978.25 396 M
978.25 392.01 L
S
GR
GS
[0.75 0 0 0.75 0 0.25] CT
0.149 GC
2 setlinecap
10.0 ML
N
1018.15 396 M
1018.15 392.01 L
S
GR
GS
[0.75 0 0 0.75 0 0.25] CT
0.149 GC
2 setlinecap
10.0 ML
N
1058.05 396 M
1058.05 392.01 L
S
GR
GS
[0.75 0 0 0.75 0 0.25] CT
0.149 GC
2 setlinecap
10.0 ML
N
698.95 43 M
698.95 46.99 L
S
GR
GS
[0.75 0 0 0.75 0 0.25] CT
0.149 GC
2 setlinecap
10.0 ML
N
738.85 43 M
738.85 46.99 L
S
GR
GS
[0.75 0 0 0.75 0 0.25] CT
0.149 GC
2 setlinecap
10.0 ML
N
778.75 43 M
778.75 46.99 L
S
GR
GS
[0.75 0 0 0.75 0 0.25] CT
0.149 GC
2 setlinecap
10.0 ML
N
818.65 43 M
818.65 46.99 L
S
GR
GS
[0.75 0 0 0.75 0 0.25] CT
0.149 GC
2 setlinecap
10.0 ML
N
858.55 43 M
858.55 46.99 L
S
GR
GS
[0.75 0 0 0.75 0 0.25] CT
0.149 GC
2 setlinecap
10.0 ML
N
898.45 43 M
898.45 46.99 L
S
GR
GS
[0.75 0 0 0.75 0 0.25] CT
0.149 GC
2 setlinecap
10.0 ML
N
938.35 43 M
938.35 46.99 L
S
GR
GS
[0.75 0 0 0.75 0 0.25] CT
0.149 GC
2 setlinecap
10.0 ML
N
978.25 43 M
978.25 46.99 L
S
GR
GS
[0.75 0 0 0.75 0 0.25] CT
0.149 GC
2 setlinecap
10.0 ML
N
1018.15 43 M
1018.15 46.99 L
S
GR
GS
[0.75 0 0 0.75 0 0.25] CT
0.149 GC
2 setlinecap
10.0 ML
N
1058.05 43 M
1058.05 46.99 L
S
GR
GS
[0.75 0 0 0.75 524.21251 301.25001] CT
0.149 GC
/Helvetica 13 F
GS
[1 0 0 1 0 0] CT
-4.5 13 moveto 
1 -1 scale
(1) t 
GR
GR
GS
[0.75 0 0 0.75 554.13748 301.25001] CT
0.149 GC
/Helvetica 13 F
GS
[1 0 0 1 0 0] CT
-4.5 13 moveto 
1 -1 scale
(2) t 
GR
GR
GS
[0.75 0 0 0.75 584.0625 301.25001] CT
0.149 GC
/Helvetica 13 F
GS
[1 0 0 1 0 0] CT
-4.5 13 moveto 
1 -1 scale
(3) t 
GR
GR
GS
[0.75 0 0 0.75 613.98752 301.25001] CT
0.149 GC
/Helvetica 13 F
GS
[1 0 0 1 0 0] CT
-4.5 13 moveto 
1 -1 scale
(4) t 
GR
GR
GS
[0.75 0 0 0.75 643.91249 301.25001] CT
0.149 GC
/Helvetica 13 F
GS
[1 0 0 1 0 0] CT
-4.5 13 moveto 
1 -1 scale
(5) t 
GR
GR
GS
[0.75 0 0 0.75 673.83751 301.25001] CT
0.149 GC
/Helvetica 13 F
GS
[1 0 0 1 0 0] CT
-4.5 13 moveto 
1 -1 scale
(6) t 
GR
GR
GS
[0.75 0 0 0.75 703.76248 301.25001] CT
0.149 GC
/Helvetica 13 F
GS
[1 0 0 1 0 0] CT
-4.5 13 moveto 
1 -1 scale
(7) t 
GR
GR
GS
[0.75 0 0 0.75 733.6875 301.25001] CT
0.149 GC
/Helvetica 13 F
GS
[1 0 0 1 0 0] CT
-4.5 13 moveto 
1 -1 scale
(8) t 
GR
GR
GS
[0.75 0 0 0.75 763.61252 301.25001] CT
0.149 GC
/Helvetica 13 F
GS
[1 0 0 1 0 0] CT
-4.5 13 moveto 
1 -1 scale
(9) t 
GR
GR
GS
[0.75 0 0 0.75 793.53754 301.25001] CT
0.149 GC
/Helvetica 13 F
GS
[1 0 0 1 0 0] CT
-8.5 13 moveto 
1 -1 scale
(10) t 
GR
GR
GS
[0 -0.75 0.75 0 486.50002 164.87487] CT
0.149 GC
/Helvetica 15 F
GS
[1 0 0 1 0 0] CT
-65.5 -4 moveto 
1 -1 scale
(action parameter) t 
GR
GR
GS
[0.75 0 0 0.75 0 0.25] CT
0.149 GC
2 setlinecap
10.0 ML
N
679 396 M
679 43 L
S
GR
GS
[0.75 0 0 0.75 0 0.25] CT
0.149 GC
2 setlinecap
10.0 ML
N
1078 396 M
1078 43 L
S
GR
GS
[0.75 0 0 0.75 0 0.25] CT
0.149 GC
2 setlinecap
10.0 ML
N
679 394.406 M
682.99 394.406 L
S
GR
GS
[0.75 0 0 0.75 0 0.25] CT
0.149 GC
2 setlinecap
10.0 ML
N
679 346.937 M
682.99 346.937 L
S
GR
GS
[0.75 0 0 0.75 0 0.25] CT
0.149 GC
2 setlinecap
10.0 ML
N
679 299.468 M
682.99 299.468 L
S
GR
GS
[0.75 0 0 0.75 0 0.25] CT
0.149 GC
2 setlinecap
10.0 ML
N
679 251.998 M
682.99 251.998 L
S
GR
GS
[0.75 0 0 0.75 0 0.25] CT
0.149 GC
2 setlinecap
10.0 ML
N
679 204.529 M
682.99 204.529 L
S
GR
GS
[0.75 0 0 0.75 0 0.25] CT
0.149 GC
2 setlinecap
10.0 ML
N
679 157.06 M
682.99 157.06 L
S
GR
GS
[0.75 0 0 0.75 0 0.25] CT
0.149 GC
2 setlinecap
10.0 ML
N
679 109.59 M
682.99 109.59 L
S
GR
GS
[0.75 0 0 0.75 0 0.25] CT
0.149 GC
2 setlinecap
10.0 ML
N
679 62.121 M
682.99 62.121 L
S
GR
GS
[0.75 0 0 0.75 0 0.25] CT
0.149 GC
2 setlinecap
10.0 ML
N
1078 394.406 M
1074.01 394.406 L
S
GR
GS
[0.75 0 0 0.75 0 0.25] CT
0.149 GC
2 setlinecap
10.0 ML
N
1078 346.937 M
1074.01 346.937 L
S
GR
GS
[0.75 0 0 0.75 0 0.25] CT
0.149 GC
2 setlinecap
10.0 ML
N
1078 299.468 M
1074.01 299.468 L
S
GR
GS
[0.75 0 0 0.75 0 0.25] CT
0.149 GC
2 setlinecap
10.0 ML
N
1078 251.998 M
1074.01 251.998 L
S
GR
GS
[0.75 0 0 0.75 0 0.25] CT
0.149 GC
2 setlinecap
10.0 ML
N
1078 204.529 M
1074.01 204.529 L
S
GR
GS
[0.75 0 0 0.75 0 0.25] CT
0.149 GC
2 setlinecap
10.0 ML
N
1078 157.06 M
1074.01 157.06 L
S
GR
GS
[0.75 0 0 0.75 0 0.25] CT
0.149 GC
2 setlinecap
10.0 ML
N
1078 109.59 M
1074.01 109.59 L
S
GR
GS
[0.75 0 0 0.75 0 0.25] CT
0.149 GC
2 setlinecap
10.0 ML
N
1078 62.121 M
1074.01 62.121 L
S
GR
GS
[0.75 0 0 0.75 505.25002 296.05473] CT
0.149 GC
/Helvetica 13 F
GS
[1 0 0 1 0 0] CT
-9 4.5 moveto 
1 -1 scale
(0) t 
GR
GR
GS
[0.75 0 0 0.75 505.25002 260.45274] CT
0.149 GC
/Helvetica 13 F
GS
[1 0 0 1 0 0] CT
-21 4.5 moveto 
1 -1 scale
(0.5) t 
GR
GR
GS
[0.75 0 0 0.75 505.25002 224.85076] CT
0.149 GC
/Helvetica 13 F
GS
[1 0 0 1 0 0] CT
-9 4.5 moveto 
1 -1 scale
(1) t 
GR
GR
GS
[0.75 0 0 0.75 505.25002 189.24879] CT
0.149 GC
/Helvetica 13 F
GS
[1 0 0 1 0 0] CT
-21 4.5 moveto 
1 -1 scale
(1.5) t 
GR
GR
GS
[0.75 0 0 0.75 505.25002 153.64681] CT
0.149 GC
/Helvetica 13 F
GS
[1 0 0 1 0 0] CT
-9 4.5 moveto 
1 -1 scale
(2) t 
GR
GR
GS
[0.75 0 0 0.75 505.25002 118.04483] CT
0.149 GC
/Helvetica 13 F
GS
[1 0 0 1 0 0] CT
-21 4.5 moveto 
1 -1 scale
(2.5) t 
GR
GR
GS
[0.75 0 0 0.75 505.25002 82.44285] CT
0.149 GC
/Helvetica 13 F
GS
[1 0 0 1 0 0] CT
-9 4.5 moveto 
1 -1 scale
(3) t 
GR
GR
GS
[0.75 0 0 0.75 505.25002 46.84087] CT
0.149 GC
/Helvetica 13 F
GS
[1 0 0 1 0 0] CT
-21 4.5 moveto 
1 -1 scale
(3.5) t 
GR
GR
GS
[0.75 0 0 0.75 0 0.25] CT
[10 6] 0 setdash
2 LJ
N
698.95 273.897 M
698.95 230.504 L
S
GR
GS
[0.75 0 0 0.75 0 0.25] CT
[10 6] 0 setdash
2 LJ
N
738.85 261.614 M
738.85 200.948 L
S
GR
GS
[0.75 0 0 0.75 0 0.25] CT
[10 6] 0 setdash
2 LJ
N
778.75 260.972 M
778.75 215.56 L
S
GR
GS
[0.75 0 0 0.75 0 0.25] CT
[10 6] 0 setdash
2 LJ
N
818.65 246.057 M
818.65 217.62 L
S
GR
GS
[0.75 0 0 0.75 0 0.25] CT
[10 6] 0 setdash
2 LJ
N
858.55 232.985 M
858.55 196.532 L
S
GR
GS
[0.75 0 0 0.75 0 0.25] CT
[10 6] 0 setdash
2 LJ
N
898.45 212.701 M
898.45 169.312 L
S
GR
GS
[0.75 0 0 0.75 0 0.25] CT
[10 6] 0 setdash
2 LJ
N
938.35 228.479 M
938.35 183.495 L
S
GR
GS
[0.75 0 0 0.75 0 0.25] CT
[10 6] 0 setdash
2 LJ
N
978.25 211.968 M
978.25 170.358 L
S
GR
GS
[0.75 0 0 0.75 0 0.25] CT
[10 6] 0 setdash
2 LJ
N
1018.15 178.786 M
1018.15 111.931 L
S
GR
GS
[0.75 0 0 0.75 0 0.25] CT
[10 6] 0 setdash
2 LJ
N
1058.05 188.353 M
1058.05 126.299 L
S
GR
GS
[0.75 0 0 0.75 0 0.25] CT
[10 6] 0 setdash
2 LJ
N
698.95 379.955 M
698.95 321.845 L
S
GR
GS
[0.75 0 0 0.75 0 0.25] CT
[10 6] 0 setdash
2 LJ
N
738.85 367.591 M
738.85 309.338 L
S
GR
GS
[0.75 0 0 0.75 0 0.25] CT
[10 6] 0 setdash
2 LJ
N
778.75 315.884 M
778.75 292.19 L
S
GR
GS
[0.75 0 0 0.75 0 0.25] CT
[10 6] 0 setdash
2 LJ
N
818.65 339.319 M
818.65 286.941 L
S
GR
GS
[0.75 0 0 0.75 0 0.25] CT
[10 6] 0 setdash
2 LJ
N
858.55 314.089 M
858.55 273.98 L
S
GR
GS
[0.75 0 0 0.75 0 0.25] CT
[10 6] 0 setdash
2 LJ
N
898.45 304.686 M
898.45 256.158 L
S
GR
GS
[0.75 0 0 0.75 0 0.25] CT
[10 6] 0 setdash
2 LJ
N
938.35 308.717 M
938.35 271.977 L
S
GR
GS
[0.75 0 0 0.75 0 0.25] CT
[10 6] 0 setdash
2 LJ
N
978.25 290.286 M
978.25 244.519 L
S
GR
GS
[0.75 0 0 0.75 0 0.25] CT
[10 6] 0 setdash
2 LJ
N
1018.15 292.937 M
1018.15 245.658 L
S
GR
GS
[0.75 0 0 0.75 0 0.25] CT
[10 6] 0 setdash
2 LJ
N
1058.05 278.609 M
1058.05 242.642 L
S
GR
GS
[0.75 0 0 0.75 0 0.25] CT
2 setlinecap
10.0 ML
N
693.963 230.504 M
703.938 230.504 L
S
GR
GS
[0.75 0 0 0.75 0 0.25] CT
2 setlinecap
10.0 ML
N
733.862 200.948 M
743.838 200.948 L
S
GR
GS
[0.75 0 0 0.75 0 0.25] CT
2 setlinecap
10.0 ML
N
773.763 215.56 M
783.737 215.56 L
S
GR
GS
[0.75 0 0 0.75 0 0.25] CT
2 setlinecap
10.0 ML
N
813.662 217.62 M
823.638 217.62 L
S
GR
GS
[0.75 0 0 0.75 0 0.25] CT
2 setlinecap
10.0 ML
N
853.563 196.532 M
863.537 196.532 L
S
GR
GS
[0.75 0 0 0.75 0 0.25] CT
2 setlinecap
10.0 ML
N
893.463 169.312 M
903.438 169.312 L
S
GR
GS
[0.75 0 0 0.75 0 0.25] CT
2 setlinecap
10.0 ML
N
933.362 183.495 M
943.338 183.495 L
S
GR
GS
[0.75 0 0 0.75 0 0.25] CT
2 setlinecap
10.0 ML
N
973.263 170.358 M
983.237 170.358 L
S
GR
GS
[0.75 0 0 0.75 0 0.25] CT
2 setlinecap
10.0 ML
N
1013.162 111.931 M
1023.138 111.931 L
S
GR
GS
[0.75 0 0 0.75 0 0.25] CT
2 setlinecap
10.0 ML
N
1053.063 126.299 M
1063.037 126.299 L
S
GR
GS
[0.75 0 0 0.75 0 0.25] CT
2 setlinecap
10.0 ML
N
693.963 379.955 M
703.938 379.955 L
S
GR
GS
[0.75 0 0 0.75 0 0.25] CT
2 setlinecap
10.0 ML
N
733.862 367.591 M
743.838 367.591 L
S
GR
GS
[0.75 0 0 0.75 0 0.25] CT
2 setlinecap
10.0 ML
N
773.763 315.884 M
783.737 315.884 L
S
GR
GS
[0.75 0 0 0.75 0 0.25] CT
2 setlinecap
10.0 ML
N
813.662 339.319 M
823.638 339.319 L
S
GR
GS
[0.75 0 0 0.75 0 0.25] CT
2 setlinecap
10.0 ML
N
853.563 314.089 M
863.537 314.089 L
S
GR
GS
[0.75 0 0 0.75 0 0.25] CT
2 setlinecap
10.0 ML
N
893.463 304.686 M
903.438 304.686 L
S
GR
GS
[0.75 0 0 0.75 0 0.25] CT
2 setlinecap
10.0 ML
N
933.362 308.717 M
943.338 308.717 L
S
GR
GS
[0.75 0 0 0.75 0 0.25] CT
2 setlinecap
10.0 ML
N
973.263 290.286 M
983.237 290.286 L
S
GR
GS
[0.75 0 0 0.75 0 0.25] CT
2 setlinecap
10.0 ML
N
1013.162 292.937 M
1023.138 292.937 L
S
GR
GS
[0.75 0 0 0.75 0 0.25] CT
2 setlinecap
10.0 ML
N
1053.063 278.609 M
1063.037 278.609 L
S
GR
GS
[0.75 0 0 0.75 0 0.25] CT
0 0 1 RC
2 setlinecap
10.0 ML
N
688.975 321.845 M
688.975 273.897 L
708.925 273.897 L
708.925 321.845 L
688.975 321.845 L
S
GR
GS
[0.75 0 0 0.75 0 0.25] CT
0 0 1 RC
2 setlinecap
10.0 ML
N
728.875 309.338 M
728.875 261.614 L
748.825 261.614 L
748.825 309.338 L
728.875 309.338 L
S
GR
GS
[0.75 0 0 0.75 0 0.25] CT
0 0 1 RC
2 setlinecap
10.0 ML
N
768.775 292.19 M
768.775 260.972 L
788.725 260.972 L
788.725 292.19 L
768.775 292.19 L
S
GR
GS
[0.75 0 0 0.75 0 0.25] CT
0 0 1 RC
2 setlinecap
10.0 ML
N
808.675 286.941 M
808.675 246.057 L
828.625 246.057 L
828.625 286.941 L
808.675 286.941 L
S
GR
GS
[0.75 0 0 0.75 0 0.25] CT
0 0 1 RC
2 setlinecap
10.0 ML
N
848.575 273.98 M
848.575 232.985 L
868.525 232.985 L
868.525 273.98 L
848.575 273.98 L
S
GR
GS
[0.75 0 0 0.75 0 0.25] CT
0 0 1 RC
2 setlinecap
10.0 ML
N
888.475 256.158 M
888.475 212.701 L
908.425 212.701 L
908.425 256.158 L
888.475 256.158 L
S
GR
GS
[0.75 0 0 0.75 0 0.25] CT
0 0 1 RC
2 setlinecap
10.0 ML
N
928.375 271.977 M
928.375 228.479 L
948.325 228.479 L
948.325 271.977 L
928.375 271.977 L
S
GR
GS
[0.75 0 0 0.75 0 0.25] CT
0 0 1 RC
2 setlinecap
10.0 ML
N
968.275 244.519 M
968.275 211.968 L
988.225 211.968 L
988.225 244.519 L
968.275 244.519 L
S
GR
GS
[0.75 0 0 0.75 0 0.25] CT
0 0 1 RC
2 setlinecap
10.0 ML
N
1008.175 245.658 M
1008.175 178.786 L
1028.125 178.786 L
1028.125 245.658 L
1008.175 245.658 L
S
GR
GS
[0.75 0 0 0.75 0 0.25] CT
0 0 1 RC
2 setlinecap
10.0 ML
N
1048.075 242.642 M
1048.075 188.353 L
1068.025 188.353 L
1068.025 242.642 L
1048.075 242.642 L
S
GR
GS
[0.75 0 0 0.75 0 0.25] CT
1 0 0 RC
2 setlinecap
10.0 ML
N
688.975 300.406 M
708.925 300.406 L
S
GR
GS
[0.75 0 0 0.75 0 0.25] CT
1 0 0 RC
2 setlinecap
10.0 ML
N
728.875 281.679 M
748.825 281.679 L
S
GR
GS
[0.75 0 0 0.75 0 0.25] CT
1 0 0 RC
2 setlinecap
10.0 ML
N
768.775 276.687 M
788.725 276.687 L
S
GR
GS
[0.75 0 0 0.75 0 0.25] CT
1 0 0 RC
2 setlinecap
10.0 ML
N
808.675 268.737 M
828.625 268.737 L
S
GR
GS
[0.75 0 0 0.75 0 0.25] CT
1 0 0 RC
2 setlinecap
10.0 ML
N
848.575 259.394 M
868.525 259.394 L
S
GR
GS
[0.75 0 0 0.75 0 0.25] CT
1 0 0 RC
2 setlinecap
10.0 ML
N
888.475 232.566 M
908.425 232.566 L
S
GR
GS
[0.75 0 0 0.75 0 0.25] CT
1 0 0 RC
2 setlinecap
10.0 ML
N
928.375 247.455 M
948.325 247.455 L
S
GR
GS
[0.75 0 0 0.75 0 0.25] CT
1 0 0 RC
2 setlinecap
10.0 ML
N
968.275 232.429 M
988.225 232.429 L
S
GR
GS
[0.75 0 0 0.75 0 0.25] CT
1 0 0 RC
2 setlinecap
10.0 ML
N
1008.175 213.557 M
1028.125 213.557 L
S
GR
GS
[0.75 0 0 0.75 0 0.25] CT
1 0 0 RC
2 setlinecap
10.0 ML
N
1048.075 222.138 M
1068.025 222.138 L
S
GR
%%Trailer
%%Pages: 1
%%EOF
